{
    "key": "group_5a17c8e34574a",
    "title": "Submit Experience",
    "fields": [
        {
            "key": "field_5a17c8f622002",
            "label": "Success Message",
            "name": "submit_experience_success_message",
            "type": "textarea",
            "value": null,
            "instructions": "",
            "required": 1,
            "conditional_logic": 0,
            "wrapper": {
                "width": "",
                "class": "",
                "id": ""
            },
            "default_value": "Our team will review it before publishing.",
            "placeholder": "",
            "maxlength": "",
            "rows": 5,
            "new_lines": "br"
        },
        {
            "key": "field_5a17c91022003",
            "label": "Admin Emails",
            "name": "submit_experience_admin_emails",
            "type": "text",
            "value": null,
            "instructions": "Comma separated list of email addresses to let them know that there is a new event submitted.",
            "required": 0,
            "conditional_logic": 0,
            "wrapper": {
                "width": "",
                "class": "",
                "id": ""
            },
            "default_value": "",
            "placeholder": "",
            "prepend": "",
            "append": "",
            "maxlength": ""
        }
    ],
    "location": [
        [
            {
                "param": "options_page",
                "operator": "==",
                "value": "ve-config-experience-submit"
            }
        ]
    ],
    "menu_order": 0,
    "position": "normal",
    "style": "default",
    "label_placement": "top",
    "instruction_placement": "label",
    "hide_on_screen": "",
    "active": 1,
    "description": "",
    "modified": 1511508312
}