{
    "key": "group_5a17618701d09",
    "title": "Features",
    "fields": [
        {
            "key": "field_59f9a1cdabece",
            "label": "Inspire Me",
            "name": "inspire_me_is_enabled",
            "type": "true_false",
            "value": null,
            "instructions": "",
            "required": 0,
            "conditional_logic": 0,
            "wrapper": {
                "width": "100",
                "class": "",
                "id": ""
            },
            "message": "If enabled, the Inspire Me section will be made available to the public. Note that it will always be enabled for admins.",
            "default_value": 0,
            "ui": 0,
            "ui_on_text": "",
            "ui_off_text": ""
        },
        {
            "key": "field_5a176304c46dd",
            "label": "User Accounts",
            "name": "user_accounts_is_enabled",
            "type": "true_false",
            "value": null,
            "instructions": "",
            "required": 0,
            "conditional_logic": 0,
            "wrapper": {
                "width": "",
                "class": "",
                "id": ""
            },
            "message": "If enabled, the user account workflow will be made available to the public.",
            "default_value": 0,
            "ui": 0,
            "ui_on_text": "",
            "ui_off_text": ""
        },
        {
            "key": "field_5a17634ac46de",
            "label": "My Trips",
            "name": "my_trips_is_enabled",
            "type": "true_false",
            "value": null,
            "instructions": "",
            "required": 0,
            "conditional_logic": 0,
            "wrapper": {
                "width": "",
                "class": "",
                "id": ""
            },
            "message": "If enabled, the My Trips section will be made available to the public.",
            "default_value": 0,
            "ui": 0,
            "ui_on_text": "",
            "ui_off_text": ""
        }
    ],
    "location": [
        [
            {
                "param": "options_page",
                "operator": "==",
                "value": "ve-config-general"
            }
        ]
    ],
    "menu_order": 0,
    "position": "normal",
    "style": "default",
    "label_placement": "top",
    "instruction_placement": "label",
    "hide_on_screen": "",
    "active": 1,
    "description": "",
    "modified": 1511482233
}