<?xml version="1.0" encoding="utf-8"?>
<!-- Generator: Adobe Illustrator 21.0.2, SVG Export Plug-In . SVG Version: 6.00 Build 0)  -->
<svg version="1.1" id="Layer_1" xmlns:amcharts="http://amcharts.com/ammap"
	 xmlns="http://www.w3.org/2000/svg" xmlns:xlink="http://www.w3.org/1999/xlink" x="0px" y="0px" viewBox="0 0 618 800"
	 style="enable-background:new 0 0 618 800;" xml:space="preserve">
<style type="text/css">
	.st0{opacity:0.8;}
	.st1{fill:#FFAA00;stroke:#FFAA00;stroke-width:0.5;}
</style>
<defs>
	
	
		<amcharts:ammap  bottomLatitude="35.490303" leftLongitude="6.624486" projection="mercator" rightLongitude="18.521301" topLatitude="47.092916">
		</amcharts:ammap>
</defs>
<g class="st0">
	<path id="VA" class="st1" d="M299,371.9l-0.1-0.1h-0.1h-0.2l-0.2,0.3v0.1l0.1,0.1h0.1l0.3,0.1l0.2-0.1v-0.1v-0.1L299,371.9z"/>
	<path id="SM" class="st1" d="M296.5,232.6L296.5,232.6l3.8,0.4l0.4-1.3l0,0l1.1-1.6l-0.3-3.8l-3.7,2.5h-1.7L296.5,232.6
		L296.5,232.6z"/>
	<path id="FR-H" class="st1" d="M143.4,295.4l2.1,1.8l-0.6,1.7l0.9,1.8l1.2,9.1l-1.4,3.4l-1,6l3.8,6.5l0.7,2.8l0.5,7.7l-0.6,3.9
		l1.4,6.1l-0.3,11l-0.3,1.4l-7,10.3l0.1,2.6l-0.9,2.6l0.5,3.9l-0.6,1.5l0.7,2.2l-0.1,3.6l-0.3,1.4l-1.4,1l0.8,1.5l-0.9,1.4l-0.8,1.4
		l-2.4-0.8v0.8l-1.4,0.8l0.3,2.1l1.6-2.1l2.6,0.9l-1.2,2.2l-3.6,2l0.6,0.9l-0.8,1.2l1,0.4l-0.2,1.1l-0.9,0.5l0.6,0.4l-2.8,1.5
		l0.2,1.7l-0.6,0.5l0.3,0.4l2.2-1.6l-0.3,1l-2,3.2l-2.1,0.2l-1.2-1.9l-3.3-0.1l1.3-3.3l-2.5-0.1l-1.6-0.8l-0.7-0.3l-2.1-0.9
		l-1.2-1.3l-2.1,0.2l-1.5-1.9l-0.8-0.5l-1.7,0.4l0.6-2l-1.6,0.2l-1.8-0.8l-0.2-0.7l-0.4-1.8l0.8-0.3v-2.2l0.7-0.9l0.8,0.8l1.7-1.3
		l1.1,0.1l0.5-1.6l1.7-0.7l-0.1-0.7l-3.6-0.4l-1.6-1.2l-1.6,1l-0.3-2.8l-3.5,1.3l-0.1-1.2l-2.3-0.1l0.1-0.7l1.2,0.2l2.4-2l0.3-1.4
		l0.7-1h1.2l0.6-1.4l0.2-1.2l-0.5-2.2l1.3-0.9l-1.1-1.9l-0.9,0.2l-1,0.1l-1.3,0.7l-4-0.1l-1.8,1.1l0.8-2.8l-1.6-2.1l2.9-0.2l1.1-1
		l-0.7-1.1l0.3-0.9l4.5-2.6l-0.5-1.1l-0.9,0.1l-1-3.4l-2.1,0.8l-0.7-1.4l-1.8-0.9l-1.6,0.5l0.7-1.1l-0.4-0.6l-1.4,0.4l0.2-1.8
		l1.2-0.5l-0.2-1.8h-0.8L99,350l-0.6-0.7l7.9-2l-1.8-2.5l-1,0.2l-0.7-0.9l-1.1,0.5l-0.3-0.9l1.6-0.9l-0.6-1.2l-1.3-0.3l-1.7,1.5
		v-1.9l-0.8-0.5l0.2-0.8l1.1,0.7l0.4-1l1.7-0.2l-0.2-2.1l2.6,0.1l0.7-2l0.6-1.7l-1.6-0.7l0.9-2.6l2.2-1.4l0.6-1.4l-0.2-0.9H107l1-1
		l0.1,1.6l1.4-0.7l0.2,0.9l1.5,0.4l1.1-2.5l-0.4-0.9l3.3-0.4l0.6-1.4h1.7l0.6-0.8l4.7-0.1l2.3-1.4l0.5-2.1l0.8-1.6l2-1.2l2.2-0.4
		l1.6,0.8l1.2-0.7l0.5,1l1.3,0.2l0.6,1.1l0.8,1.8l0.7-0.1l2.4-4.1l-0.1-4.1l-1.7-2.7l1.6-2.3l-0.9-2.4l2-1.7l-0.6-0.4l0.5-1.1
		l-0.9-3.4l0.9-0.9L143.4,295.4z"/>
	<path id="MT" class="st1" d="M397,760.3l0.3,0.5l-1.3,1l2.4,0.2l-0.6,1.4l2.3-1l-0.2,0.8l0.6-0.4l3,1.7l-0.3,0.5l1.3,0.8h-0.8
		l-0.1,0.9l1.2-0.6l-1,1.5l1.4-1.1l2.2,1.5l-0.4,3.3l-0.7-1.2l-1,0.9l1.1,0.4l-1,0.7l-5.6-1.2l-4.4-3.3L395,766l0.6-0.1l-0.4-0.9
		l0.6-0.8l-0.8-0.6l0.7-0.8l-0.3-1l-0.9-0.1l0.5-1L397,760.3z M395.4,758.7l0.7,0.7l-1.4,0.3l-0.1-0.9L395.4,758.7z M390.1,754.8
		l3.9,1.4l1.3,1.7l-3.8,1.3l-3.7-1.4l-0.2-2.5L390.1,754.8z"/>
	<path id="IT_65" class="st1" d="M374,303.8l1.4,6.3l2.2,5.5l6.3,11.2l7,7.7l8.2,6.1l0.9,2.3l3.7,3.5l0.3,1.3l5.6,3.7l5.2,1.8
		l0.2,4.8l3.4,2.4l0,0l-1.2,1.8l0.9,0.8l-2.8,2l-2.3,2.8l-0.8,3.1l-2.4,1.7l-1.7,3.7l-4.8,5.1l-2-0.4l0.8-0.6l-1.1-4.3l-1.1-1.1
		l-2.4-1.6l-1.1,1.3l-0.6-0.2l-1-2.2l-1.2,0.1l-0.9-1.3l-2.9,2.4l-1.4,2.2l-2.2,0.1l-0.4,0.9l1.2,3.5l1.5,0.9l-0.4,1l-0.9-0.1
		l-0.2-1l-0.7,1.2h-2l-0.6,2.6l-0.8-2.1l-1.2,0.1l-0.9,2.4l-1.3,0.1l-0.3,1.5l-1.9-1l-2.1,0.5l0,0l-2.5-3.3l-2,0.2l-2.4-1.4l-1,0.6
		L366,382l-1.8-3.3l-1.3,0.7l-1.1-1.2l-1.8-0.5l-1.1,2.1l-4,1.4l-1.5-0.9l-0.7-1.8l-1.8-0.4l-1.5-1.4l-1.7-0.7l-1.4,1.4l-1-3.6
		l1.3-2.3l-1-1.4l-1,0.2l-2-2.3l-0.9,0.4l-7.6-4.5l-2-0.7v1.2l-2.4-0.6l-1.4-2.2l0.1-4.9l0.8,0.4l2.1-1.8v-2.4l1.7-0.1l6.6,3.5
		l1.2-0.8l1.7,0.6l1.1-2.2l1.5-0.3l-0.5-0.7l1.8-0.3l-1.9-1.2l-0.3-1.6l-2.4-0.8l-2.6-2.5l-0.6-3.3l-3.7-2.5l2.1-2.3l-4-3.7l3.2-2.4
		l-0.1-2.4l-1-1.9l1-0.6l0.8-2.8l2.8,1l0.6-0.7h1.4l0.6,1l1.5-0.8l2.3,0.3l1.4-1.2l0.8-3.4l-2-0.6l-1.1-1.4l0.5-1.7l0,0l0,0l0,0l0,0
		l0,0l1.7,0.5l1.9-1.3l0.6,0.5l0.6-2.4l2.4-0.4l0.3-2.5l1.3-1.5l0.2-1.4l2.1,1.1l2.4-1.1l0.7,0.9l1.4-0.2l2-0.9l0.5-2.2l0.7-0.4
		l2.8-0.2l2.1-1.4l5-1.1l0,0L374,303.8z"/>
	<path id="IT-77" class="st1" d="M457.1,429.9l-0.3-1.2l1.3-1.2l1.9-0.4l4.7,0.8l2.5-0.9l1.5,1l1.7-0.9l-0.2-0.9l1.7-0.4l-0.2-0.8
		l0.8,0.3l1.4-0.9l2.3,1.6l1.7,0.3l0.2,1l1.3,0.3l0.6,2.4l0.6-0.4l1.8,1.5l-0.6,1l0.3,1.5l-1.8,2.1l-1.5-0.3l0.6,1.1l5.6,2.4
		l1.6,1.5l2.1-2l2,0.7l2.9,6.5l6.6,6l0.8,1.7l1.5,0.4l3.5-4l2,2.5l-0.1-1.9l1-0.3l0.9,1.3l0.1-1.7l1.7,0.7l1-0.6l0.2,1l1.2,0.7
		l0.5-0.7l2.9,2.2l-1,0.5l1.2,1.4l-0.9,3.6l0.9,2l-0.6,0.5l-0.4,2.9l1,1l-0.4,0.8l1.2,0.9l-1,2.1l0.9,0.9l1.7-0.4l1.8,1.1l0.4,1.6
		l1.7,1.5l0.8,1.9l0,0l-3.9,5.6l-4.8,10.4l-2.3,1.7l0,0L511,492l-3.1,1l-3.1-1l-1.9,0.4l-0.7-1.1l-0.6,1.5l0.2,2.8l-1,2.2l0.3,2
		l-3,5.4l1.1,1.1l-0.4,1.3l-2.1-2.4l-2-0.2l-2.9,0.7v1.8l-2.8-1.3l-1,1.1l-4.8,0.3l-1.5-1.7l0.4-0.6l-0.9-1.6l1.2-2.2l-1.2-0.3
		l-1.5,0.8l-0.7-1l-1.9-0.3l-1.4,1.2l-0.6-0.9l-0.9,0.5l-0.9-0.9l-1.7,0.2l-2.3,2.5l-1,2.6l0,0l-1.8-3.6l-2.1-1.9l-0.1-1.5l-1.7-1
		l0,0l1.7-1l-1.3-1.4l1.2-0.3l1.6-2.1l-0.3-2.9l1.6-1.6l-0.1-1l3.5-1.5l-0.5-1.2l0.9-0.8v-1.4l-0.6-1.1l-2.9-0.9l-0.1-1.3l-1.6-1.5
		l-0.1-2.6l-2.1-0.8l-1.6-2.1l-2.1-1l-0.5-1.7l-2.2-1.7l0.7-1.1l-1.4-3.2l0.7-0.8l-4.3-2.6l0.7-2l1.6-1l0.1-0.8l-5.9-3.9l0.2-4.8
		l-0.8-0.1l0.2-1.2l-2.1-1.3l2.1-0.1l0.1-2.1l-1-0.5l0.4-0.7l4.8,1.1l0.6-0.4l-0.2-1.2l3-1.3l2.3-5.9L457.1,429.9z"/>
	<path id="IT-78" class="st1" d="M468,505.8l1-2.6l2.4-2.5l1.7-0.2l0.9,0.9l0.9-0.5l0.6,0.9l1.4-1.2l1.9,0.3l0.7,1l1.5-0.9l1.2,0.3
		l-1.2,2.2l0.9,1.6l-0.4,0.6l1.5,1.7l4.8-0.3l1-1.1l2.8,1.3v-1.8l2.9-0.6l2,0.2l2.1,2.4l0.4-1.3l-1.1-1.1l3-5.4l-0.3-2l1-2.2
		l-0.2-2.8l0.6-1.5l0.7,1.1l1.9-0.4l3.1,1l3.1-1l2.7,1l0,0l-1.9,2.4l-0.3,2.6l1.4,5.8l-4.6,5.8l-2.5,4.6v2.9l2,2.3l-0.5,3.5l5.1,3
		l8,0.1l4.7,5.3l4.7,2.9l3.5,0.9l0.8,2.1l2.1,2.1l3.9,1.3l-2.4,5.9l-0.2,3.7l2.2,3.2l-2,6.5l1.4,1.9l-0.3,1l0.7,1.1l3.1,1.5l-2.2,2
		l0.2,2.8l-3.8,4l-0.3-1.1l-1.4-0.5l-2.1,0.8l-2.1-2.2l-4.7,0.7l-5.7,2.1l-8.8,5.4l-3.6,6.5l1.1,2l1.3,13.7l-0.5,2.8l-5.6,5.9
		l-7.2,3.1l-8,10.1l-1,6.8l-2.5,4.8l-1.7,2.1l-3.3,0.5l-4-0.9l-8.2,0.8l-4.2-2.4l-2.2-4.1l1.1-1.5l-1.3-3.4l1.3-2.9l-1.1-3.4v-2.7
		l4.1-1.7l1.9-0.1l2.6-1.5l1.2-2.2l0.5-3.2l1.1-1l0.8-2.7l1.5-1.3l0.7-1.9l0.8-4.9l-5.3-4.8l0.5-1.8l1.8-1.7l4.2-1.4l1.7-1.8
		l2.5-0.3l3.4,1l1.7-0.5l2.4-1.9l2-6.5l-0.3-5.1l-3.1-1.5l-3-5.6l-1.6-7.3l-0.8-10.5l-2.8-9.1l-3.6-5.7l-2.6-1.9l-2.1-7.3l-0.9-0.8
		l-1.4-8.8l-1-1.7l1.1-1.9L468,505.8z"/>
	<path id="IT-72" class="st1" d="M389.6,463.3l2,0.2l-0.7,0.9l-2.9,0.4l0.1-1.6L389.6,463.3z M371.3,449.8l4.4,1.2l0.5,0.8l-0.7,2.1
		h-2.8l-0.3,0.6l-2-1v-1.9L371.3,449.8z M376.9,402.2l1.5,0.8l-0.3,1.5l2.1,2.5l2.1-0.5l1.3,0.9l-0.3-2.4l-1.4-1.7l2.2-4l2.3,1.9
		l0.4-1.4l3.5,0.1l0.2,0.9h1.8l0.3,1l2,1.1l8,2.3l0.4,1.6l1.2,0.9l3.3-0.5l1.2,1.8l2.2-2l1-0.1V406l2-0.2l0.9,0.7l1.9-0.6l1.7-2.9
		l4,1.7l1.6-1.6l2.6-0.2l3-2.1l0,0l1.8,2.8l2.9,0.8l0.2,0.8l-0.8,0.8l0.5,1.2l-1.1,0.2l-0.8,1.2l0.6,2.6l3,1.1l0.2,2.2l3.4-0.1
		l1,1.5l1.6-0.3l1.3,1.4l-1.6,1l0.9,2.4l-2,1.2l-0.8,2l1.6,0.8l0.7,1.9l2,1.4l1.1-0.9l2.8,1.2l1.7-1.3l2.1,1.8l1.6-0.1l3.6,1.8l0,0
		l1.4,4l-2.3,5.9l-3,1.3l0.2,1.2l-0.6,0.4l-4.8-1.1l-0.4,0.7l1,0.5l-0.1,2.1l-2.1,0.1l2.1,1.3l-0.2,1.2l0.8,0.1l-0.2,4.9l5.9,3.9
		l-0.1,0.8l-1.7,1l-0.7,2l4.4,2.6l-0.7,0.8l1.4,3.2l-0.7,1.1l2.2,1.7l0.5,1.7l2.1,1l1.6,2.1l2.1,0.8v2.6l1.6,1.5l0.1,1.3l2.9,0.9
		l0.6,1.1v1.4l-0.9,0.8l0.5,1.2l-3.5,1.5l0.1,1l-1.6,1.6l0.3,2.9l-1.6,2.1l-1.2,0.3l1.3,1.4l-1.7,1l0,0l-0.9-2l-2.8-0.4l-3.6,0.9
		l-4.2,4.9l-3.4-0.6l-2-2l-2.2,0.5l-0.2-0.6l0.9-0.6L443,496l-3.3-3.2l-1.5-0.2l-2.5-3l-4.7,0.1l-2.6-3.3l-3.7-1.1l-0.6-1.1l2-1.5
		l0.1-4l2.6-1.5v-2.9l-6-12.6l-5.3-5.6l-2.7,0.4l-1.4,2.1l-3.3-1l-2.7,2.4l-2.4,0.4l-2.4-1.3l-8.1,3.9l0.8-4.1l3.2-0.6l0.4-1.5
		l3.6-2.5l-1.1-3.2l-3.1-1l-3.5-3.9l-2.8-1.8l-2.6,1.1l-1.8,2.4l-1.5-0.2l0.8-0.4l-0.7-1l-3.4-1l-1.1,0.8l0.9,2.7l-2.2-0.8v-4.5
		l-1.1-3.9l-2.6-4.2l-0.1-0.1l-2.4-2.6l-1.4-4.8l-3.6-5.8l-3.2-3.2l0,0l0.5-1.3l3-0.6l0.5-0.8l-0.6-0.2l0.1-1l3.1-1.1l-1-4.5
		l0.8-1.5l-1.3-2.2l2.1-0.4l3-2.8L376.9,402.2z"/>
	<path id="IT-45" class="st1" d="M314,227.9l-1.2,3.1l0.2,4.1l-2.5,1l-0.5,2.1l-2.9-0.4l0.2-1l-0.8-0.3l-0.7-2.5l-2.7,1.1V233
		l-2.3-1.3l0,0l1.1-1.6l-0.3-3.8l-3.7,2.5h-1.7l0.3,3.6l0,0l0,0l0,0l1.2,2.2h-1.6l-0.3-0.8l-2,0.8l-1,3.5l-2.6,2.1l-0.2,2.2l0,0l0,0
		l0,0l-1.6,0.9l-2-0.4l-0.8,2l-1.5-2.3l-1.4,0.8l-1.4-0.2l0,0l-1.7,0.9l-1.1-1.3l0,0l-0.9,0.2l-1.5-0.9l-1.1,0.4l0,0l-1.6-1.1
		l-0.2-1l0,0l-1.4-0.2l-0.5-1.3l-4.7-0.2l-2-2.4l-3.6-2l0.3-3.1l-1.8-1.2l0.3-1.6l-2.2-2.1l0.2-1.1l0.7,0.1l-0.2-1.1l1.7-0.6l0.4-2
		l2-2.2l0.3-2.7l-5.5,1.1l-2.6-0.4l1.4-2.1l-0.2-1l-2.6-0.5l-1,1l-1.2-0.3l-1.7-2l-1.4-0.4l-0.3-2.1l-1.3-1.2l-2.5,2.4l-2.5,0.3
		l-0.2,1.1l-2.3,2.1l-4,0.1l-0.1,0.9l2.9,1.7l0.2,1.1l-2.5,0.2l-3.1-0.9l-3.3,1.4l-2.8-0.3l-1.6-1.1l0.6-1l-0.4-0.9l-4.9,5.5
		l-0.7-0.3l0.3-0.9l-0.7-0.9l-2.3-0.5l-5-4l-5.6-0.1l-1,1.2l0.1,1.4l-1.7,0.4l-3.4-3.1l-0.2-1.6l-1.7-1.6l0.1-1.4l-1.2-0.7l-1.7,0.3
		l-2.9-3h-1.6l-2.2-1.2l-2.4,1.2l-5.6-5.9L178,201l-4.3-2.9l-1.1-1.3l0.5-2.6L172,194l-0.5-1.2l-2.4-0.9l-5.4,0.6l-3.4,5.4l-3.6,2.1
		l0,0l-1.4-3.3l-2.7-2l-1.1,0.6l-1.4-0.9l-0.4,1l-2.8,0.3l-0.9,1.1l-0.3-1.2l-1.6,0.4l1.5-4.5l1.3-0.2l0.5-3.4l-0.9-2.1l-3.2-1.1
		l-0.8-1.7l-2.4,1.8l-3.1-2.6l-0.4,1.1l-2.1-0.4l0.3-0.8l-0.6-0.6l-2.3,0.4l0,0v-5.1l0.5,0.2l0,0l1.8-0.1l-0.3-2l1.3,2.5l3.2-0.9
		l-0.7-1.4l0.9-1l-0.1-1.2l-1.7-0.9l-0.3-1.1l3.9-3.9l-1.1-3.2l-1-0.8l-0.7,0.4l-1.8-1.6l1.2-1.6l-0.6-1l1.7-0.4l1.4-4.1l1.6-1.8
		l-0.1-2.2l2.1-1.8l-0.1-0.7l1.2,0.2l0.3-0.8l2.8-0.7l1.6,1.9l1.1-1l-0.6-2.7l0.7-0.1l1.6,2.1l1.3-0.5l0.6-1.9l0.9,1.2l-0.1,2.5
		l4.2,1.8l1.6-1.4l0.5-1l-0.8-1.1l0.9-0.3l0.8,1.5l1.9,0.9l0.4,1.9l0.9-3.2h1l1,1.5l0.9-0.4l0.2-1.2l-1.1-1.6l1.8-1.5l0.7,0.6
		l-0.4,2.2l2.9-2.2l0.9,0.1l1.9,2.4l-0.4,1.5l1.5,1.2l0.1,1.2l1.5-0.4l0.8,1.7l3.3-1.6l0.5,0.9l2.2-0.1l3,2.4h1.6l2.8,2.3l2.4-1.3
		l1.5,2.9l4.6,2.2l3.9-0.2l1.4-0.8l2.9-4.1l0.4,1.6l1.8-2.1l1,3.1l4.4,0.7l0.8,0.8l0.9-0.2l0.1,0.8l1.3-0.2l-0.2,0.6l1.5-0.9
		l1.4,0.2l0.2-1.1l2.3-1.2l3.1,0.3l0.9-0.8l2.6,0.6l1.2,1.6l0.6-0.6l3.9-0.3l0.4-0.7l1.5,1.1l1.7-1.6l6.2,0.9l0,0l0.2,1.5l5.7-0.4
		l2.1,1.4l0.4,1.6l0.7,0.2l1.2-0.1l2-1.9l3.2-0.9l0.7-2.2l2.9-1.4l6.3,0.1l2.2-0.8l6.7,1.1l2.3,3.1l1.5-1l0.8,1.1l2.1,0.2l1.5-1.3
		h1.1l0.8,1.1l-0.6,1.2l0.3,2.9l0.6,0.9l2,0.5l0.6,2.2l0,0l-0.6,0.2l-1.2-1.8l-1.2-0.4l-1.7,2.3l1.3-0.5l-1.7,4.4l-0.6,5l0.5,3.3
		l2,3.8l-0.1,8.8l1.8,4.8l0.2,3.4l2,7.1l1.8,3.5l6.7,7.8l2.5,1.7l6,6.4L314,227.9z M284.6,239.2l-0.3,1.1l1.4,1.6l2.2-1.1l-0.3-1.1
		l0,0l-0.2-0.5H284.6z"/>
	<path id="IT-36" class="st1" d="M316.3,34l1.9,0.6V36l0.7,0.4l4.1-0.3l6.1,1.2l1.9-0.5l4.2,1l3.7,2.8l1.7-0.7l2.5,0.7l1.2-1.3
		l1.3,0.2l0.1-0.9l1.8,0.5l-0.1,0.8l1,0.3l3.9-0.7l0.8,1.4l2.2-0.3l0.6,1l2.4-0.3l5,1.6l-1.5,6.1l-1.9-0.7L357,49l-1.4,2.8l-4.9,2.8
		l-1.6,0.1v2.7l-3.4,2.1l2.5,4.6l-0.6,1.7l1.8-0.2l-0.1-0.9l1.8,0.1l1,0.7l1.4-0.2l1.6,1.1l0.6,1.5l3.2-0.5l1.4,0.8l-1,3.2l-3.6,3.4
		l-3.8,2.4l0.3,2.3L351,81l3,2.8l1.6-0.2l1.3-1.5l2.6,0.3l-0.3,3.5l-3.1,6.1l1,3.3l1.3,0.9l2.4-0.4l4,3.4l2.5,0.7l3.6,6.3l2.8,2
		l-4.1,3.7l-2.2,0.1l-2.5-1.3l-1.5,0.4l-0.1-0.9l0.8-0.4l2.7,0.8l1.2-1l-1.4,0.1l-0.5-1.6l-1,0.2l-0.6-0.7l1.2-0.9l-0.7-2.1
		l-6.1-6.6l-2.5-0.7l-1.1,0.4l-0.6-0.8l-1.4,1.5l-0.2,1.7l1.8,1.4l-3.4,1.6l-0.8-0.3l-2.1,2.1l-2.4,0.2l-5.1-2.8l-1.8-0.3H339
		l-0.1-0.1l-4.2,1.1l-2.9,4.4l0,0l-1.1-0.6l0.1-0.6l-1,0.1l0.2-1.3l-1-0.8l0.4-0.8l-0.8-0.2l-0.6-2.7l-1,0.7l0.4-1.2l-0.6-1.3
		l0.5-0.3l-2-1.9l1.1-0.6l-0.8-0.3l0.2-0.8l-0.4-0.4v-0.3l-0.6-1.6l-0.6,0.2l0.5,1.4l-1.5,0.5l-0.5-1.1l-1.5,0.9l-1.2-1.1l0.4-1.1
		l-0.6-0.1l-2.2,1.1l-0.5,1l-0.6-0.7l0.4-1l-1.1-0.8l-2,2.1l-0.7-0.7l-3.9,3.6v-1.6l-1.1-0.5l-0.1-0.9l-1.2-0.7l-0.7,1.6l-2-1.1
		l0.2-1.2l-1.4-1.3l-1.3-4.5h-1.5l-1-1.5h-1.4v-3.5l-0.7-2.6l-0.9-0.8l1.8-2.8l2.9-2L301,70l-2.4-1.9l-0.3-2.1l-1.8,0.1l-0.3-1.6
		h-2.1l-2.1-2.8l1.8-1.9v-2l1-0.8l1.9,0.3l0.3-2l1.8-0.9l-0.2-0.6l0.6,0.3l-0.3-1.4l2-1.8l0.3-1.8l1.5-2l0.4,0.4l1.6-1.2l1.9,0.8
		l1-0.8l1.8,0.8l-0.4-1.7l-1.2-0.8l0.1-0.9l3.5-2.2l2.5-0.1L313,40l0.7-2.3l-1-1.7l0.2-1.8l0,0l1.6-0.9L316.3,34z"/>
	<path id="IT-62" class="st1" d="M325.1,439.4l-0.2,1.3l0.6,0.2l-1,1.1l-0.2-2.8l2.2-1L325.1,439.4z M376.7,400l1,0.9l-0.8,1.3h-0.8
		l-3,2.8l-2.1,0.4l1.3,2.2l-0.8,1.5l1,4.5l-3.1,1.1l-0.1,1l0.6,0.2l-0.5,0.8l-3,0.6l-0.5,1.3l-2.8-2l-1.2,0.6l-2.8-1.1l-3,1.7
		l0.1,1.5l0.9,0.6l-2,0.1l-8.9-5.2l-4.3-1l-1.6,1l-2.3-0.1l-2.9,0.9l-3.3,3.1l-2.4-0.2l-2.9-6.7l-3.7-3.9l-3.6-2l-3.4-0.3l-0.8,0.6
		l-4.8-3.2l-1.7,0.3l-0.1,0.7l-0.9-0.4l-3.3-5.9l-7.1-8.5l-3.7-3.1l-6.2-2.8l-0.9-5.9l-3.1-5.8l-4.8-2.8l-1.3-1.9l-2.6-1l-0.6-1.2
		l-2.3-1.5l-4.3,0.6l-1.7-3.9l-3-4l-0.2-1.9l-2.1-4.3l-2.2-3.2l-5.4-4.4l-5.1-2.5l1.9-4.1l6.8-0.1l-0.1-3.4l-3.2-2l1.4-1.9l-0.4-1.8
		l0.6-0.3l1.1,1l0.7-0.9l0.8,0.2l1.7-0.9l0.2-1.1l1.5-1.1l1.3,0.2l0.9-2.1l1.4,0.2l1.4-0.9l-0.1-1.1l-1-0.5l-0.4-2.6h1.2l1-2.4
		l-3.8-3l1.2-2.4l1.2,0.5l0.7,1.3l0.5-2l1.6-1.1l2.5,0.1l1.6,3.9l2.8,1.8l-1,2l-1.9,1l1.3,2.1l4.1,2.6l3.7-1.3l1,1.1l0.1-0.8
		l0.7,0.2l1.4-1.2l1.6,0.7l1.7,2.1l0.5,4.5l1.7,0.8l-0.2,2l1,0.9l-0.8,0.7l1.5,0.8l-0.7,0.5l1.9-0.2l1.2,1.3l2-1.6l1.5,0.2l-0.2,1.9
		l0.7,0.7l-0.7,0.2v2.1l2.3,0.8l-1,1.4l3.6-0.5v1.7l0.9,1l4.3-3.4l0.2-3.9l1.2-0.1l0.9,1.9h1.2l3-2l-1.4-2l3.1-0.9l0.2-1.3l2,0.1
		l1.9-1.6l2.1-0.7l-0.6-2.5l0.6-1.2l2,1l0.8-1h3.2l0.7-1.5l2.1,1.1l2.8-1.7v-0.8l1.6,0.6l1.3-1.3l0.8-4.5l3.3,0.8l0.5-1.2l1.1-0.1
		l3.7,3.2l-0.5,1.7l1.1,1.4l2,0.6l-0.8,3.4l-1.4,1.2l-2.3-0.3l-1.5,0.8l-0.6-1h-1.4l-0.6,0.7l-2.8-1l-0.8,2.8l-1,0.6l1,1.9l0.1,2.4
		l-3.2,2.4l4,3.7l-2.1,2.3l3.7,2.5l0.6,3.3l2.6,2.5l2.4,0.8l0.3,1.6l1.9,1.2l-1.8,0.3l0.5,0.7l-1.5,0.3l-1.1,2.2l-1.7-0.6L339,357
		l-6.6-3.5l-1.7,0.1v2.4l-2.1,1.8l-0.8-0.4l-0.1,4.9l1.4,2.2l2.4,0.6v-1.2l2,0.7l7.6,4.5l0.9-0.4l2,2.3l1-0.2l1,1.4l-1.3,2.3l1,3.6
		l1.4-1.4l1.7,0.7l1.5,1.4l1.8,0.4l0.7,1.8l1.5,0.9l4-1.4l1.1-2.1l1.8,0.5l1.1,1.2l1.3-0.7l1.8,3.3l1.3,0.4l1-0.7l2.4,1.4l2-0.2
		l2.5,3.3l2,1.7l1.4,3.6l0.1,1.4l-0.7,0.6l1.4,1.5l-0.2,1l-0.9,0.2l1.2,1.1L376.7,400z M299,372.1L299,372.1v-0.3l-0.1-0.1h-0.1
		h-0.2l-0.2,0.3v0.1l0.1,0.1h0.1l0.3,0.1L299,372.1L299,372.1z"/>
	<path id="IT-42" class="st1" d="M165.5,222.3l-0.4,1l-0.6-1H165.5z M55.7,221.2l0.8,0.3l1.5-1.7h-1.3l-0.9-1.4l0.5-1.5l1.9-1.1
		l9,2.9l1.6-0.9l2,0.7l0.4-0.7l-0.6-0.9l-1.3-0.6l1.8-1.5l1.5,1l1.4-0.5l1.2-1.5l-0.1-1.9l-1.5-1.3l0.7-1.7l-0.9-1.1l1.2-1.2
		l-1.3-1.3v-1l0.4-0.5l1.5,0.6l0.3-2.2l1.3,0.2l1-1.6l-0.2-2l3.2-1.8l0.8-1.9l-1.4-3.3l1.4-0.4v-1.9l1.6-1.2l1,1.5L86,190l3.1,2.6
		l1.3-0.7l0.6-2.2l0.8-0.4l1.5,1.1l1.1-1.7l0.3,0.9l3.2-0.1l1,0.8l2.7-3l-0.8-0.9l1.2-1.9l3.6,0.2l1.6,0.2l1.8,2.9l-0.3,0.9h0.9
		l0.4,2.2l1.3-0.5l-0.4-1.5l1.7-1.5v-1.5l2.3-0.3l0.9,1.2l1.4-0.8l-0.3-3.7l-1.4-1.6l1.6-1.3l0.6-1.7l1.6-0.2l0.7,1l2.3-0.2l1.6,3.4
		l1.4-0.3l1.5,0.9l-0.1,1.5l1.6,1.2l3.5-1.5l-0.1-1.5l0,0l2.3-0.4l0.6,0.6l-0.3,0.8l2.1,0.4l0.4-1.1l3.1,2.6l2.4-1.8l0.8,1.7
		l3.2,1.1l0.9,2.1l-0.5,3.4l-1.3,0.2l-1.5,4.5l1.6-0.4l0.3,1.2l0.9-1.1l2.8-0.3l0.4-1l1.4,0.9l1.1-0.6l2.7,2l1.4,3.3l0,0l1.3-0.2
		l1,2.6l4,3.1l2.6,1.1l0.1,2.6l0.8,0.7l-0.4,2.7l2.1-1.8l1.5,1l-0.8,0.1l-1.2,2l3.9-0.1l0.2,2.4l0.9,1.4l-0.5,1.2l1.8-1.5l2.4,1.5
		l-0.3,1.4l-2.2,2.6l0,0l-1.6-0.3l-1.2,0.9l-2.9-2.2l0.1-0.9h-1.4l-2-2l-1.3,0.8l1.3,1.6l-0.2,0.6l0.8-0.1l-1.1,1.4l-4.8-3.1
		l-1.9-2.5l-2.4-1.3l-1.1,0.8l-1.4-2.6l-2-0.9l-0.9-1.7l-2.1-0.8l-0.9-1.4l-2.4-0.1l-1.4-1.4l-0.7,0.5l-1.6-2.8l-7-4l-1.1,1l0.1,2.4
		l-3.6-1.7l0.5-1.8l-0.7-1l-10.7-2.7l-0.7-1.1l-0.6,0.4l0.4,0.7l-4.5-1.2l1.2-0.2l-0.9-0.4l-2.4-0.1l0.3,0.5l-2.1-0.5l-2.1,0.8
		l-1.5,1.5l-1.8,0.4l-1.5,1.5l-5.9,3l-0.8,1l0.7-0.1l-3,2.8l0.8,1L92,210l0.4,2l-8,4l-2,3.5l-0.3,3.3l-3.1,3.5l-0.2,1.4l0.7,1.4
		l-4.3,2.9l-0.9,1.7l-2.3,0.5l-4.2,2.8l-4.4,0.9l-1.4,1.2l-1.5-0.5l-3.3,2l-1.8-0.3l-1.5,1.6l-4.7-1.1l-1.2,1l-1-0.2l-2.2-5.2
		l0.1-1.5l0.8-0.9l2.5-0.8l0.4-3.2l4.4-2.3l0.8-1.8l-0.2-2.1l2.2-0.9L55.7,221.2z"/>
	<path id="IT-25" class="st1" d="M185.8,35.4l0.5,0.6l-0.9,1.4l0.3,1.1l2.1,0.4l0.5,1.5l2.2,0.6l0.7-1l2.2,0.9l1.1-0.5l1.9,1.5l0,0
		l1.1,2.7l3.8,0.3l2.6,1.8l1,1.4l-0.2,2.2l0.8,1.4l-1.5,1.6l-2,0.1l-2.6,2.5l2.6,1.3l0.6,2l-0.9,1.3l0.8,0.5l0.5,2.1l-2.3,4.2
		l1.1,1.6l-0.9,4.4l-3.3,4.1l0.4,1.9l-1.2,0.9l-0.6,1.8l0.1,1l1.7,0.3l-0.2,2l1.3,2l-0.9,2.1l0.5,4.3l2.2,0.9l-0.7,1.4l0.4,0.9
		l1.3,0.1l2.1-1.3l2-0.1l0.5-2.2l4-0.8l1.3,1l0.4-0.9l4,0.8l0,0L205.3,110l1.1,11.8l-0.4,2l0.8,0.2l0.7-0.8l2.5,1.1l-1,2.6l1,0.8
		l-1.3,1l1,1.5L209,132l1.5,0.4l0.5,1l2.4-2l2,1.9l1.1,2.4l2.6,0.6l0.1,0.7l1.8,0.5l-0.1,1.3l2.9,1.3l0.8,1.2l-0.4,1.7l1.6-0.3
		l0.9,0.6l-1,1.9l2.3,1.9l1.2,0.2l0.2-1.3l1.4,0.7l0.9-1.7l3,1.1l-1.3,1l0.4,1l-0.6,1.6l3.1,1.2l1.4-0.9v2.5l8,4.3l0.2,1l0,0
		l-6.2-0.9l-1.7,1.6l-1.5-1.1l-0.4,0.7l-3.9,0.3L232,159l-1.2-1.5l-2.6-0.6l-0.9,0.8l-3.1-0.3l-2.3,1.2l-0.2,1.2l-1.4-0.2l-1.5,0.9
		l0.2-0.6l-1.3,0.2l-0.1-0.8l-0.9,0.2l-0.8-0.8l-4.4-0.7l-1-3.1l-1.8,2.1l-0.4-1.6l-2.9,4.1l-1.4,0.8l-3.9,0.2l-4.6-2.2l-1.5-2.9
		l-2.4,1.3l-2.8-2.3h-1.6l-3-2.4l-2.2,0.1l-0.5-0.9l-3.3,1.6l-0.8-1.7l-1.5,0.4l-0.1-1.2l-1.5-1.2l0.4-1.5l-1.9-2.4l-0.9-0.1
		l-2.9,2.2l0.4-2.2l-0.7-0.6l-1.8,1.5l1.1,1.6l-0.2,1.2l-0.9,0.4l-1-1.5h-1l-0.9,3.2l-0.4-1.9l-1.9-0.9l-0.8-1.5l-0.9,0.3l0.8,1.1
		l-0.5,1l-1.6,1.4l-4.2-1.8l0.1-2.5l-0.9-1.2l-0.6,1.9l-1.3,0.5l-1.6-2.1l-0.7,0.1l0.6,2.7l-1.1,1l-1.6-1.9l-2.8,0.7l-0.3,0.8
		l-1.2-0.2l0.1,0.7l-2,1.8l0.1,2.2l-1.6,1.8l-1.4,4.1l-1.7,0.4l0.6,1L136,162l1.8,1.6l0.7-0.4l1,0.8l1.1,3.2l-3.9,3.9l0.3,1.1
		l1.7,0.9l0.1,1.2l-0.9,1l0.7,1.4l-3.2,0.9l-1.3-2.5l0.3,2l-1.8,0.1l0,0l-0.4-2.9l0.6-2l-2.3-1.7l-0.5-2.9l-2.7,0.8l-0.4-0.8
		l-1.5-0.1l0.1-0.9l-1.2-1.2l0.9-1l-0.7-2l-1,0.1l-1.7-1.5l-1.6-2.6l0.2-1.7l-0.7-1.3l-0.5-0.4l-1.3,0.6l-1.3-1.8l-0.3-3.2l-2.9,0.2
		l-1.6,1.6l-1.6,0.2l-0.2,1l-1.3-0.2l-0.2-1l-1.1,0.2l-0.4-1.2l-0.5,1.8l-3.3-1.9l-0.3-3.5l-1.4-1.3l0.3-1.3l-1.1-0.3l-0.6-1.5
		l-1.4-0.4l-0.6-1l1.8-2.6l-2.2,1l-0.5-0.4l1.2-0.4l-1.2-1.2l0.9-0.9l-0.6-0.4l1.3-0.2l-1.6-0.5V136l1,0.1l-0.3-1.8l-2-1l0.7-1.5
		l1.3-0.5l-0.6-1.8l1.5-1.4l1.2,1l2.8-0.1v0.9l1.1,0.7l0.5,2.6l1.5-0.1l1.1-0.6l0.6-2.1l1.9-1.2l-2.2-2.3l1.5,0.3l1.2-0.8l1.6,0.4
		l2.1-1.1l-0.9-2.8l-0.9,0.1l-1.2-3.9l-3.5-1.8l-1.3-4.9l0.4-1.7l-1.9-1.6l-0.3-1.3l1.5,0.3l-0.8-1.8l0.4-1l-2-0.4l0.6-2.7l-3.1-0.9
		l-2-3.8l0.1-1.5l2.1-2.3l-1.3-4.9l8.1-8.8l-1-4.6l0.6-1.6l0,0l1.2-1.3l0.8,1.4l1.3,0.7l1.2-0.5l2.4,1.9v1.1l-1.1,0.6l-2.5,4.4h2.4
		l1.9,2l1.4,0.3v1.7l2.5,4.9l-1.8,2.6l2.3-0.9l2.1,0.8l-0.3,1l2.3,0.1l0.7-3.7l2-2.2l-0.7-0.1l-0.8-1.6l-2.1-0.5l-0.3-2.3l-1.2-0.7
		l1.9-1.7l-1.1-3.3l0.5-1l3-1.1l0.6-1.6l-0.8-2.4l2.4-1.2l2.1-2.4l1.1-0.1l2-4.7l1.5-0.2l0.2-2.4l2.3-4.4l-0.1-2l-1.1-1.2l0.3-3.2
		l-1.7-2.1l1.3-1.1l0.2-2.9l4.4-1l0.6,1.8l1.9,1.3l1.3-2.4l1.4-0.7L145,45l-0.7,0.3l1,0.6l-0.1,7.7l1.9,0.6l1,3l1.5,1.8l0.5-0.4
		l3.9,1.6l2.1-1.2l1.8,0.8l1.4-4.3l2.1,1.1l6.6-3.4l1,1.1l1.4-1l2.3,2l-0.8,2.2l1,0.7l-0.1,2.2l2.9,1.5l-0.5,2.6l1.2,0.8l1.1-0.8
		l1.6,0.3l2.8-2.4l-1.1-2.6l-2.6-3l0.1-1.5l1.1-0.7l0.5-1.8l1.2-0.2l0.2-1.5l-0.9-0.2l-0.4-1.2l-3.1,0.5l-2.1-1.7l0.7-1.5l-0.6-1
		l0.6-3l-0.5-1.5l2.9-3.1l0.1-2.2l1.4,0.4l3-1.5l1.3,0.6l1.2-1.2L185.8,35.4z"/>
	<path id="IT-57" class="st1" d="M358.9,257.6l-2.8-1.6l-1.2-2.3l-2.1-1.7l-0.8,1.5l-2.1-0.2l-7.6-4.2l-20.5-18l-5.5-2.9l-2.4-0.2
		l0,0l-1.2,3.1l0.2,4.1l-2.5,1l-0.5,2.1l-2.9-0.4l0.2-1l-0.8-0.3l-0.7-2.5l-2.7,1.1V233l-2.3-1.3l0,0l-0.4,1.4l-3.8-0.4l0,0v-0.1
		l0,0l1.2,2.2h-1.6l-0.3-0.8l-2,0.8l-1,3.5l-2.6,2.1l-0.2,2.2l0,0l0.1,0.1l0,0l2.1,0.9l2.3,3.1h-2.1l0.3,2.2l-0.9-0.1l-0.6-3.7
		l-0.4,3.1l-1.2,0.7l-1.5-0.3l0.2,0.8l-0.9,1.1l-2.3,0.8l1.5,2.2l0,0l0.7,1.2h3.1l0.4,0.6l2.1-1.7l1.9-0.1l-0.5,0.8l0.5,1.4
		l-2.9,2.7l1.4,1.4l1.4-0.7l1.3,1.7l1.4-2.1l1,0.1l0.8,1.4h0.9l0.3-0.9l0.9,0.4l6.4,7.3l2.1-1.3l2.2,0.8l1.3-2.7l2.1,0.6l-0.4,2
		l0.9,0.8l-1.8,1.7v0.8l2.3,3l0.4,2.9l-0.6,0.7l1.9,1.3l0.7,3.4l1.4,0.7l-0.1,2.9l-1.6,1.5l0.7,1.5l2.1,0.4l0.6,1.7l-0.2,2.8
		l0.8,2.1l-0.9,0.7l0.9,2l-0.6,1.5l2.7,1.6l0.2,0.9l1.1,0.1l0.1,4l1.2-1.4v-1.7l1.3,0.8l1.4-1.4l3,2.3l2.5,3.9l2.7-0.6l1.2-1.8
		l1.4,3.6l-0.2,1.8l-0.9,1.9l-0.4-0.8l-1.9,0.8l-0.2,2l0,0l3.3,0.8l0.5-1.2l1.1-0.1l3.7,3.2l0,0l1.7,0.5l1.9-1.3l0.6,0.5l0.6-2.4
		l2.4-0.4l0.3-2.5l1.3-1.5l0.2-1.5l2.1,1.1l2.4-1.1l0.7,1l1.4-0.2l2-0.9l0.5-2.2l0.7-0.4l2.8-0.2l2.1-1.4l5-1.1l0,0l-2.2-6.7
		l-1.5-8.1l-11.3-27.9L358.9,257.6z M297.7,254.4l-0.7-0.3l0,0l-0.2-0.1l0,0l0.3-0.7l0.6,0.3l0,0l0.1,0.5l0,0L297.7,254.4z"/>
	<path id="IT-67" class="st1" d="M418.8,361.1l5.4,2.9l5,0.9l4,4.3l3.2,1.2l0,0l0.2,3.3l-2.1,3.1l0.8,2.9l-1,1.6l1,1.2l-0.8,0.5
		l1,1.5l1.9,0.9l-2,1l-0.7,1.5l-0.8-0.8v0.8l-2.1,0.9l-1.3,2.4l-3.2-1.5l-1.2,1.5l0.9,0.8l-0.7,5.6l1.6,0.7l2,2.3l0,0l-3,2.1
		l-2.6,0.2l-1.6,1.6l-4-1.7l-1.7,2.9l-1.9,0.6l-0.9-0.7l-2,0.2v0.9l-1,0.1l-2.2,2l-1.2-1.8l-3.3,0.5l-1.2-0.9l-0.4-1.6l-8-2.3
		l-2-1.1l-0.3-1h-1.8l-0.2-0.8l-3.5-0.1l-0.4,1.4l-2.3-1.9l-2.2,4l1.4,1.7l0.3,2.4l-1.3-0.9l-2.1,0.5l-2.1-2.4l0.3-1.5l-1.5-0.8l0,0
		l0.8-1.3l-1-0.9l2.9-2.1l-1.2-1.1l0.9-0.2l0.2-1l-1.4-1.5l0.7-0.6l-0.1-1.4l-1.4-3.6l-2-1.7l0,0l2.1-0.5l1.9,1l0.3-1.5l1.3-0.1
		l0.9-2.4l1.2-0.1l0.8,2.1l0.6-2.6h2l0.7-1.2l0.2,1l0.9,0.1l0.4-1l-1.5-0.9l-1.2-3.5l0.4-0.9l2.2-0.1l1.4-2.2l2.9-2.4l0.9,1.3
		l1.2-0.1l1,2.2l0.6,0.2l1.1-1.3l2.4,1.6l1.1,1.1l1.1,4.3l-0.8,0.6l2,0.4l4.8-5.1l1.7-3.7l2.4-1.7l0.8-3.1l2.3-2.8l2.8-2l-0.9-0.8
		l1.2-1.8l0,0L418.8,361.1z"/>
	<path id="IT-21" class="st1" d="M92.9,46.9l1.5,1.6L93.9,50l0.7,2l-0.4,4.7l-1.9,2.6l1.5,2.5L93.1,63l1.4,1.3l3.1,1l2.2,4l1.5,0.6
		L101,71l0.8,1.4l1.8-0.1l2,1.5l1.6-0.1l0,0l-0.6,1.6l1,4.5l-8,8.8l1.3,5l-2.1,2.3l-0.1,1.5l2,3.8l3.1,0.9l-0.6,2.7l2,0.4l-0.4,1
		l0.8,1.9l-1.5-0.3l0.3,1.3l1.9,1.6l-0.4,1.7l1.3,4.9l3.5,1.8l1.2,3.9l0.9-0.1l0.9,2.8l-2.1,1.1l-1.6-0.4l-1.2,0.8l-1.5-0.3l2.2,2.3
		l-1.9,1.2l-0.6,2.1l-1,0.5l-1.5,0.1l-0.5-2.6l-1.1-0.7v-0.9l-2.8,0.1l-1.2-1l-1.5,1.4l0.6,1.8l-1.4,0.5l-0.7,1.5l2,1l0.3,1.8
		l-1-0.1v0.5l1.6,0.5l-1.3,0.2l0.6,0.4l-1,0.9l1.2,1.2l-1.2,0.4l0.5,0.4l2.2-1L98,142l0.5,1l1.4,0.4l0.6,1.5l1.1,0.3l-0.4,1.3
		l1.4,1.3l0.3,3.5l3.3,1.9l0.5-1.8l0.4,1.1l1.1-0.2l0.2,1l1.3,0.2l0.2-1l1.6-0.2l1.6-1.6l2.9-0.2l0.3,3.2l1.3,1.8l1.3-0.6l0.5,0.4
		l0.7,1.3l-0.2,1.7l1.5,2.6l1.7,1.5l1-0.1l0.7,2l-0.9,1l1.2,1.2l-0.1,0.9l1.4,0.1l0.5,0.8l2.7-0.8l0.5,2.9l2.3,1.7l-0.6,2l0.4,2.9
		l0,0l-0.5-0.2v5.1l0,0l0.1,1.4l-3.5,1.5l-1.6-1.2l0.1-1.5l-1.5-0.9l-1.4,0.3l-1.6-3.4l-2.3,0.2l-0.7-1l-1.6,0.2l-0.6,1.7l-1.6,1.3
		l1.4,1.6l0.3,3.7l-1.4,0.8l-0.9-1.2l-2.3,0.3v1.5l-1.7,1.5l0.4,1.5l-1.3,0.5l-0.4-2.2h-0.9l0.3-0.9l-1.8-2.9l-1.6-0.2l-3.6-0.2
		l-1.2,1.9l0.8,0.9l-2.7,3l-1-0.8l-3.2,0.1l-0.3-0.9l-1.1,1.7l-1.5-1l-0.8,0.4l-0.6,2.2l-1.3,0.7l-3.1-2.6l-1.9-0.2l-1-1.5l-1.6,1.2
		v1.9l-1.4,0.5l1.4,3.3l-0.8,1.9l-3.2,1.8l0.2,2l-1,1.6l-1.3-0.2l-0.3,2.2l-1.5-0.7l-0.4,0.5v1l1.3,1.3l-1.2,1.2l0.9,1.1l-0.7,1.7
		l1.5,1.3v1.9l-1.2,1.6l-1.4,0.5l-1.5-1l-1.8,1.5l1.3,0.6l0.6,0.9l-0.4,0.7l-2-0.7l-1.6,0.9l-9-2.9l-1.9,1.1l-0.5,1.5l0.9,1.4h1.3
		l-1.5,1.7l-0.8-0.3l0,0l0.1-1.5l-2.4-3.3l0.9-3.1l-2.5-0.1l-0.9,1.9l-2.9-0.5l-5.2,2.2l-1.5-0.3l-0.3,1.3l-1.6-0.9l-1.8,0.7
		l-0.7-2.2l-3.3,0.4l-1.8-2.2l-1.3,0.2l-1.6-2.3l-1.3-0.4l-1,0.5l-3-2.1l-2.7,0.4l-1.3-0.9l-0.6-3.2l-2-1.1l0.2-1l-1.7-1.5l-0.2-1.3
		l-1.8-0.8l0.3-4.2l2.9-0.6l-3.6-3.6l-1.1-3.6l1.1-1.7l1.6-0.2l1.2-1.2l0.9-3.2l0.9-0.1l-1-2.4l0.7-1.7l1.3-1l4.6,0.3l-0.5-1.9
		l-1.9-1.1l-0.6-3.2l-1.1-1.2l1.2-2.5l-0.9-1.1l-3.6-1.6l-1.3,1.3l-2.4-0.5L8.9,163v-1l-2.5-1l0.2-2.1L6,158.6l1.1-1.5l-1.4-2.2
		l0.7-0.6l-0.3-1.2l-3.6-0.4L1.8,149l-0.9-0.3L0,146.5l2.4-1.5l0.4-1.1l3.2,0.2l1.3-1.6l4.1,1.7l0.1,0.6l2.3-0.7v-2.3l2.7-0.1
		l0.4-1.5l2.4-2.1l1.3,0.2l1.2-0.7l1,1.1l2.1-2.6l0.7,0.1l0.5-2.6l-1.3-3.3l1-0.2l0.4-1.5l1.3-0.7v-1.5l1.2-1.8l-3.7-2l-0.6-2.4l0,0
		l1.8-3.6l0.4,2.8l0.9-0.7l3.1,1.1l2.4-3l2.8-0.1l1.9-0.9l1,0.7l3.5-2.8l0.9-1.6l1.2-0.4l1.8,0.5l2.1-1.1l2,1.2l0.1,0.9l1.4-0.7
		l2,1.3l2.3-0.4l0.7,0.6l4.9-3.5l2.6-0.2l1,0.7l0.7-3l1.2-0.2l-1.8-3.7l1.7-2.8l-0.4-1.2L65,99.5l-1.7-3.1l0.7-5.1l-0.7-4.1l0,0
		l0.7-0.7l0.1-3.6l1.5-1.6l4.2,0.1l1.1-1.2l0.1-1.5l1.2-0.8l-0.7-2.1l0.5-2l3.7-0.9l0.6-1.4l1.9-1L78.1,69l0.8-1.1l-1.4-3.3L76,62.8
		L74.3,62l3.2-3.2l1.4,0.4l2.2-0.9l0.7-1.9l1.9-0.8v-1.4l2.4-1l0.5-1.5L85.1,51l0.8-1.2l1-0.1l2-1.9L92.9,46.9z"/>
	<path id="IT-75" class="st1" d="M481.4,368.9l3.9,0.8l4.9,3.7l-0.7,1.5l1.3,2.4l-0.1,1.6l-0.4,2l-1.4,1.4l-4.7,3.2l-0.3,1.1
		l-8.4,5.2l0.1,5.7l2.5,4.7l3.5,2.5l9.4,4.3l3,2.3l8.1,3l8.4,5.1l9.9,3.2l1.7,1.4h1.8l0.5,0.8l0.9-0.4l0.2,0.7l4.2,1.8l6.8,2.2
		l9.6,6.3l3.6,4.4l2,0.9l4.6,4.3l11.8,4.7l6.2,4.3l5.6,0.7l1.1,1.9l-0.5,0.9l3.6,0.1l-0.3,1.1l1.6,1.9l-0.5,2l2.2,2.8l2.4,2.2
		l5.9,3.3l9.4,10.1l2,4.5l-0.2,1.8l1.5,3.6l1.4,0.9l-0.5,0.5l0.6,1.6l-1.7,1.6l-0.5,2.4l-2,1.4l-1.4,3.2l-0.9,4.6v6l-1.1,1.6
		l-1.2,0.3l-3.8-3l-5.1-1.1l-6.4-5.2l-2.7-4.7l1.2-0.5l-0.2-2l-2.1-1.1l1.5-1.1l0.4-2.5L579,488l0.3-1.9l-1-2.2l-2.5-2.1l-9.1-1.3
		l-8.8,0.7l-3.2-2.3l-2.7-0.3l-8.7-5h-1.1l0.3-0.9l1.9-0.8l0.2-1.5l-1.3-1.6l-2.3,0.1l-0.6-1.6l-2.8-1.1l-3.8,0.6l-3.5,1.9l-3.6,3.2
		l-2.1,3.5l0,0l-0.8-1.9L522,472l-0.4-1.6l-1.8-1.1l-1.7,0.4l-0.9-1l1-2.1l-1.2-0.9l0.4-0.8l-1-1l0.4-2.9l0.6-0.5l-0.9-2.1l0.9-3.6
		l-1.2-1.4l1-0.5l-2.9-2.2l-0.5,0.8l-1.2-0.7l-0.2-1l-1,0.6l-1.7-0.7l-0.1,1.7l-0.9-1.3l-1,0.3l0.1,1.9l-2-2.5l-3.5,4l-1.5-0.4
		l-0.8-1.7l-6.6-6l-2.9-6.5l-2-0.6l-2.1,2l-1.6-1.5l-5.6-2.4l-0.6-1.1l1.5,0.3l1.8-2l-0.3-1.5l0.6-1l-1.8-1.5l-0.6,0.4l-0.6-2.4
		l-1.3-0.3l-0.2-1l-1.7-0.3l-2.3-1.6l-1.4,0.9l-0.8-0.3l0.2,0.8l-1.7,0.4l0.1,1l-1.7,0.9l-1.5-1.1l-2.5,0.9l-4.6-0.8l-1.9,0.4
		l-1.4,1.2l0.3,1.2l0,0l-3.6-1.8l-1.6,0.1l-2.1-1.8l-1.7,1.3l-2.8-1.2l-1.1,0.9l-2-1.4l-0.7-1.9l-1.6-0.8l0.8-2l2-1.2l-0.9-2.4
		l1.6-1l-1.3-1.4l-1.6,0.3l-1-1.5l-3.4,0.1l-0.2-2.2l-3-1.1l-0.6-2.6l0.8-1.2l1.1-0.2l-0.5-1.2l0.8-0.8l-0.2-0.8l-2.9-0.8l-1.8-2.8
		l0,0l-2-2.3l-1.6-0.7l0.7-5.6l-0.9-0.8l1.2-1.5l3.2,1.5l1.3-2.4l2.1-0.9v-0.8l0.8,0.8l0.7-1.5l2.1-1l-1.9-0.8l-1-1.5l0.7-0.5
		l-1-1.2l1-1.6l-0.8-2.9l2.1-3.1l-0.2-3.3l0,0l10.4,0.6l1.2,1l3.2,0.1l9.9-1.9l3.4,1l4.1-0.2L481.4,368.9z"/>
	<path id="IT-88" class="st1" d="M89.5,559.5l0.6,1l2.3-0.7l2.1,3.6l-1.1,5.6l-1.6,0.9l-2.8-5.3l-0.6-2.8L89.5,559.5z M86.3,554.9
		l-0.1,5.5l-1.6,0.4l-1.3-1l0.1-1.7l-1.5-0.9l2.4-2.2L86.3,554.9z M159.3,439.1l0.6,0.5l-2.5,1.6l-0.5-0.4l2.8-2.3L159.3,439.1z
		 M82.2,435.2l-0.6,0.6l-0.1-1L82.2,435.2z M87,425.6l0.3,1.1l1.2,0.8l-0.7,0.7l-0.2,2l-2.7-1.3l-2.2,3l0.7-0.2l0.8,1.6l-0.5,1.4
		l-2.3-0.3l1-2.5l-0.6-0.1l0.2-1.1l1.5-0.6l0.9-1.6l1-0.1l-0.5-2L87,425.6z M146,417.2l0.9,1.5l-1.2,2.1l0.9,0.2l-2.3,0.4l1.1-4.3
		L146,417.2z M139.3,416.6l1,0.6l-1.1,0.9L139.3,416.6z M133.6,416.1l2.5,2.1l-0.8,1.9l1.1,1.1l2.4-0.2l0.3-1.3l1.2-0.1l0.5,1.8
		l0.6,0.1h2l-1,1.3l1.3,0.2l0.9,1.4l-0.2,2.9l1.5-2.3l-0.3-1.1l2.5,0.1l0.3-1.1l0.9,1.2l-0.6,0.3l1,0.1l-0.3,1.2l1.3-0.1l0.3,1.1
		l-1,1.5l-0.6-0.7l-0.4,0.4l0.3,1.4l-0.8,0.5l-0.8,3h0.8l0.2-1.4l1.8-0.5l-0.5,2.2l1.3,0.1v-0.8l0.5,0.3l0.5-0.8l3.6,1.8l-0.7,0.7
		l-2.2-1.1l-1.4,1.2l0.6,1l-1.3,1.7l0.3,0.9l-2.7-0.4l-0.9,0.4l0.9,0.5h2.1l0.9,0.4l-0.4,0.4l1,1.1l1.5-2l1.3,0.2l-1.5,1.9l2.2,1.1
		l-0.5,1.4l1.7-0.4l2.1,1.5l-0.7,0.6l-1-0.4l-0.4,1l0.6,0.8l-0.9,0.5l-0.1,1.3l2.4,2.3l-0.2,2.7l2,2.5l-0.6,2.6l0.6,2.5l1.8,1.7
		l0.3,1.8l1.7,1l-3.1,9.2l-3.9,3.4l-3.2,5.5v3.4l1.4,4l2,2.7l2.1,1.2v1.7l-2.4,5.8l0.2,2.1l1.2,0.3l0.2,0.8l-1.8,1.9l0.7,3.2
		l-1.4,4.7l0.4,4.7l-1.6,4l0.5,5.5l-1.2,4.4l0.7,2.7l-2.5,7.5l0.3,2.1l1.5,1.2l-1.6,0.5l-1.1,1.6l-1,4.6l0.9,1.3l-1.1,3h-1l-0.9,1.1
		l0.1,1.3l-1-0.8v-1.5l-0.9-0.4l-2.4,0.8l-7.2-6l-4.4-0.9l-2.1,1.3l-0.5,1.7l-2.6-2.1l-2.1,0.9l-2.5,3.2l-0.1,4.2l1.5,2l-1.2,4.7
		l-0.6-0.5l-0.7,0.4l-7.1,7.1h-1.3l-1-1.3l-0.7,0.8l-1.3-2l-2.8-1.6l-0.2,1l-2.8,0.7l0.3,1l-1.1,0.5l0.5,1.3l-0.9,0.3l0.3-2
		l-2.1,0.1l0.7-3.3l-2.5-2.3l-0.4-4.3l-1.7-1l-2.9-0.1l0.5-1.8l-0.7-1.5l-0.6-0.6l-1.1,0.6v-2.9l-3.5-3.7l-0.1-1l3-2.8l0.5-1.4
		l-0.8-2.7l-1.4-0.5l-0.2-1.7l-0.8-0.7l2-3.1l-0.1-1.2l-1.5-1l0.2-1l3.4-5l0.9-3.7l-1.1-2.2l0.4-2l-0.6-1.1l0.5-1.6l-0.5-3.3
		l0.7-0.8l1.8,3.1l0.8-0.1l0.3-2.1l1.6-2.8l0.4-4.3l-1.5-2.8l-2.4-0.1l-1.9,2l-2.2-2.1l-0.2-4.5l1-3l-1.8-1.1l1.3-1.1l0.5,0.7
		l2.1-0.7l1.8-2l0.1-1.5l-1.8-4.9l1.3-7.3l-1.2-2.3l-2-1.1l-1.9-0.1l-0.2-1.4l1.1-3.4l-1.4-5.4l-1.8-0.6l-1.9-6l-2.7,0.5l-0.1,0.9
		h-2v-1.8l0.8-0.5l-1.1-1.1l-1.8,2.9l-0.6-0.2l-0.3-3l2.1-0.9l1.1-3.2l-1.6-0.7l-2.2-2.5l1.8-2.4l-0.3-1.9l1.4-1.2l1.8-5.1l-2.4-3.3
		l1.4-2.4l1.7,1.2l-0.2,2.9l4.1,4.4L90,444l2.3-0.4l1.9,1.4l5.4-0.8l6.8-5.5l5-0.7l4.1-4.7l-0.1-1.3l3.1-1.9l4.1-5.6l1.7-0.9
		l0.7,0.7l2.6-0.5l0.6-1.4l1.7-0.1l0.8-0.9l-0.8-1.9l0.7-2.2l-1.3-0.2l0.1-0.9l1.1,0.7l1.4-0.8l0.1,0.9L133.6,416.1z M143.3,415.5
		l1.5,2.4l-0.4,1.1l-3,0.5l-0.4-1.3l1.5-1.1l-0.1-1.1l0.7,0.7L143.3,415.5z"/>
	<path id="IT-82" class="st1" d="M302.7,789.8l4.9,0.5l0.3,1.7l-6-1.6L302.7,789.8z M273.3,706.8l2.3,1.2l0.6-0.4l2,1.7l0.1,2.4
		l-1.4,1.7l-1.9-0.1l-3.3-4.1l0.1-1.6L273.3,706.8z M298.5,642.3l-0.9-3.3l1.3-0.7L298.5,642.3z M291.4,635.2l0.8,1.5l1.1-0.4
		l1.1,0.8v1.2l-0.7,0.2l-0.9-1l-2.5,0.3l-0.8-1.4L291.4,635.2z M278.9,632.7l1.3,2.9l-2.5-0.8l-0.7-2.2L278.9,632.7z M458,612.7
		l2.4,1.6l2.7,0.7l-2.8,0.8l-1.5,1.2l-0.8,2.9l0.8-0.2l-4.1,7.6l-9.8,12.7v1.7l-1.7,1.1l0.2,0.9l-3.3,4.3l-0.4,1.1l0.7,1.7l-1,3.6
		l-1.2,1.6l0.1,3.5l-3.1,3l-1.5,2.9l0.6,10.6l3.3,2.1l1.5,0.4l0.7-0.7l2.6,3.2l-0.5,0.8l-1-0.7l-0.2,1.7l-0.5-1.9l-1.1,0.4l-0.3,3.2
		l1,2.3l1.4-0.5l0.6,0.8l-0.8-0.3l-0.4,0.6l0.7,1.6l1.4,0.8l1.7-0.1l0.1,3.1l-1.1-0.4l-0.1,1.6l0.7,0.4l1-0.6l1.4,2.5l-1.8-0.8
		l-1.3,0.5l-0.7,2.2l-2.7,0.6L437,702l-3,7.3l2.3,7.3l-0.5,1.2l-0.8-0.5l-1.8,1.7l-3.2-3.4l-3.1,0.6l-2.2-1.9l-1.9-0.5l-5,1.7
		l-1.9-1.1h-2.7l-2.7-2.5l-2.5-1l-4.9-0.6l-1.8-1.9l-0.8-3.5l-3.2-5.8l-6-6.1l-5-2.3l-4.9-1.1l-5.3,0.1l-3.2,0.8l-1.5-0.4l-2.7-2.8
		L365,687l-4.6-2.9l-1-2.1l-4.5-3.7l-1.5,0.4l-0.8-0.8l-3.1-0.1l-2.4-2.5l-4.1-2l-1.3-1.6l-1.3-0.1l-1.1-2.4l-4.4-4.3l-4.6-0.8
		l-2.9,0.7l-3-4.5l-2.3-0.8l-7.1-0.2l-5.4,1.3l-3.4-5.2L304,654l-2.3,0.2l-2.2-2.6l-0.2-2.9l-2.4-3.7l2-1.1l1.1-3.6l-1.4-2.2
		l2.1-2.9l-0.2-2l1.2-0.5l-1.5-1.6l1.5-0.4l2.7-3l1.7,0.3l1.8-0.7l1.2-1.2L309,625l2.6,0.1l1.4-2l-1.1-2.2l0.8-1.1l0.3,0.8l1.6-0.2
		v1.8l1.1,1.1v1.6l1.1,2l4.6,3.5l4.5-1.2l4.6-2.8l-1.3-3.3l1-0.2l0.7-1.2l-0.4-0.7l1.6-1.4l4.3,1.5l2.1-0.9l0.4-1.4l1.8,0.3l2.2-1.6
		l0.7,1.7l1.9,1.1l0.5,2.2l-0.7,1.1l1,1.5l3.3,0.9l2.2-0.5l0.9-1.1l1.5,0.4v3l1.5,1.8l7.4,4l2.8,0.4l4.9-1.3l4.3-2.5l3.9-0.8
		l2.2,1.5l2.2,0.2l1.9-1l7.2,1.4l4.4-0.6l2.8-1.5l2.7,0.4l8.2-2.6l5.6-6l2.2,0.9l5.1-1.4l1.2-1.3l2.9,2.5h3.8l0.8,1.6l2,0.4l3.9-2.1
		l2.2-2.5l1.1-3.2l-0.9-1.8l0.8-0.1l0.7,1.5l-0.5,2.1l2.2,0.6l5.7-1.6l6.3-4.2L458,612.7z M427.3,605l1.9,1.5l0.3,1.7l-1,0.2
		l-1.7-1.1l-0.6-1.8l1-1.3l0.5,0.5L427.3,605z M427.4,598.3v1.9l0.9,0.7l-1.3,0.4l-0.1,2.3l-2.9-3l0.8-2.2L427.4,598.3z
		 M396.6,596.1l-0.1,1.4h-0.9l-0.1-1.2L396.6,596.1z M420.1,594.2l2.6,0.1v2.9l-0.8,0.2l-3.1-1.8l0.5-1.4H420.1z M406.2,594.1
		l1.4,0.3l0.9,1.7l-2-0.2l-0.7-1.2L406.2,594.1z M433.2,590.2l-0.1,1l-0.9,0.3l0.1-1.2L433.2,590.2z M336.7,585.8l0.4,0.3l-0.7,0.9
		l-1.7,0.2l0.4-1.2l1-0.5L336.7,585.8z M440.9,579.4l0.9,0.7l-1.5,1.9l-1.3-1.3L440.9,579.4z"/>
	<path id="IT-52" class="st1" d="M189.1,341.2l0.9,1.8l-0.8,0.7l-1-0.2l-0.2-2.1L189.1,341.2z M218.5,338.5l2,2l-0.2,3l-2-2.4
		l-0.8-0.1L218.5,338.5z M177.1,322.6l1.1,2.1l-0.6,1.5l-2.2-1l1.4-0.7L177.1,322.6z M194.5,305.3l1.3,1.4l-0.8,2.1l0.3,2.7
		l-2.5,1.4l2.4,1.7l-0.6,1.9l-2.5-0.8l-0.9-2.7l-0.8-0.4l-1.2,0.2l0.1,1.7l-0.9-1.6l-0.8,1.7l-2.2-1l-0.2,1.6l-2.7-0.7l-1.6,0.3
		l0.2,0.5l-1.8-1.1l-1-1.8l0.1-1.6l1.8-1.4l2.9-0.1l2.5,1.5l0.2-0.8l1.1-0.3l-0.4-0.6l0.6-0.5l-0.6-0.8l3.6,0.9l-0.8,1l1.9,0.3
		l2.7-5L194.5,305.3z M164.4,291.6l0.7,2l-1.8,2.4l-0.9-1.3l0.5-2.3l1.2-1.3L164.4,291.6z M287.5,239.6l0.1,0.2l0,0l0.3,1.1
		l-2.2,1.1l-1.4-1.6l0.3-1.1h2.8l0,0L287.5,239.6z M156.7,199.9l3.6-2.1l3.4-5.4l5.4-0.6l2.4,0.9l0.5,1.2l1.1,0.2l-0.5,2.6l1.1,1.3
		l4.3,2.9l2.4-0.5l5.6,6l2.4-1.2l2.2,1.2h1.6l2.9,3l1.7-0.3l1.2,0.7l-0.1,1.4l1.7,1.6l0.2,1.6l3.4,3.1l1.7-0.4l-0.1-1.3l1-1.2
		l5.6,0.1l5,4l2.3,0.5l0.7,0.9l-0.3,0.9l0.7,0.3l4.9-5.5l0.4,0.9l-0.6,1l1.6,1.1l2.8,0.3l3.3-1.4l3.1,0.9l2.5-0.2l-0.2-1.1l-2.9-1.7
		l0.1-0.9l4-0.1l2.3-2.1l0.2-1.1l2.5-0.3l2.5-2.4l1.3,1.2l0.3,2.1l1.4,0.4l1.7,2l1.2,0.3l1-1l2.6,0.5l0.2,1l-1.4,2.1l2.7,0.4
		l5.5-1.1l-0.3,2.7l-2,2.2l-0.4,2l-1.7,0.6l0.2,1.1l-0.7-0.1l-0.2,1.1l2.2,2.1l-0.3,1.6l1.8,1.2l-0.3,3.1l3.6,2l2,2.4l4.7,0.2
		l0.5,1.3l1.4,0.2l0,0l0.2,1l1.6,1.1l0,0l1.1-0.4l1.5,0.9l0.9-0.2l0,0l1.1,1.3l1.7-0.9l0,0l1.4,0.2l1.4-0.8l1.5,2.3l0.8-2l2,0.4
		l1.6-0.9l0,0l0.2,0.1l0,0l2.1,0.9l2.3,3.1h-2.1l0.3,2.2l-0.9-0.1l-0.6-3.7l-0.4,3.1l-1.2,0.7l-1.5-0.3l0.2,0.8l-0.9,1.1l-2.3,0.8
		l1.5,2.2l0,0l-2.5,3.1l-0.8,2.6l-2.2-0.2l-0.5,0.6l-0.2,1.8l2.6,1.5l-0.1,0.6l-2.1,0.9l-1,1.7l-1.1-0.3l-1.7,1.7l0.3,1l2.1-0.2
		l0.1,2.7l1.4-0.5l0.6,0.6l1,2.3l-0.6,1.7l0.4,0.9l2.2,0.8l0.9-2.2l1.5,1.3l-6.7,4.2l-2.2-1.2l-0.8,0.4l0.5,1.3l-1,2.7l-5.2,3
		l-0.5,1.3l0.9,2.4l-0.3,1.2l0.8,1.6l0.8-1l1.3,1.4l-2.4,9.9l1.1,0.8l0.1,1.8l-1.3,0.1l-2,2.3l0,0l-2.5-0.1l-1.6,1.1l-0.5,2
		l-0.7-1.3l-1.2-0.5l-1.2,2.4l3.8,3l-1,2.4h-1.2l0.4,2.6l1,0.5l0.1,1.1l-1.4,0.9l-1.4-0.2l-0.9,2.1l-1.3-0.2l-1.5,1.1l-0.2,1.1
		l-1.7,0.9l-0.8-0.2l-0.7,0.9l-1.1-1l-0.6,0.3l0.4,1.8l-1.4,1.9l2.8,1.9l0.1,3.4l-6.8,0.1l-1.9,4.1l0,0l-8.4-2l-1.2-1l-2.7,0.7
		l0.1,1.5l-1,0.5l-0.2,1.2l-1.8,0.1l-1.4-1.7l-1.6-0.5l-0.4-2.6l1-1.2l0.9,0.9l2.2-0.2l1-2.1l0.3-3.1l-1.7-3.6l-1.8,0.4l-1-2.9
		l-1.1-1.1l0.2-1l-4.1-1.8l-0.9-3.7l-2.2-2.3l-4.4-1.8l-3.4-0.4l-3.1-2l1.8-1.1l0.1-3.6l0.9-1.3l-0.7-1.5l-1.8-1.3l-3.2-1.5
		l-2.9-0.3l-3.7,0.6l-0.4,1.8l-2.3-0.8l-0.6-3.9l1.7-0.8l1.1-6.2l-0.7-11.1l-1.2-2.9l-2.2-2.3l-1.8-5.5l-1.1-0.1l-1.1-3.2l-2.6-2
		l-1.6-4.3l0.3-2.4l-1.9-7.7l0.6-0.9l-0.2-4l-1.8-8.7l-5-7.7l-4.1-3.6l-2.2-1l0,0l2.2-2.5l0.3-1.4l-2.4-1.5l-1.8,1.5l0.5-1.2
		l-0.9-1.4l-0.2-2.4l-3.9,0.1l1.2-2l0.8-0.1l-1.5-1l-2.1,1.8l0.4-2.7l-0.8-0.7l-0.1-2.6l-2.6-1.1l-4-3.1l-1-2.6L156.7,199.9z"/>
	<path id="IT-32" class="st1" d="M285.9,0.4l1.7,1.4l-1.2,0.8L286,4.8l-3,0.3l-1.3,1.3l0.9,3.8l1.6,1.5l-1.3,1.9l2.3,0.4l1.4,2.3
		l1.4-1.1l1.8,0.4l1.6,3.2l-1.1,1.9l-0.1,2.3l3.6,0.6L295,28l5,2.9l0,0l-2.5,0.9l-1.7,1.9l-0.9-0.2l0.4,1.3l-0.5,0.5l-1.3,0.1
		l-0.7-0.9l-3,0.9l-1.2-0.8l-3.3,2.7l-0.1-2.3l-1.5-1l-0.8,0.3l-3.9-3.1l0.3,2.3l-1.5,2.7l0.2,1.5l-2.5,3.9l-0.6-0.8l-1.2,0.1
		l-1.2,1.2l-1.6-0.3l-4.9,2.5l-0.1,1.6l3.1,0.4l0.6,1.4l-2.3,2.7l-0.3,3.7l-0.8-0.7l-2.4,1.4l2.9,2.4l0.6,1.4l-0.7,1.9l0.8,0.7
		l2.2-0.5l0.4,1.9l0.6-0.4l1.2,0.6l-0.8,2l2.4,2.2l-0.6,1.6l-1.1-0.4l-1.7,3.9l-4.2,1.5l-2.2-0.2l-0.8,0.8l-0.7-0.8l-2.7,0.9v2
		l0.9,1.5l-2.1,0.6l0.7,0.7l-0.7,0.8l1.1,2l-0.9,1.9l-4.2-0.3l-0.5-2.8l-1.9-0.6l-2.1,0.3l-2.7,2.3l-3.6-0.2l0.4,2.8l-1.3,0.2
		L242,87l0.3,1l-2.5-1.3l-0.1-0.8v1.4l-2.4-0.2l-0.9,4.9l-2.4,2.8l0.6,2.4L233,97l0.1,3.6l-2.5,3.4l-1.6-0.2l-1.9-1.8l-1.6,0.9
		l-0.4-1.2l-1.8,2.6l-0.5-1l-1.5,1.7l-1.5-0.9l0.7-1.1l-2.1-1h-2.2l2.2-4l-0.8-1.5l1.3-1.1l-2.7-1.7l0,0l-4-0.8l-0.4,0.9l-1.3-1
		l-4,0.8l-0.5,2.2l-2,0.1l-2.2,1.3l-1.3-0.1l-0.4-0.9l0.7-1.4l-2.2-1l-0.5-4.3l0.9-2.1l-1.3-2l0.2-2l-1.7-0.3l-0.1-1l0.6-1.8
		l1.2-0.9l-0.4-1.9l3.3-4.1l0.9-4.4l-1.1-1.6l2.3-4.2l-0.5-2.1l-0.8-0.5l0.9-1.3l-0.6-2l-2.6-1.3l2.6-2.5l2-0.1l1.5-1.6l-0.8-1.4
		l0.2-2.2l-1-1.4l-2.6-1.8l-3.8-0.3l-1.1-2.7l0,0l1-0.9l0.9-5.1l-2.3-2.1l-2.3,0.3l-0.8-3.6l1.5-1.9l-0.8-1.8l2.2-1.7l-1.2-2.6
		l1.4-0.8l1.5-4.1l1.1,0.9l2.8-0.2l-0.4,0.9l6.1-2.8l1.4,0.8v1l3.2,1.3l0.5,0.8l-1.8,2.6l1.3,0.2l1.6-0.8l1.4,1.5l1.2-0.5l2.5,1.5
		L220,24l5.2,0.6l0.9-2.9l2.3-1.2l-0.6-2.4l1.4-2.6l-0.1-1.8l0.9-1.3l1.3,0.2l1.2-0.9l0.1-1.9l1.2-0.4l0.9,0.6l5.8-2.2l0.8,0.6
		l1.1-0.5l2.4,1.9l1.9-0.8l2-2.7l2.9,2.1L256,6l2.3,1.5l2.4,0.1l0.9,1.4l1,0.3l1.8-1.7l2.8-0.1l4-3.1l1.6-0.1l1.4-1.1l2.2,0.2l1-1.1
		l1.8,0.2l1.1-1.4l1.1,0.4l3.4-1.4L285.9,0.4z"/>
	<path id="IT-55" class="st1" d="M297.5,254.7l-0.5-0.6l0,0l-0.2-0.1l0,0l0.2-0.7l0.7,0.3l0,0l0.1,0.5l0,0L297.5,254.7z
		 M286.5,253.2l0.7,1.2h3.1l0.4,0.6l2.1-1.7l1.9-0.1l-0.5,0.8l0.5,1.4l-2.9,2.7l1.4,1.4l1.4-0.7l1.3,1.7l1.4-2.1l1,0.1l0.8,1.4h0.9
		l0.3-0.9l0.9,0.4l6.4,7.3l2.1-1.3l2.2,0.8l1.3-2.7l2.1,0.6l-0.4,2l0.9,0.8l-1.8,1.7v0.8l2.3,3l0.4,2.9l-0.6,0.7l1.9,1.3l0.7,3.4
		l1.4,0.7l-0.1,2.9l-1.6,1.5l0.7,1.5l2.1,0.4l0.6,1.7l-0.2,2.8l0.8,2.1l-0.9,0.7l0.9,2l-0.6,1.5l2.7,1.6l0.2,0.9l1.1,0.1l0.1,4
		l1.2-1.4V302l1.3,0.8l1.4-1.4l3,2.3l2.5,3.9l2.7-0.6l1.2-1.8l1.4,3.6l-0.2,1.8l-0.9,1.9l-0.4-0.8l-1.9,0.8l-0.2,2l0,0l-0.8,4.5
		l-1.3,1.3l-1.6-0.6v0.8l-2.8,1.7l-2.1-1.1l-0.7,1.5h-3.2l-0.8,1l-2-1l-0.6,1.2l0.6,2.5l-2.1,0.7l-1.9,1.6l-2-0.1l-0.2,1.3l-3.1,0.9
		l1.4,2l-3,2h-1.2l-0.9-1.9l-1.2,0.1l-0.2,3.9l-4.3,3.4l-0.9-1v-1.7l-3.6,0.5l1-1.4l-2.3-0.8v-2.1l0.7-0.2l-0.7-0.7l0.2-1.9
		l-1.5-0.2l-2,1.6l-1.2-1.3l-1.9,0.2l0.7-0.5l-1.5-0.8l0.8-0.7l-1-0.9l0.2-2l-1.7-0.8l-0.5-4.5l-1.7-2.1l-1.6-0.7l-1.4,1.2l-0.7-0.2
		l-0.1,0.8l-1-1.1l-3.7,1.3l-4.1-2.6l-1.3-2.1l1.9-1l1-2l-2.8-1.8l-1.6-3.9l0,0l2-2.3l1.3-0.1l-0.1-1.8l-1.1-0.8l2.4-9.9l-1.3-1.4
		l-0.8,1l-0.8-1.6l0.3-1.2l-0.9-2.4l0.5-1.3l5.2-3l1-2.7l-0.5-1.3l0.8-0.4l2.2,1.2l6.7-4.2l-1.5-1.3l-0.9,2.2l-2.2-0.8l-0.4-0.9
		l0.6-1.7l-1-2.3l-0.6-0.6l-1.4,0.5l-0.1-2.7l-2.1,0.2l-0.3-1l1.7-1.7l1.1,0.3l1-1.7l2.1-0.9l0.1-0.6l-2.6-1.5l0.2-1.8l0.5-0.6
		l2.2,0.2l0.8-2.6L286.5,253.2z"/>
	<path id="IT-23" class="st1" d="M48.8,82.2l0.6,1.2l3.8-0.5l0.9,1.5l1.3,0.5l0.6,1.9l1.6-1.2l2.5,1.6l1.2-0.7l2.1,0.7l0,0l0.7,4.1
		l-0.7,5.1l1.7,3.1l1.6,0.6l0.4,1.2l-1.7,2.8l1.8,3.7L66,108l-0.7,3l-1-0.7l-2.6,0.2l-4.9,3.5l-0.7-0.6l-2.3,0.4l-2-1.3l-1.4,0.7
		l-0.1-0.9l-2-1.2l-2.1,1.1l-1.8-0.5l-1.2,0.4l-0.9,1.6l-3.5,2.8l-1-0.7l-1.9,0.9l-2.8,0.1l-2.4,3l-3.1-1.1l-0.9,0.7l-0.4-2.8
		l-1.8,3.6l0,0l-2.7-0.4l0.3-1.6l-2.8-0.8l-0.2-5.1l-0.9-1l1.2-3.8l-1.7-1.1l-2.6,0.2l-0.5-1.4l-2.4-0.9l-2.5-2.9l0.4-1.2L9,97.3
		l1-4.1l1.2-0.3l1,0.6l0.7-1.2l1.8,0.6l1.5-0.5l0.5-1l2.3-0.8l0.3-2.1l2.1-1.7l3.2,4.8l2.6-1.5l1.9,1.5l1.2-2.1l2.1-0.1l1.8-2.4
		l4.7,1.8l4.4-2.8v-1l1.3-1.1l2.2,0.4l0.3-2.1L48.8,82.2z"/>
	<path id="IT-34" class="st1" d="M303.6,157.2l-1.4,0.8l0.9-1.1l-0.9-0.4l1.6-0.2L303.6,157.2z M302,155.1l1.2,0.9l-2.4,0.5l0.6-1.8
		L302,155.1z M301.6,31l2.8,2l5.5-0.6l2.1,0.7l0.9,1.1l0,0l-0.2,1.8l1,1.7L313,40l0.9,1.2l-2.5,0.1l-3.5,2.2l-0.1,0.9l1.2,0.8
		l0.4,1.7l-1.8-0.8l-1,0.8l-1.9-0.8l-1.6,1.2l-0.4-0.4l-1.5,2l-0.3,1.8l-2,1.8l0.3,1.4l-0.6-0.3l0.2,0.6l-1.8,0.9l-0.3,2l-1.9-0.3
		l-1,0.8v2l-1.8,1.9l2.1,2.8h2.1l0.3,1.6l1.8-0.1l0.3,2.1l2.4,1.9l-0.5,3.6l-2.9,2l-1.8,2.8l0.9,0.8l0.7,2.6v3.5h1.4l1,1.5h1.5
		l1.3,4.5l1.4,1.3l-0.2,1.2l2,1.1l0.7-1.6l1.2,0.7l0.1,0.9l1.1,0.5v1.6l3.9-3.6l0.7,0.7l2-2.1l1.1,0.8l-0.4,1l0.6,0.7l0.5-1l2.2-1.1
		l0.6,0.1l-0.4,1.1l1.2,1.1l1.5-0.9l0.5,1.1l1.5-0.5l-0.5-1.4l0.6-0.2l0.6,1.6v0.3l0.4,0.4l-0.2,0.8l0.8,0.3l-1.1,0.6l2,1.9
		l-0.5,0.3l0.6,1.3l-0.4,1.2l1-0.7l0.6,2.7l0.8,0.2l-0.4,0.8l1,0.8l-0.2,1.3l1-0.1l-0.1,0.6l1.1,0.6l0,0l-0.6,0.8l-4.9,0.3l0.1-0.8
		l-0.9-0.3l-0.5,1.4l-3,0.4l-1,1.3l-6.3,3.9l-15.9,7.4l-1.5,2l-1.7-0.8l-1.9,2.6l-1.4,2.8l-0.1,1.1l0.8,0.4l-1.1,0.4l-1.6,6.5
		l1.4,0.4l-1.1,1.1l0.6,2.5l1.3,1.4l-0.3,5.3l1.4,1.2l1.6,3.1l-0.5-0.3l-0.8,0.9l0.9,0.6l0.9-0.6l-0.2,1.1l0.5,0.1l0.5-0.3l-0.4-1.8
		h0.5l4.3,5.4l-0.7,4.5l-1.1,1v2.9l-1.6-0.6l0.3-2.9l-1-0.4l-0.9,0.4l-0.8,1.7l0.9,1.1l-0.4,2.1l0.8,0.7l0.6-0.4l0.1,0.7l-1.3-0.1
		l-0.1,1.4l-2.4-1.9l0,0l-0.6-2.2l-2-0.5l-0.6-0.9l-0.3-2.9l0.6-1.2l-0.8-1.1h-1.1l-1.5,1.3l-2.1-0.2l-0.8-1.1l-1.5,1l-2.3-3.1
		l-6.7-1.1l-2.2,0.8l-6.3-0.1l-2.9,1.4l-0.7,2.2l-3.2,0.9l-2,1.9l-1.2,0.1l-0.7-0.2l-0.4-1.6L252,159l-5.7,0.4l-0.2-1.5l0,0l-0.2-1
		l-8-4.3v-2.5l-1.4,0.9l-3.1-1.2l0.6-1.6l-0.4-1l1.3-1l-3-1.1l-0.9,1.7l-1.4-0.7l-0.2,1.3l-1.2-0.2l-2.3-1.9l1-1.9l-0.9-0.6
		l-1.6,0.3l0.4-1.7l-0.8-1.2l-2.9-1.3l0.1-1.3l-1.8-0.5l-0.1-0.7l-2.6-0.6l-1.1-2.4l-2-1.9l-2.4,2l-0.5-1L209,132l0.7-1.9l-1-1.5
		l1.3-1l-1-0.8l1-2.6l-2.5-1.1l-0.7,0.8l-0.8-0.2l0.4-2l-1.1-11.8l11.1-16.5l0,0l2.7,1.7l-1.3,1.1l0.8,1.5l-2.2,4h2.2l2.1,1
		l-0.6,1.1l1.5,0.9l1.5-1.7l0.5,1.1l1.9-2.7l0.4,1.2l1.6-0.9l1.9,1.8l1.6,0.2l2.5-3.4l-0.1-3.6l1.6,0.2l-0.6-2.4l2.4-2.8l0.9-4.9
		l2.4,0.2v-1.4l0.1,0.8l2.5,1.3l-0.4-1l0.7-1.5l1.3-0.2l-0.4-2.8l3.6,0.2l2.7-2.3l2.1-0.3l1.9,0.6l0.5,2.8l4.2,0.3l0.9-1.9l-1.1-2
		l0.7-0.8l-0.7-0.7l2.1-0.6l-0.9-1.5v-2l2.7-0.9l0.7,0.8l0.7-0.8l2.2,0.2l4.2-1.5l1.7-3.9l1.1,0.4l0.6-1.6l-2.4-2.2l0.8-2l-1.2-0.6
		l-0.6,0.4l-0.4-1.9l-2.2,0.5l-0.8-0.7l0.7-1.9l-0.6-1.4L264,55l2.4-1.4l0.8,0.7l0.3-3.7l2.3-2.7l-0.6-1.4l-3.1-0.4l0.1-1.7l4.9-2.5
		l1.6,0.3l1.2-1.2l1.2-0.1l0.6,0.8l2.5-3.9l-0.2-1.5l1.5-2.7l-0.3-2.3l3.9,3.1l0.8-0.3l1.5,1l0.1,2.3l3.3-2.7l1.2,0.8l3-0.9l0.8,0.9
		l1.3-0.1l0.5-0.5l-0.4-1.3l0.9,0.2l1.7-1.9l2.5-0.9l0,0L301.6,31z"/>
</g>
</svg>
