<?xml version="1.0" encoding="utf-8"?>
<!-- Generator: Adobe Illustrator 21.0.2, SVG Export Plug-In . SVG Version: 6.00 Build 0)  -->
<svg version="1.1" id="Layer_1" xmlns:amcharts="http://amcharts.com/ammap"
	 xmlns="http://www.w3.org/2000/svg" xmlns:xlink="http://www.w3.org/1999/xlink" x="0px" y="0px" viewBox="0 0 800 800"
	 style="enable-background:new 0 0 800 800;" xml:space="preserve">
<style type="text/css">
	.st0{opacity:0.8;}
	.st1{fill:#FFAA00;stroke:#FFAA00;stroke-width:0.5;}
</style>
<defs>
	
	
		<amcharts:ammap  bottomLatitude="43.7247427" leftLongitude="7.3991049" projection="mercator" rightLongitude="7.4398113" topLatitude="43.7519029">
		</amcharts:ammap>
</defs>
<g class="st0">
	<path id="MC" class="st1" d="M629.3,13.5l-0.5,0.4l-2,8.3l0.1,0.7l2.3,2l0.1,0.6l0.1,0.4l2.2,1.6l2,1.6h1.4l2.7,2.5l2.8,0.9
		l2.7,1.1l-32.7,33.9l-8.5,0.9l-6.4,0.9l-7.3,1.4l-1.9,0.3l-3.2,1.4l-6.9,3.4l-7.2,3.4l-0.9,0.4l-4,1.9l-3.7,0.9l-1.2,0.2l-2.6,0.7
		l-4.2,1.2L539.8,88l-1.4,0.2l-1.6,1.5l-1.6,1.9l-3,4.4l-0.5,0.2l-1.1,1.2l-0.9,1l-1.6,0.7l-2,0.3l-1.7,0.2l-0.6-0.1l-1.2-0.3
		l-3.7-2.2l-0.5-0.2l-1.3-0.1l-0.9,0.5l-2.7,0.4l-1.5,0.2l-3-0.2l-2.7-0.3l-0.9-0.5l-0.2-0.3l-0.6-0.8l-0.4-0.9l-1.3-0.1l-0.2,1.2
		l-0.1,1.3l-0.1,4.3l-1.6,2.3l-0.8,1.2l-0.4,1.4l-0.9,7.2v2.7l-0.1,0.6l-1,0.3l-11.7,4.3l-0.2,0.5l-10.3,33.1l-0.5,1.1l-7.2,5.1
		l-2.3,2l-0.1,0.2l-0.5,2.3l-0.4,2l-2,6.9l-0.8,3.7l0.1,3.7l-0.7,4.2l0.2,3.4l0.6,1.9l1.2,2.2v1.1l-1.2,4.3l0.2,3l-1.2,2l-0.7,2.9
		l-2.8,2.6l-2,4.4l-3,5.1l-0.6,2v11.5l-1,4.1l-2.6,4.1l-1.1,0.8l-4.4,5.3l-4.8,4.6l-5.9,3.7l-2.1,2l-1.4,2l-3.2,6l-0.4,1.4l-0.5,1.4
		l-0.5,3.7l-0.9,1.7l-7.6,8.8l-3.1,2.9l-1.3,1.7l-1.9,5.1l-2.3,3l-2.7,3.4l-3.9,1.6l-1.9,1.7l-1.8,4.4l-0.6,0.7l-1,0.6l-2-1.7
		l-3.6-2.8l-10.2,20.5l-4.1-3l-12.6-9.8l-5.3-4l-2.3-1.6l-5.7-4.4l-1-1l-12.5,9.6l-2.7-1.4l-3,3.5l-2.7,4.6l-1.6,0.2l-2.4,5.8
		l-1.3,3l-1.6,2.8l2.4,2.2l-1.6,2l-17.7,21.3l-2.6,2.7l-1.2-1.2l-6.6,5.3l-5.4,3.9l-0.5,0.5l-3.6,3.2l-6,5l-6.6,6l-5.9,5.4
		l-24.8,22.5l-0.3,0.2l-15.1,13.5L206,434.6l-4.9,4.2l-7.4,5.9l-1.1,0.9l-1,0.9l-5.5,4.4l-1.9,1.5l-8.4,9.1l-8,8.6l-5.5,5.1
		l-18.4,16.6l-4.1,3.8l-0.9,0.6l0.1,1.5l-0.2,1l-0.3,0.7l-1.2,1.6l-2,1.4l-2.6,1.8l-1.2,1.2l2.9,3.3l2.7,2.9l1,0.8l1.1,0.9l1.6,1.2
		l1.3,1.6v0.2l-1.7,3.4l-0.2,1.7l-0.2,1.4l-0.2,1.9l-0.6,5.5l1,3l2.7,4l3,3.6l1,1.9l0.5,1.3l0.5,3.8l-0.3,1.2l-0.9,4.6l-0.4,1.3
		l-0.2,0.8l-0.1,1.5l-0.3,2.2l-0.3,4l-0.1,1.8l-0.7,10.1l-0.4,1.4l-0.5,3l-0.9,0.8l-1.1-0.2l-0.4,0.2l-1.5,0.5l-0.9,0.4l0.1,0.6
		l-0.3,0.2l-2.7,0.9l-1.4,0.3L133,583l-1.2-0.3l-1.4-0.3l-1.5-0.3l-1.5-0.3l-1.3-0.2l-1.4-0.1l-1.4,0.1l-2,0.2l-1.4,0.5l-2.5,0.9
		l-2.7,1l-2.1,1.1l-2.3,2.7l-2.4,1.2l-3.7,2.2l-0.9,0.8l-1.2,0.9l-1.2,0.8l-1.2,0.8l-1.6,0.9l-2,0.6l-0.9,1.5v0.1l-0.9,1l-0.5,0.7
		L93,600l-1.4,0.6l-2.5,1.4l-2,2.3l-1.9,2.3l-5.5,10l-0.7,2.7l-1.7,2.6l-1.6,2.2l-2,2l-1,0.3l-1.1,1.3l-1.2,2.8l-0.9,1.2l-0.2,1.1
		l-1,3.1l-2,2.2l-0.5,0.9l7.9,5.1l0.6,0.4l4.5,3l6.4,4.2l3.8,2.6L90,655l2,1.4l1.3,0.8l0.8,0.5l0.9,0.6l3.2,2.1l10.8,7.6l2.2,1.6
		l3.7,2.7l3,2.1l6.4,4.5l2,1.6l5.9,4.3l2.5,2l17,12.6l10.8,7.6l36,24.7l26.7,19l16,11.5l6.5,4.5l4.5,3.1l5.2,4l0,0l0.1-0.1l14-14.1
		l1.5,1.6l1.7,0.3l0.5-0.2l1.6-1.6l0.2-0.6l-0.2-1.6l-1.6-1.6l21.5-21.6l1.2,1.2l1.7,0.3l0.5-0.2l1.6-1.6l0.2-0.7l-0.3-1.7l-1.2-1.2
		l7-6.9l31.6-20.8l0.2,0.2l23.8-15.6l4.7-3l-3-4.6l-3.2,2.1l-1.8,0.6l-2,1l-3.9,2.3l-0.3-0.3l-1.4,1.1l-1.2,0.8l-0.8,0.5l-0.6,0.5
		l-1.3,0.8l-2.8,1.9l0.8,1l-0.6,0.4l-0.2-0.4l-1.2,0.9l-1.5-1.7l-2,1.5l0.9,1.8l-3.7,2.4l-2.1-0.8l-2.6-1.7l-3.7-3.2l-3-2.4
		l-4.1-5.1l-1.7-3.2l-1.6-3.5l-2.8-8l0.8-3.2h2l-0.5-6.3l-0.7-0.1l-1.1,0.1v1.4h-0.4l0.1,0.9l-13.3,0.9l-29.7,2l-0.9-12.3l-12.3,0.7
		l-1.9-26.2l11.2-1.6l-0.3-2.1l-28,3.8l-1-2.3l-1.1,0.6l0.1-1.6l0.5-0.2l-0.9-1.9l-1.4-3l13.9-12.6l2.5-2.3l2.4-1.9l0.6-0.6l5.5,5.8
		l0.5-0.5l-4.7-5l0.6-0.5l0.9,0.8l1.2-1.1l2.8,1.3l1.6-0.4l1.8,0.6l0.4,1.2l2.8,1l1-0.6l1.6,0.5l0.7,0.9l1.5,0.9l1.5-0.5l1.6,1.8
		l2.8,4.1l2.3,0.8l1.8,2.9l1.8,4.8l1.2-0.2l1,1.4l0.3,3.3l2.7,2.6l2.3,3.4l3.1,0.5l3.6-1.2l1.9,0.4l1.5-3l1.5,0.3l0.9-2.3l1.7-0.5
		l1.2,0.2l1.3-1.3l-0.2-0.9l1.6-1.6l5.7,0.5l2.7,0.9l1.6,2.8l0.5,2l1,4.1l3.4,8.1l4.7,3.4l2.2-2.4l2.3-0.3l2.8,1.8l-0.2,5.4
		l-0.9,22.5l6,0.3l0.1-3.8l-1.4-0.2l0.9-22.5l1.4,0.2l0.2,0.3l2.7-0.2l0.2,0.2l1.2,0.1l0.4-0.2l0.2-0.2h1l0.4-0.2l0.6-0.1L352,644
		l0.2,0.2l0.5-0.4l0.4-0.2l0.8,0.2l0.3-0.2h0.4l0.7,0.3l0.3-0.2h0.3l0.1,0.6l0.2,0.3l0.5,0.1l0.6-0.2l0.5-0.5h0.4l0.5-0.1l0.8-0.4
		l0.7-0.2l0.5,0.2l0.2-0.1l0.5,0.1l0.3-0.2l0.3,0.1l3-0.1l0.5,0.2h0.7l0.9,0.9l0.9,0.2h0.3l0.2-0.2l0.3-0.6l0.6-0.2l1.4-0.3l1,0.2
		l1-0.2l1.2-1.2l0.5-0.9l0.3-1l1.6-1.7l1.2-2l1.6-1.8l1.2-1.4l2,0.2l1.6-0.9h1.7l1.6-0.1l0.9-1.1v-2l0.3-3.5l3.2-2.1l1.7-2.5
		l3.1-2.7l2.3-1l2.3-2.1l4.8-1.5l0.8-1.2l2.4-2.5l2-2.2l0.8,0.9l2.4,1.2l3.5,0.9l3.1,0.9l2.6,0.2l1.6-1l8.4-8.9l4.8-6.3l3.4-3.7
		l-0.4-2.6l1.6-7.7l0.4-1.8l0.5,0.1l1.5-1.2l-0.1-0.7l-0.2-0.5l0.1-1.4l3.4-3.7l1.2-2.2l0.2-0.6l0.6-0.6l1.8-0.7h1.1l0.8,0.2
		l0.7-0.3l-0.1-0.4l-0.9-0.2l-0.5-0.5l-0.3-0.9l0.5-0.9l-0.3-0.7l-1-0.3l-0.2-1l0.3-0.5l1.2-1.4l-0.2-0.3l-1.2-0.9l0.2-2l0.9-1.2
		l0.8-9.2l2.5-3.1l5.6-7l8.7-10.4l7.3-8.8l-2.5-2l0.2-0.5l12.9-16.1l13.9-16.8l28.8-36.1l-5.4-4.1L470,512l-2.9-2.3l-10.2,1.7
		l-8.1-6.6l-3-2.4l-1.4-6.6l-1.2-6.2l-2.6-2.3l-5.8,1.1l-1.2,2.8l-0.5,0.3l0.4,2.1l0.8,4.3h0.3l1-0.3l1.5-0.3l0.2,0.4l2.9,15.4
		l0.5,2.4l0.4,1.6l-2.7,0.4l0.2,1.2l2.7-0.5l0.2,2l1.2,5.7l-7.5,2l-8.7,2.5l-8.4,2.6l-11.3,3.1l-0.9-0.2l-2.8,0.9l0.1,0.3l-4.8,1.3
		l-4.1,1.5l-14.2,4.1l-5.5-18.1l4-1.4l0.9-0.8l-0.4-1.2l-1.5-0.8l-9.1,2.7l-0.9,1.3l0.2,1.2l1.4,0.5l3.5-1.2l5.5,18.2l-4.1,1.2
		l-3.9,1.1l-7.2,2l-4-14.4l-1.3,0.3l3.4,12.3l-3.7,1.1h-0.3l-0.2-0.5l-1.9-6.6l-2.2-0.9l-1.6-1.1l-1.3-0.9l-1.6-1.4l-1.4-1.4
		l-2.3-3.3l-1.5-2.8l-1.2-3.3l-1.4-7.4l-1-5.1l0.5-3.5l-0.6-3.2l-1.3-6.6h0.5l3-0.6l2.8,14.4l1.4-0.2l-2.8-14.3l0.1-0.2l9.8-1.9
		l3.3,15.4l1.2-0.4l1.3-0.1l-7-36.7l-1.3,0.2l-1.3,0.3l2.7,14.4l-0.5,0.2l0.2,1l-9.4,1.9l-2.7-14.4l-1.3,0.3l2.8,14.4l-4.2,0.9
		l-3.8-19.3l-1.7-2.3l-2.5-1l-3,0.2l-0.2-5.4l0.2-5l0.3-2.7l0.5-2.6l1.2-4.8l1-3l1.5-3.1l1-2.1l2.3-4.1l53.7-7.9l3.5,2.5l10.8-1.4
		l0.1,0.6l-0.5,0.1l-0.1,0.1l2.2,16.1l1.6-0.2l-2.3-16.1l-0.4,0.1v-0.7l0.3-0.1l-0.4-3l21.6-2.9l6.2,31.1l-3,0.5l1.2,5.9l2.7,2.7
		l6-1.2l1.2-3.2l-0.9-4.8l-3.2-16l-2.7-13.7l18.8-5.1l9.1-2.7l7.5-2.2l4.8-1.4l3.4,8.3l3.5,8.8l3.4,8.4l3.2,8l0.3,0.2l4.8-1.9
		l0.9-1.2L477.3,414l1.6-0.6l1.6-2l-0.9-0.8l1.6-1.9l0.9,0.1v-0.6l0.9,0.2l9-12.6l-3.8-9.2l8.7-11.2l-2.1-4.4l6-7.4l-2.3-4.3
		l4.4-5.8l-2.1-4.3l2.7-3.7l-4.1-7.9l-1.5-0.2l-0.2-0.3l2.1-15.9l0.1-0.6l1.2-0.6l1.2-0.2l0.9-0.8v-0.9l-0.5-1.2l0.2-2.2l1.1-1.7
		l1.9-4.9l10.9-21.1l5.9-10.9l7.1-10.1l6.2-7.4l3-4l1.1-1.5l1.2-2.7l1.6-4.4l0.3-4.9l0.4-5.6l-0.7-4.8l-0.5-1.2l-0.2-1.1l0.2-0.9
		l1.2-1.3l0.7-1.2l1-1.2l1.3-1l1.4-0.9l2.3-0.9l2.8-0.7l1.6-0.9l0.9-0.6l0.7-0.9l1.9-3.1l2.2-3.1l-0.5-1.2l-0.6-0.5l-1.4-0.9
		l-0.7-0.2l-0.5,0.4l-0.4,0.5v0.4L556,210l0.3,0.5l0.2-0.1l0.7,0.5l-4.1,4.8l-4,0.3l-2.4-3.9l-1.7-5l0.2-5.6l1.1-6.1l2.4-5.9l2-2.9
		l2.5-2.3l2.4-1.8l2.3-1.2l5.1-1.7l6.5-2.3l7,9l0.9-0.9l-8-9.9l1.1-0.5l0.7-0.9l0.9-3.3l2.3-4.3l1.4-2.2l1.9-2.1l1.7-1.6l2-1.4
		l1.8-1.5l2.3-1.2l2.9-0.9l5.1-1l4.2-0.1l3.7,0.5l4.1,1.2l3.7,2.5l2.2,1.2l-2.7,5.3l-5,3.4l-1-1.3l-0.7-0.2l-0.6,0.3l-0.5,0.8
		l-0.1,0.8l1,1.8l0.9,0.6l1.9-0.2l2.1-0.9l2.8-1.7l1.4-1.5l1.4-2.5l0.9-2.4l0.5-1.4l0.9-1.9l2.9-2.7l2.2-2l0.2-0.6l-0.3-1.1
		l-0.4-0.7l-1-0.2h-0.9l-0.9,0.8l0.9,1.2l-3.8,3l-5.4-6.7l1.8-6.2l1.3-3.1l1.6-3l2.3-2.2l3.3-1.6l3.5-0.8l1.4-0.1l1.5,0.4l9.4,17.8
		l3.6,5.7l4.1,6.8l3.2,4.2l4.1,3.2l4.3,1.6l3.8,0.9l5,0.4l3.4-0.3l4.3-0.9l6.2-2l4.1-1.6l3.9-2.6l3.9-3.4l1.1-3.7l-1.2-5.1l-1.6-7.9
		l-1.3-3l-1-3.3l-4.8-23.4l3.3-0.7l-1.4-6.6l-1.5,0.2l-2-9.3l1.6-0.3l-1.2-6.6l-3.7,0.7l-1.3-4.2l-14-6.3l-0.7-3l-0.2-0.7l0.5-1.8
		l1.3-2.3l1.6-2.5l1-1.1l0.9-1.7l0.2-1.1l-0.2-1l-0.9-4.3l0.3-2.6l-0.2-0.6l-1.1-1.2l-1.2-2.5l-0.5-2.7l0.1-1.4l0.5-1.9l3.4-6.7
		l0.7-3l0.4-8l-0.2-1.3l-0.5-1.2l-1.3-1.4l-14.1-10.9l-3.9-2.1l-1.2-0.2l-4.4,0.3l-1.5-0.3l-3.9-2l-3-1.1L629.3,13.5z"/>
</g>
</svg>
