<?xml version="1.0" encoding="utf-8"?>
<!-- Generator: Adobe Illustrator 21.0.2, SVG Export Plug-In . SVG Version: 6.00 Build 0)  -->
<svg version="1.1" id="Layer_1" xmlns:amcharts="http://amcharts.com/ammap"
	 xmlns="http://www.w3.org/2000/svg" xmlns:xlink="http://www.w3.org/1999/xlink" x="0px" y="0px" viewBox="0 0 800 404"
	 style="enable-background:new 0 0 800 404;" xml:space="preserve">
<style type="text/css">
	.st0{opacity:0.8;}
	.st1{fill:#FFAA00;stroke:#FFAA00;stroke-width:0.5;}
</style>
<defs>
	
	
		<amcharts:ammap  bottomLatitude="32.400528" leftLongitude="-31.270171" projection="mercator" rightLongitude="-6.187163" topLatitude="42.155925">
		</amcharts:ammap>
</defs>
<g class="st0">
	<path id="PT-01" class="st1" d="M714.5,57.3l1.2-0.4l0.1,0.7l1.4-0.3l0.9-1l0.4,1l0.7,0.2l0.1-0.5l0.8-0.3l-0.8-0.4l0.2-0.6
		l0.9,0.4l0.2-0.5l0.6,1.3l1.3,0.9l0.2-0.9l-0.5-0.4l0.1-0.8l1.6,0.5l1.7-1.6l1,0.6l0,0l0.8,0.3l0.2,1.3l-0.3,0.1l0.2,0.6l1,0.1
		l-0.3,0.7l0.6-0.2l1.9,0.8l1.1-1.4l0.2,0.2l0.1,0.9l-1.4,1.6l0.2,2.1l0.8,1.3l-0.8,0.8l-1.2-0.7l-0.7,0.8l-1.3-0.8l-0.8,0.4
		l0.6,1.3l-1.1,2.9l-1.9,0.7l0.2,1.2l0.9,0.8l0.1,2.4l1.5,0.8l-2,0.8l0.7,2.4l1.1,1.2l-2.7,1l0.6,1.9l-1.2,1.3v1.7l0,0v0.8l-0.5,0.2
		l-0.9-0.4l-0.1,1.2l-1.2,0.3l-0.2,1.6l-1.1-0.5l-1.1,0.1l-0.2-1h1.4l0.1-2.9l-0.7-0.6V82l-2.1,0.9l-0.1-2.7l-0.3-0.6l-1-0.3
		l-0.5,0.8l-0.1,1.6l-0.9-0.1l0,0l-1.2-1.3l0,0l-2.6-2.5l0,0l1-4.2l0.1-0.7l-0.4-0.1l2.6-8.6L714.5,57.3z"/>
	<path id="PT-02" class="st1" d="M729.6,167.5l0.4-0.4l0.7,0.7l2.4-0.6l1.4,1.2l0.9-0.8l4.5,2.7l2.5,0.2l2.8,1.9l1.1-0.4l1.4,0.2
		l0.7,0.6h2.2l0.1-0.7l1-0.4l0,0l0.8-1l0,0l0.2-0.7l0.7-0.3l0.4-0.9l-0.3-0.3h1.6l0.6-0.9l1.6-0.4l1.4,2.7l1.7,0.7l-0.3,0.9l1.2,2.6
		l0.3,0.1l-0.1-0.7l0.7,0.1l0,0l0.7-0.7l0,0l0,0l0,0l0.7,0.8l0.6-0.7l0.2,0.4l1-0.2l0.5-0.9l1-0.3l0.3,0.4l1.1-0.7l0.1,0.7l-1.1,1.4
		l0.5,0.5l-0.6,1.7l-0.5,0.3l-0.5,3.2l-1.4,0.3l-1.6-1.2l-0.9,0.6l0.2,1l-1.7,0.5l-0.9-0.4l-1.9,0.9l0.5,1l-0.2,1.3l-0.9,1v1.1
		l-1.3,2.1l-2.3,2.1L753,190l-0.8,2.4l0.1,1.3l-0.4,0.1v0.6l-0.4-0.1L751,196h-0.5l-0.1,1.9h-0.5l0.3,1.2l0,0l-2-0.1l-1.4,1.5
		L745,200l-2.5,1l-0.4-0.3l0.1,0.3l-1.5,0.9l-0.3-0.2l-0.3,0.5h-0.6l-0.1,0.5l-1.1,0.1v0.8l-0.4-0.1l-0.2,0.5l-0.5-0.4l-0.5,0.4
		l-1.3-0.1l-0.8,1.2l0.5,0.6l-1.2,0.3l-1.2,1.4l-3.9-0.9l-1.9-1.7l-0.8-0.1l0.3-0.8l-0.4-0.7l-1.3-0.5l-0.3,0.6l-0.2-0.4l-2.6,0.5
		l-0.1,1l-0.9,0.7l-2-0.1l-1.7-1.3l-1.5,0.4l-0.7,1l-0.8-1l-2.2,0.2l-0.5-1.5l-1.5-0.4l0,0l0.3-3.6l-1.1-2.6l1.1-4.6l-0.8-1.4
		l0.6-2.8l0,0l0.5,0.6l1.3-0.4l1.6,2.4l0.7-0.6l1.4,0.8l0.3-0.4l0.6,0.1l0.1-1.7l0.5-0.8l0.5,0.1l-0.1-1.2l0.4-0.2l3.1-0.3l0.2-0.4
		l3.3,1l-0.1-0.8l1.1-1.3l-0.3-0.5l0.5-3.3l-0.8-1.3l-1.4,0.2l-1.4-2l0.7-1.7l0.8,0.5l0.2-1.4l0.5-0.1l0.2-0.6l0.7,0.7h0.6l0.2-1.9
		l1.4,0.3l0.6-0.9l2.9-0.9v-1.7L729.6,167.5z"/>
	<path id="PT-03" class="st1" d="M733.2,23.6l-0.3,2.5l-0.8,2l-1,1l2.6-0.5l1.5,0.7l-0.3,3.4l3.7,0.6l1-1.1l1.3,1.8l-0.3,0.7
		l-0.6,0.1l0.1,0.7l-0.9,0.5l0.1,0.5l-1-0.1l-0.3,1l-1.1,0.5l-0.1,2l-1.3,1.5l0.4,0.1l-0.2,0.7l0,0l-0.5,1.2l-1.3,1.2l-1.1-1
		l-0.7,0.6l-1-0.6l-0.8-0.7l0.2-0.7l-0.6-0.1l-0.2-0.8l-1.5-0.5l-0.3,0.8h-0.8l-1,1l-0.3,1.2l-0.9-0.4l-0.3-1.1l-2.2,0.6l0.3-0.8
		l-0.5-0.1l-1,0.9l-0.8-0.5l-1.4,0.3l-0.5,0.9l-2.9,0.2l0,0l-0.4-1.8l0.4-0.4l0,0l0.6-0.4l-0.5-0.5l-1.4-0.3l-0.6-1.1l-1,0.1
		l-1.4-1.1l-0.9-0.1l0,0l-1.1-5.9l0,0l1.7-0.1l1.9-1.1l1-0.1l0.4,0.5l0.2-1l1.2,0.9l0.9-0.4l0.5,0.8l0.7-0.3l-0.2-1.4l0.8-0.7l0.1-2
		l0.5-0.5l0.5-0.1v0.5l0.8-0.2l1.2-1l1.6-0.6l0.8,0.4l1.4-0.1l0.4-0.8l0.7,0.4l2.4-1.7l0.9,0.2l0.1-0.4l0,0l2.2,0.4L733.2,23.6z"/>
	<path id="PT-04" class="st1" d="M772.7,16.4l1,0.2l0.6,1.7l0.8,0.3l3.3-0.1l1.1-1.2l1.2,1l-0.7,2.6l1.8,0.5l-0.9,3.9l-0.8,1.5
		l0.4,0.3l0.5,2.4l1.3,1l1.3-0.4l0.4-0.8l4.5,1l1.5,1.2l0.6,1.1l1.1,0.5l0.4,0.8l-1.5,2.2l-0.7,0.3l0.2,0.6l-0.5,0.1l0.1,0.5
		l-0.7,0.3l-0.7,1.2l0.2,0.9l-1,0.8l0.5,1l-1.1,0.3l-0.4-0.6l-0.7,0.4l-0.1,0.6l0.5,0.4l-1.2,0.5l-0.7,1.8l-1.6,0.6l0.3,0.7
		l-0.6,0.4l-0.8-0.4l-1.5,1.5l-0.6-0.7l-0.3,0.5l-1.5-0.2l-1.4,1.6l-0.6,1.5l-1.9,1.6l0.4,1.3l-1.7,2.8l-1.9,0.4l-1.5-0.5l-0.5,0.4
		l0,0l-1.2-0.3l-0.7,0.5l-0.2-0.5l-1.4-0.3l-0.5-0.8l-1.4-0.7v-1l0.6-0.9l-1.5-0.5l0.5-0.6l-0.1-1.2l-1.5,2.2l-2.7-0.8l-1.7,0.2l0,0
		l-1.7-0.4l-1-2l-1.3-0.6l0,0l0.6-1.6l0.8,0.2L754,46l0.9-0.8l-0.4-0.4l0.6-0.7l1.3-0.3l-1.5-1.1l0.3-0.5l-0.5-1.6l0,0v-1.1l0,0
		l2.1-1l-0.1-1l0.6-1.2L759,36l-0.9-1.7v-1.2l1.6-5.1l1.2-1.4v-1.1l-0.7-0.5l0,0l-0.5-1.3l0,0l0.3-2.8l0,0l0.9-1.7l-0.5-1l0.1-1.3
		l1.4-0.8l1.7,0.7l0.5,1h2.1l0.8-1l0.7,0.2l0.4,1l1.6,0.2l2.2-0.3l0.3-2L772.7,16.4z"/>
	<path id="PT-05" class="st1" d="M741.7,89.9l1.5-0.3l0.8-1l1.7-0.5l1.2-1.1l0.3-1l0.9,0.5l1.4-0.3l0.7-2.1l0.9-1.1l0.8-0.3l0.5,0.6
		l0.7-0.2l1,0.5l1.1-0.5l0.5,0.4l0.5-1.2l0.7,0.3l0.4-0.5l0.7,0.3l-0.1,2.5l-1,1.8l-0.8,0.4l0.4,0.5l2.5,0.9l0.9-1.1l1.6,0.7
		l0.8-0.6l0.2-1.2l0.6-0.5l0.9,1.9h1.7l0.5-0.5l2,1.4l0,0l-0.4,0.8l-1.6,0.5l-0.5,1.6l0.4,0.4l-0.2,1.3l0.9,1.3h1.7l0.8,1.9l0.8,0.2
		l0.9,2l-0.7,1.3l0.1,1.6l-0.7,0.7l0.1,2.2l-1.4,1.8l-1.2,0.7l0.3,1.5l-1.2,4.2l-4.3,0.7l-3.2-0.6l-2.6,1.1l-3.8-0.9l-2.7-0.1l0,0
		l-1.3,0.2l-1.7,1.4l-1.1-1.1l-1,0.5l-0.6,1.8l-1,0.2l-0.5,1l-1.7,1.1l0,0l0.5-1.4l0,0l-0.4-0.8l0,0l-1.3-2l-0.9-0.2l-0.7-1
		l-1.4,0.3l0.1-2.3l-0.5-1.2l-0.6,0.7l-0.5-0.6l-1-0.2l-0.5,0.5l-0.1,2.6l-0.6,0.5l0.7,1.7l-2.5,0.2l-3.2-1.4l0.2-4.4l-0.4-1.1
		l-0.7,0.4l-0.6-1.1l0,0l0,0l0,0l-0.2-0.5l0.7-0.4l-0.1-0.9l1.5-0.6l0.5,0.2l0.8-1.2l0.6,0.2l0.6-0.4l1-2l0,0l0.1-0.6l1,0.1
		l-0.1-0.8l0.6,0.4l0.3-0.6l0.7,0.4v-1l0.5,0.6l0.4-0.1l-0.3-0.7l0.5,0.5l0.6-0.4l0.4,0.5l0.3-1h1.6l-0.4-1.2l1.6-1l1.2,0.3l0.5,0.6
		l0.1-1.4l0,0l0.3-0.3H741l0,0l1-0.4l0.4,0.9l1-1.1l-0.3-0.3l0.6-0.2l-0.1-0.8l-1.9-1.5l-0.4-0.8L741.7,89.9z"/>
	<path id="PT-06" class="st1" d="M710,77.9l2.6,2.5l0,0l1.2,1.3l0,0l0.9,0.1l0.1-1.6l0.5-0.8l1,0.3l0.3,0.6l0.1,2.7l2.1-0.9V83
		l0.7,0.6l-0.1,2.9H718l0.2,1l1.1-0.1l1.1,0.5l0.2-1.6l1.2-0.3l0.1-1.2l0.9,0.4l0.5-0.2v-0.8l0,0l0.4-0.1l0.4,0.6l0.9-0.1l1.5,1.4
		l1.8-0.8l0.2,0.4l0.5-0.5l1.2,0.5l2.9-2.2l2.2-0.8l2.8-2.8l1.8-1.1l0,0v0.7l1,1l-0.4,0.7l-1.2,0.4l0.1,0.6l0.6,0.4l0.9-0.1
		l-0.2,2.3l1.5,0.7L742,86l-1.2,0.4l-0.7,1.7l1.4,1.5l0,0l-0.8,2l0.4,0.8l1.9,1.5l0.1,0.8l-0.6,0.2l0.3,0.3l-1,1.1l-0.4-0.9l-1,0.4
		l0,0h0.7l-0.3,0.3l0,0l-0.1,1.4l-0.5-0.6l-1.2-0.3l-1.6,1l0.4,1.2h-1.6l-0.3,1l-0.4-0.5l-0.6,0.4l-0.5-0.5l0.3,0.7l-0.4,0.1
		l-0.5-0.6v1l-0.7-0.4l-0.3,0.6l-0.6-0.4l0.1,0.8l-1-0.1l-0.1,0.6l0,0l-0.4-0.2l0.7-1.3l-1.5-2.1l0.4-2.1l-1.1-0.7l-1,1.5l-1-0.6
		l-1.1,0.9l-0.7,1.5l0.9,0.8L726,101l-1.1-1.2l-1.9,2.7l-1.1-0.3l0.9-1l-1.5-2.9l-0.3,0.4l0.3,0.8l-1-0.8l-1,1.3l-1,0.1l-0.5,1.5
		l-0.7-3.2h-0.9l-0.7,1.4l-0.9,0.1l0.1-0.8l-1.1-0.8l-2.9-0.5l-1.1,1.2l-1.2-0.7l-0.9,0.2l-0.8-0.9l0,0l1-3.8l-1.5-2.1l2-5.9
		L710,77.9z"/>
	<path id="PT-07" class="st1" d="M727.6,140.6l0.3,0.4l1.4-1.7l0.4,0.2l0.4-0.5l0.6,0.6l0.1-0.4h0.9l0.2,0.4l-0.7,0.4l0.5,1.4
		l0.5-0.3v-1.2l0.5-0.4l1.8,1.4l-0.3,1.6l1.1-0.1l2-1.2l0.9,1.8l0.6,0.2v0.7l2.7,0.5l0.1-0.5h1l0.6-1.2l1.1,1.1l0.5-0.7l1.5,0.7
		l1-1.7h1.2l0.7-0.6l-0.3-1l0.6-0.6l0.7,0.9l0.9-0.1l-0.1,0.5l1.1,0.5l-0.4,1.5l1.4,0.9l-0.1,1.1l0.7,1.1h-0.6l0.6,0.5l0.4,1.4
		l0.7-0.4l0.4,0.5l0.9-0.2l0.1-0.9l0.6-0.2l0,0l0.4-0.4l0,0l0.5,0.5l1.1-0.8l0.6,0.8l0.6-0.1l-0.8,2l0.9,1.3l0,0l-1.8,1.1l-0.4,3.4
		l0.9,0.6l-2.2,4.4l-0.2,1.4l0.7-0.2l0.1,0.5l-1.2,1.4l0.6-0.2l1.2,0.8l0.3,1l3.2,4.6l0.6,0.1l1.3,3.5l0,0l0,0l0,0l-0.7,0.7l0,0
		l-0.7-0.1l0.1,0.7l-0.3-0.1l-1.2-2.6l0.3-0.9l-1.7-0.7l-1.4-2.7l-1.6,0.4l-0.6,0.9h-1.6l0.3,0.3l-0.4,0.9l-0.7,0.3l-0.2,0.7l0,0
		l-0.8,1l0,0l-1,0.4l-0.1,0.7h-2.2L748,172l-1.4-0.2l-1.1,0.4l-2.8-1.9l-2.5-0.2l-4.5-2.7l-0.9,0.8l-1.4-1.2l-2.4,0.6l-0.7-0.7
		l-0.4,0.4l0,0l-1-0.9l-2.3-0.4l-0.2-0.7H725l1.2-1.6l-0.6-0.5l0.6-0.1l-0.2-0.5l-1,0.1l0.4-0.9l-1.9-3.5l-1.7,1l-0.7-0.3l-1,0.4
		l-0.9-1.2l-0.5,0.2l0.4,0.9l-0.7,0.3l-0.1-0.7l-1.3-0.1l-0.1-0.7l-2-0.1l-0.5-2.5l4.8-4.2l-0.3-0.8l0.6-1l-1.8-0.1l0,0l1.5-1.8
		l1,0.5l1.3-1.6l0.4-0.1l0.3,0.6l1-1.4l1.1,0.7l0.6-0.8l0.4,0.6l0.3-0.9l1.3,1l-0.2,0.3l0.5,0.7l0.9-0.4l0.8,0.9l-0.2,0.4l1-0.1
		l-0.1,0.5l1.1,0.6l0.5-1.2l-0.8-0.7l-0.3,0.5l-0.2-0.9l-0.7-0.4l0.9-1.2l-0.7-0.5l-0.8,0.2l-0.1-0.4l-2-0.9l0.9-1.2V141
		L727.6,140.6z"/>
	<path id="PT-08" class="st1" d="M740.3,219.8l0.5,0.1l-2,1.5l0.5-1L740.3,219.8z M736.6,219.7l2.3,1.7l-1.7-0.2l-1.7-1.2
		L736.6,219.7z M740.5,219l0.4,0.4l-1.6,0.5L740.5,219z M727.5,216.6l-2.1,0.4l-2.1-1.2l-2.2,0.6l-3.1-1.3l-2.5-0.2l-1.5,0.6
		l-0.1,1.1l-1.9-0.3l-1.9,0.9l-1.6,0.1l-0.8,0.7h-1l-1.7,1.9l-0.5-1.2l-1,0.1l3-5.6L706,212l0.7-0.4l1.1-2.5l-0.6-2.1l1-1.2l1.5-3.6
		l0,0l1.5,0.4l0.5,1.5l2.2-0.2l0.8,1l0.7-1l1.5-0.4l1.7,1.3l2,0.1l0.9-0.7l0.1-1l2.6-0.5l0.2,0.4l0.3-0.6l1.3,0.5l0.4,0.7l-0.3,0.8
		l0.8,0.1l1.9,1.7l3.9,0.9l1.2-1.4l1.2-0.3l-0.5-0.6l0.8-1.2l1.3,0.1l0.5-0.4l0.5,0.4l0.2-0.5l0.4,0.1v-0.8l1.1-0.1l0.1-0.5h0.6
		l0.3-0.5l0.3,0.3l1.5-0.9l-0.1-0.3l0.4,0.3l2.5-1l1.8,0.6l1.4-1.5l2,0.1l0,0l0.6,0.2l0.2,1l0.6,0.4l-0.2,0.7l0.7,2l-0.5,0.4
		l0.7,0.7v3.1l0.7,1.5l-0.4,0.9l0.6,1l0.2,2.1l-1.6-0.2l-3.2,1l-7.4,5.4l-1-0.5l-1.4,0.8v0.8l-0.5,0.1l-1.8-1.1l-1.3,0.2l-4-2.6
		l-2.3-0.8L727.5,216.6z"/>
	<path id="PT-09" class="st1" d="M753.2,61.2l1.2,0.9l-0.6,0.9l-1-0.6L753.2,61.2z M756.8,52.1l1.7-0.2l2.7,0.8l1.5-2.2l0.1,1.2
		l-0.5,0.6l1.5,0.5l-0.6,0.9v1l1.4,0.7l0.5,0.8l1.4,0.3l0.2,0.5l0.7-0.5l1.2,0.3l0,0l0.3,1.1l2,2.2l0.3,2l1.3,0.9l0.2,0.9v0.6
		l-0.8,0.2l0.3,1.8l-0.5,1.8l1.2,3.8l-1.6,3.9l1.4,0.6l0.2,1.6l-1.7,2.5l0.5,1.8l1.7,1.8l-0.4,1.5l-2.1,1.2l-0.3,1.5l-2.5,0.2l0,0
		l-2-1.3l-0.5,0.5h-1.7L763,86l-0.6,0.5l-0.2,1.2l-0.8,0.6l-1.6-0.7l-0.9,1.1l-2.5-0.9l-0.4-0.6l0.8-0.4l1-1.8l0.1-2.5l-0.7-0.3
		l-0.4,0.5l-0.7-0.3l-0.5,1.2l-0.5-0.4l-1.1,0.5l-1-0.5l-0.7,0.2l-0.5-0.6l-0.8,0.3l-0.9,1.1l-0.7,2.1l-1.4,0.3l-0.9-0.5l-0.3,1
		l-1.2,1.1l-1.7,0.5l-0.8,1l-1.5,0.3l0,0l-1.4-1.5l0.7-1.7l1.2-0.4l0.2-0.6L741,85l0.2-2.3l-0.9,0.1l-0.6-0.4l-0.1-0.6l1.2-0.4
		l0.4-0.8l-1-1v-0.7l0,0l5.1-2.5l2.7-0.6l-0.3-0.5l0.7-2.5l0.8-0.6l-0.3-0.7l0.5-0.6l-1.8-1l-0.2-0.6l0.8-0.9l-1.8-1.3l1.3-3
		l0.8-0.8l1.5,0.1l1.9,2.4l1.6-2.8l0.7,0.4l0.2-1.8l0,0l1.2-0.9l0,0l0.3-1.6l-1.7-0.8v-0.9h1.3l-0.3-1.3L756.8,52.1z"/>
	<path id="PT-10" class="st1" d="M713.1,116.6L713.1,116.6L713.1,116.6l0.5,0.6l-0.8,1.3l-0.6,0.5l-0.6-0.6l-0.4,0.3l0.5,2l-2.3-0.1
		l-3.2,0.7l-1.3,3.1l-0.7-0.1l-0.7,0.7l-0.1,3.2l0,0l-1,0.1l-0.4-0.7h-0.8L701,128l0,0l-1.2,1l0,0l-1.1,1.9l-1.1,0.7l-0.8-1.5
		l0.5-0.9l-0.4-1.4l-1.4-0.1l-0.3-0.5l-1.3,1.4l-1.4-0.3l0,0l-0.8-2.3l-1.4-0.4l0.4-0.4l1.6,0.3l3.3-2.5l0.9,0.8l-0.4,0.3h1.2
		l-0.5-0.1l-0.8-1.3l1.8-2.6l1.1-0.1l-0.3-0.7l2.2-2.7V116l-0.4-0.1l1.1-4.7l5-13.3l0,0l0.8,0.9l0.9-0.2l1.2,0.7l1.1-1.2l2.9,0.4
		l1.1,0.8v0.9l0.9-0.1l0.7-1.4h0.9l0.7,3.2l0.5-1.5l1-0.1l1-1.3l1,0.8l-0.3-0.8l0.3-0.4l1.5,2.9l-0.9,1l1.1,0.3l1.9-2.7l1.1,1.2
		l0.3-1.2l-0.9-0.8l0.7-1.5l1.1-0.9l1,0.6l1-1.6l1.1,0.7l-0.4,2.1l1.5,2.1l-0.7,1.3l0.4,0.2l0,0l-1,2l-0.6,0.4l-0.6-0.2l-0.8,1.2
		l-0.5-0.2l-1.5,0.6l0.1,0.9l-0.7,0.4l0.2,0.5l0,0l0,0l0,0l-1.5-0.3l0.1,1.7l-0.5-0.5l-1.1,0.9l-0.8-0.3l-1.5,1.2l-0.8-4.4l-0.9,0.9
		l-0.4-0.5l-0.7,1.1l-1.6,1l-1.3-0.5l-1.3,0.7l-0.1,1.1l0.5,0.9l-0.5,0.7l1.4,0.6l-0.5,1.4l-1.7,0.9L713.1,116.6z"/>
	<path id="PT-11" class="st1" d="M698.7,152l-2.2,0.5l-2-0.3l-1.3,1L691,152l-1.1,0.5l-1.9-0.8l0.5-1.7l-0.9-1.2l2.6-6.5l0.2,0.2
		l-0.5-2.6l0.2-2.9l2.4-5.2l0.1-3.6l0,0l1.4,0.3l1.3-1.4l0.3,0.5l1.4,0.1l0.4,1.4l-0.5,0.9l0.8,1.5l1.1-0.7l1.1-1.9l0,0l1.2-1l0,0
		l0.2-0.4h0.8l0.4,0.7l1-0.1l0,0l0.6,0.4l-0.2,1.5l0.6-0.2l1.6,0.8l1.2-0.6l0.4,0.8l0.9,0.3l0.2,1.5h-1.7l-1,0.6l1.4,1.8l2.2,1.3
		l0.5,1.5l-1.3,1.2h-1.2l0.6,0.5l-1.1,1.9l0.8,0.3l-1.3,0.7l-0.6,2.3l-1.8,2.5l0,0l-0.7-1l0.4-0.6l-0.5-0.7v-2.3l-0.8,2.1l-2,2.8
		l-0.6,3.5L698.7,152z"/>
	<path id="PT-12" class="st1" d="M749.4,113.2l1.2,2.9l1.2,0.7l1,1.6l1.2,0.2l0.3,1.6l0.6,0.4l0.5-0.3l1.7,1.3l-0.9,3.1l0.5,1.8
		l2.4,2.3l-0.5,1l0.2,1.8l1.1,0.9l2.3,0.6l-0.3,2.5l1.2,0.4l2.3-0.7l1.6,1.2l0.7,1.4l-0.3,0.6l0.5,0.6l-3.2,4.7l0.6,1.1l-0.2,0.6
		l-0.9,0.4l-0.9,1.6l-1.4,0.4l-2,2.2l0,0l-0.9-1.3l0.8-2l-0.6,0.1l-0.6-0.8l-1.1,0.8l-0.5-0.5l0,0l-0.4,0.4l0,0L756,147l0,1
		l-0.9,0.2l-0.4-0.5l-0.7,0.4l-0.4-1.4l-0.6-0.5h0.6l-0.7-1.1l0.1-1.1l-1.4-0.9l0.4-1.5l-1.1-0.5l0.1-0.5l-0.9,0.1l-0.7-0.9
		l-0.6,0.6l0.3,1l-0.7,0.6h-1.2l-1,1.7l-1.5-0.7l-0.5,0.7l-1.1-1.1l-0.6,1.2h-1l-0.1,0.5l-2.7-0.5v-0.7l-0.6-0.2l-0.9-1.8l-2,1.2
		l-1.1,0.1l0.3-1.6l-1.8-1.4l-0.5,0.4v1.2l-0.5,0.3l-0.5-1.4l0.7-0.4l-0.2-0.4h-0.9l-0.1,0.4L730,139l-0.4,0.5l-0.4-0.2l-1.4,1.7
		l-0.3-0.4l0,0v-0.7h-0.7l-0.6-1.9l-0.7-0.3v-0.9l-1.4-0.6l-0.3-0.6l1.4-2.2l1.9-0.7l1.7-1.5l1.1-1.3l-0.1-0.7l0.6-0.8l1.8,0.3
		l1.6-2.6l-0.1-0.9l1.9-0.8l0.9-1.1l-1.7-1.5l-0.5-1l1.7-3.7l3.3,2.2l0.8-1.1l0,0l1.7-1.1l0.5-1l1-0.2l0.6-1.8l1-0.5l1.1,1.1
		l1.7-1.4l1.3-0.2l0,0L749.4,113.2z"/>
	<path id="PT-13" class="st1" d="M713,50.9l-0.8-1.5l-0.7-5.4l-1.5-3.5l0.4-2.4l0,0l0.9,0.1l1.4,1.1l1-0.1l0.6,1.1l1.4,0.3l0.5,0.5
		l-0.6,0.4l0,0l-0.4,0.4l0.4,1.8l0,0l2.9-0.2l0.5-0.9l1.5-0.3l0.8,0.5l1-0.9l0.5,0.1l-0.3,0.8l2.2-0.6l0.3,1.1l0.9,0.4l0.3-1.2l1-1
		h0.8l0.3-0.8l1.5,0.5L730,42l0.6,0.1l-0.2,0.7l0.8,0.7l1,0.6l0.7-0.6l1.1,1l1.3-1.2l0.5-1.2l0,0v0.6l0.8,0.3l-0.5,1l1.8,1.1
		l-0.4,0.5l0.2,0.8l1.3,1.3l-1.2,5.1l0,0l-1.3-0.1l-3.2,1.4l-1.4-0.5l-1.2,0.7l-2.2-0.4l-1.9,1.2l0,0l-1-0.6l-1.7,1.6l-1.6-0.5
		l-0.1,0.8l0.5,0.4l-0.2,0.9l-1.3-0.9l-0.6-1.3l-0.2,0.5l-0.9-0.4l-0.2,0.6l0.8,0.4l-0.8,0.3l-0.1,0.5l-0.7-0.2l-0.4-1l-0.9,1
		l-1.4,0.3l-0.1-0.7l-1.2,0.4l0,0l-0.7-5.2L713,50.9z"/>
	<path id="PT-14" class="st1" d="M703.4,128.1l0.1-3.2l0.7-0.7l0.7,0.1l1.3-3.1l3.2-0.7l2.3,0.1l-0.5-2l0.4-0.3l0.6,0.6l1.4-1.7
		l-1-3.1l1.7-0.9l0.5-1.4l-1.4-0.6l0.5-0.7l-0.5-0.9l0.1-1.1l1.3-0.6l1.3,0.5l1.6-1l0.7-1.1l0.4,0.5l0.9-0.9l0.8,4.4l1.5-1.2
		l0.8,0.3l1.1-0.9l0.5,0.5l-0.1-1.7l1.5,0.3l0,0l0,0l0,0l0.6,1.1l0.7-0.4l0.4,1.1l-0.2,4.4l3.2,1.4l2.5-0.2l-0.7-1.7l0.6-0.5
		l0.1-2.6l0.5-0.5l1,0.2l0.5,0.6l0.6-0.7l0.5,1.2l-0.1,2.3l1.4-0.3l0.7,1l0.9,0.2l1.3,2l0,0l0.4,0.8l0,0l-0.5,1.4l0,0l-0.8,1.1
		l-3.3-2.2l-1.7,3.7l0.5,1l1.7,1.5l-0.9,1.1l-1.9,0.8l0.1,0.9l-1.7,2.6l-1.8-0.3l-0.6,0.8l0.1,0.7l-1.1,1.3l-1.7,1.5l-1.9,0.7
		l-1.4,2.2l0.3,0.6l1.4,0.6v0.9l0.7,0.3l0.6,1.9h0.7v0.7l0,0l-0.5,0.6v1.4l-0.9,1.2l2,0.9l0.1,0.4l0.8-0.2l0.7,0.5l-0.9,1.2l0.7,0.4
		l0.2,0.9l0.3-0.5l0.8,0.7l-0.5,1.2l-1.2-0.6l0.1-0.5l-1,0.1l0.2-0.4l-0.8-0.9l-0.9,0.5l-0.5-0.7l0.2-0.3l-1.3-1l-0.3,0.9l-0.3-0.6
		l-0.6,0.8l-1.1-0.7l-1,1.4l-0.3-0.6l-0.3,0.1l-1.3,1.6l-1-0.5l-1.5,1.8l0,0l-2.1-0.8l0.5-2.3l-1,0.4l-0.3,0.9l-2.2-1.5l-1.4,4.1
		l-1.2,0.4l-1.5-1.1l-1.7,0.8l-0.4-0.2L706,151l-0.6-1l0,0l-0.6-0.7l0.5-0.3l-0.1-0.8l-1.1-0.9l0,0l1.8-2.5l0.6-2.3l1.3-0.7
		l-0.8-0.3l1.1-1.9l-0.6-0.5h1.2l1.3-1.2l-0.5-1.5l-2.2-1.3l-1.4-1.8l1-0.6h1.7l-0.2-1.5l-0.9-0.3l-0.4-0.8l-1.2,0.6l-1.6-0.8
		l-0.6,0.2l0.2-1.5L703.4,128.1z"/>
	<path id="PT-15" class="st1" d="M710.2,163.4l3.4,0.1l-0.9-1H712v-3l-0.6-0.3l-0.1-1.5l-0.7,1.3l-0.8-0.6l0.2,1.1l-0.9,0.2l1.7,0.2
		l0.1,0.8l-0.8,0.6l-0.6,0.1l0.1-0.7l-3.3-1.4l-1,0.5l-0.2,0.8l-1.5,0.4l-1.5,1.3l-1.1,0.5l-1.4-0.3l-0.8,0.5h-1.1l-0.9,0.8
		l-0.8-0.2l1.3-3.7l1.2-0.7l-1.2,0.3l-0.9-3.6l-1.6-2.3l3.7-1v0.9l1.5,0.7l-0.8-0.1l0.7,1.3v-0.9l0.8-0.1l1,1.6l-0.5-1.8l-0.8-0.4
		l1.6-0.8l0.1,0.7l0.5-0.4l0.8,0.8l-0.5-1.3l1.3-0.7h-2l-0.5,0.4l0.1-1l2.6-1.7l1.2-0.1l0,0l0.6,1l0.1-0.4l0.4,0.2l1.7-0.8l1.5,1.1
		l1.2-0.4l1.4-4.1l2.2,1.5l0.3-0.9l1-0.4l-0.5,2.3l2.1,0.8l0,0l1.8,0.1l-0.6,1l0.3,0.8l-4.8,4.2l0.5,2.5l2,0.1l0.1,0.7l1.3,0.1
		l0.1,0.7l0.7-0.3l-0.4-1l0.5-0.2l0.9,1.2l1-0.4l0.7,0.3l1.7-1l1.9,3.5l-0.4,0.9l1-0.1l0.2,0.5l-0.6,0.1l0.6,0.5l-1.2,1.6h1.4
		l0.3,0.7l2.3,0.4l1,0.9l0,0l1.1,2.1v1.7l-2.9,0.9l-0.6,0.9l-1.4-0.3l-0.2,1.9h-0.7l-0.7-0.7l-0.1,0.6l-0.5,0.1l-0.2,1.4l-0.8-0.5
		l-0.7,1.7l1.5,2l1.4-0.2l0.8,1.3l-0.5,3.3l0.3,0.5l-1.1,1.3l0.1,0.8l-3.3-1l-0.2,0.4l-3.1,0.3l-0.4,0.2l0.1,1.2l-0.5-0.1l-0.6,0.8
		l-0.1,1.7l-0.6-0.1l-0.3,0.4l-1.4-0.8l-0.7,0.6l-1.6-2.5l-1.3,0.4l-0.5-0.6l0,0l-0.5-4.3l-1.4-0.3l-0.5-0.7l-0.7,0.1l1.6-2.8l1.6-5
		l0.4-3.7l-0.3-3.9l-1.3-3.4l-2.5-2.9l2.6,1.9l0.8,2.2l-0.3-2.1L710.2,163.4z"/>
	<path id="PT-16" class="st1" d="M728.8,9.9l0.3,3.3l2-0.7l0.7,0.4l0.4,1.9l-0.3,0.7l-1.1,0.3l-1.1,1l-1.7,2.9l0.5,1.7l1-0.1
		l0.1,2.5l0,0l-0.1,0.4l-0.9-0.2l-2.4,1.7l-0.7-0.4l-0.4,0.8l-1.4,0.1l-0.8-0.4l-1.6,0.6l-1.2,1l-0.8,0.2v-0.5L719,27l-0.5,0.5
		l-0.1,2l-0.8,0.7l0.2,1.4l-0.7,0.3l-0.5-0.8l-0.9,0.4l-1.2-0.9l-0.2,1l-0.4-0.5l-1,0.1l-1.9,1.1l-1.7,0.1l0,0l-0.5-2.5l-0.4-0.5
		l-0.1,0.4l-1.1-3.2l0.2-2l0.5-0.5l-0.5-0.4v-2.1l1.7-1.7l2-0.9l0.4-1.4l2.6-1.5l0.1-1.2l0.7-0.8l2.8-0.3l0.8-1.1l2.4-0.1l0.5,0.4
		l1.5-0.2l0.6-0.6l1,0.3l0.5-0.9l1.9-0.7l0.1-0.6l0.9,0.1l0.8-0.9L728.8,9.9z"/>
	<path id="PT-17" class="st1" d="M737.8,19l0.7,0.1l-0.2,2.7l0.6,0.6l1-0.9l-0.1-0.6l1.7-0.1l0.9-0.7l0.9,0.3l1-0.6l1.5,1.1h2.2
		l-0.8,2.2l2.8-0.5l0.6-1.2l1.6,0.2l0.3,1.1l0.6,0.4l-0.1,1l2-1.9l0.3,0.5l1.3-0.1l3.6-1.6l0,0l-0.3,2.8l0,0l0.5,1.3l0,0l0.7,0.5
		v1.1l-1.2,1.4l-1.6,5.1v1.2l0.9,1.7l-1.7,0.3l-0.6,1.2l0.1,1l-2.1,1l0,0v1.1l0,0l0.5,1.6l-0.3,0.5l1.5,1.1l-1.3,0.3l-0.6,0.7
		l0.4,0.4L754,46l0.1,1.7l-0.8-0.2l-0.6,1.6l0,0l-2.2,0.5l-0.7,0.8L749,50l-1.3,1.3l-2.4-0.3l-1.1,0.9l-3.1-0.8l-0.5,0.7l-1.9-0.5
		l-1.2,1.6l0,0l1.1-5.1l-1.3-1.3l-0.2-0.8l0.4-0.5l-1.8-1.1l0.5-1l-0.8-0.3v-0.6l0,0l0.2-0.7l-0.4-0.1l1.3-1.5l0.1-2l1.1-0.5l0.3-1
		l1,0.1l-0.1-0.5l0.9-0.5l-0.1-0.7l0.6-0.1l0.3-0.7l-1.3-1.8l-1,1.1l-3.7-0.6l0.3-3.4l-1.5-0.7l-2.6,0.5l1-1l0.8-2l0.3-2.5l0,0
		l1.2-0.4l1.2-1.9l1.7-0.1L737.8,19z"/>
	<path id="PT-18" class="st1" d="M752.8,49.2l1.3,0.6l1,2l1.7,0.4l0,0l-1.3,3.9l0.3,1.3h-1.3v0.9l1.7,0.8l-0.3,1.6l0,0l-1.2,0.9l0,0
		l-0.2,1.8l-0.7-0.4l-1.6,2.8l-1.9-2.4l-1.5-0.1l-0.8,0.8l-1.3,3l1.8,1.3l-0.8,0.9l0.2,0.6l1.8,1l-0.5,0.6l0.3,0.7l-0.8,0.6
		l-0.7,2.5l0.3,0.5l-2.7,0.6l-5.1,2.5l0,0l-1.8,1.1l-2.8,2.8l-2.2,0.8l-2.9,2.2l-1.2-0.5l-0.5,0.5l-0.2-0.4l-1.8,0.8l-1.5-1.4
		l-0.9,0.1l-0.4-0.6l-0.4,0.1l0,0v-1.7l1.2-1.3l-0.6-1.9l2.7-1l-1.1-1.2l-0.7-2.4l2-0.8l-1.5-0.8l-0.1-2.4l-0.9-0.8l-0.2-1.2
		l1.9-0.7l1.1-2.9l-0.6-1.3l0.8-0.4l1.3,0.8l0.7-0.8l1.2,0.7l0.8-0.8l-0.8-1.3l-0.2-2.1l1.4-1.6l-0.1-0.9l-0.2-0.2l-1.1,1.4L729,58
		l-0.6,0.2l0.3-0.7l-1-0.1l-0.2-0.6l0.3-0.1l-0.2-1.3l-0.8-0.3l0,0l1.9-1.2l2.2,0.4l1.2-0.7l1.4,0.5l3.2-1.4l1.3,0.1l0,0l1.2-1.6
		l1.9,0.5l0.5-0.7l3.1,0.9l1-0.9l2.3,0.3l1.3-1.3l0.8,0.4l0.7-0.8L752.8,49.2z M752.8,62.4l1,0.6l0.6-0.9l-1.2-0.9L752.8,62.4z"/>
	<path id="PT-20" class="st1" d="M195.1,219.3h0.1l0.1,0.2l0.2,0.1h0.3v-0.2h0.1l0.4,0.2l-0.1,0.3l0.1,0.2l-0.2,0.2l0.1,0.2l0.1,0.1
		l0.2,0.1l0.2,0.1v0.1l0.4,0.2l-0.1,0.1l0.1,0.2h0.2l0.1,0.2l0.1,0.1l-0.1,0.3v0.2l0.2,0.3l-0.1,0.3l0.1,0.2l-0.1,0.1V223h-0.2h-0.2
		h-0.5l-0.3-0.1l-0.4,0.1l-0.4-0.4v-0.2l-0.3-0.2l-0.4-0.1h-0.3l-0.3,0.3l-0.1-0.1l-0.4,0.3l-0.2-0.3l-0.1,0.1l-0.2,0.1l-0.3-0.2
		l-0.1-0.2l-0.1-0.7l-0.4-0.6l0.1-0.5h0.2l0.1-0.2l0.2-0.1l0.2,0.1l0.4-0.3v0.2l0.3,0.2l0.2-0.2l0.4,0.2l0.2-0.1v-0.3l0.2,0.1
		l0.2-0.1l0.1,0.1V219.3z M184.1,187.2l0.1-0.1v-0.2h0.1l0.1,0.1l-0.1,0.2l0.1,0.1l0.2-0.1l0.5-0.1l0.3-0.3l0.3,0.1l0.5-0.3h0.3
		l0.2-0.2h0.3l0.4-0.3l0.1-0.4l0.2-0.2l0.1,0.2l0.6,0.2h0.2l0.4-0.2h0.3l0.2-0.1l0.2,0.2l0.5,0.2h0.3l1.1-0.2l0.4,0.1h0.2l0.8,0.3
		l0.3,0.9l0.1,0.3l0.1,0.5l-0.2,0.3l-0.1,0.3l0.1,0.5l-0.1,0.4l-0.2,0.5l-0.4,0.4l-0.3,0.2h-0.6l-0.3,0.2h-0.2l-0.4-0.1l-0.8-0.4
		h-0.8l-0.6,0.3l-0.1,0.1l-0.4,0.1l-0.3,0.1l-0.2,0.2l-0.2-0.1l-0.8,0.1l-0.5,0.4l-0.7-0.1l-0.4,0.1l-0.3-0.1l-0.2,0.1l-0.3-0.1
		l-0.1,0.1l-0.4,0.1l-0.4-0.2h-0.2h-0.3l-0.3-0.1l-0.1,0.1h-0.3l-0.1,0.2l-0.3,0.1l-0.2-0.3l-0.4-0.1l-0.3-0.3l-0.8-0.5l-0.1-0.2
		l-0.6,0.1l-0.4-0.2l-0.4,0.1l-0.3-0.3h-0.4l-0.2,0.3l-0.4,0.1l-0.7,0.2l-0.4,0.2L176,191l-0.5-0.3l-0.2-0.3l-0.3-0.1l-0.2-0.4
		l-0.7-0.5l-0.5-0.3l-0.2-0.4l-0.2-0.1l-0.4-0.2l-0.6-0.4l-0.1-0.3l-0.6-0.4l-0.1-0.3l-0.4-0.7V186l0.2-0.2l0.1-0.3l0.1-0.3h0.3
		l0.2-0.3l-0.1-0.2l0.1-0.1l0.1-0.2l0.6,0.2l0.4-0.3l0.1-0.2h0.2l0.6,0.2l0.4,0.3l0.4,0.2l0.1,0.1l0.5,0.1l0.3,0.4l0.1,0.5l0.2,0.1
		l0.2,0.8l0.1,0.1h0.2l0.1,0.2l0.5,0.2h0.4l0.3,0.1l0.4-0.1l0.2,0.1l0,0l0.2,0.2l0.2,0.1l0.6,0.3l0.3-0.1l0.2-0.1l0.2,0.1h0.3
		l0.9-0.3l0.2-0.2l0.6-0.4l0.3-0.2l0.1-0.2h0.1l0.2,0.3l0.1,0.2l0.1,0.1l0.2,0.2l0.2-0.1l0.3,0.1l0.1-0.2h0.1l0.1,0.2l0.2,0.1
		L184.1,187.2z M90.1,157.8l0.8,0.1l0.3,0.2l0.4,0.1l0.8,0.5h0.2l0.2,0.1L93,159v0.1l0.2,0.1h0.2l0.2,0.2l0.1,0.3l0.2,0.3h0.4
		l0.4,0.3l0.4,0.1l0.4-0.1l0.3,0.5l0.3,0.1l0.1,0.1h0.4l0.2,0.2l0.3,0.5h0.3l0.3,0.3h0.8l0.1,0.1l0.3,0.1l1.6,0.2h0.2l0.5,0.1v0.2
		l0.7,0.4l0.2,0.3v0.4l-0.5,0.1h-0.3l-0.1,0.1H101l-0.1,0.1l-0.3-0.1l-0.1,0.2h-0.4l-0.8-0.3l-1-0.1l-0.2,0.1l-0.7-0.1l-0.3,0.1v0.1
		l-0.1,0.1l-0.2,0.2h-0.3l-0.7,0.4l-0.4,0.1l-0.3-0.2l-0.2-0.1v-0.3v-0.3l-0.5-0.3l-1,0.1l-0.9-0.2l-0.3,0.1l-0.3-0.1l-0.5,0.1
		l-1.1-0.5l-0.4-0.1h-0.2l-0.2,0.2h-0.6l-0.6-0.5l-0.5-0.1l-1.2-0.7l-0.1-0.5l-0.2-0.2l-0.3-0.6l-0.1-0.2l0.1-0.2l-0.1-0.5l0.1-0.4
		l0.2-0.6h0.2v-0.1l0.3-0.1v-0.2l0.4-0.3h0.1l0.9-0.4l0.9,0.2l0.2-0.2l0.3,0.1L90.1,157.8z M80.6,154.5h0.3l1,0.4l0.3,0.2l0.1,0.1
		l0.5,0.4l0.8,0.2l0.7,0.7l-0.2,0.2l-0.2,0.4l0.2,0.4l-0.2,0.3l0.3,0.6l-0.1,0.1h-0.5l-0.2,0.2v0.4h0.1l0.1,0.1l-0.1,0.1l0.1,0.1
		l-0.1,0.1l-0.1-0.2h-0.1h-0.1v-0.1l0.2-0.1l-0.1-0.1l-0.1,0.1h-0.3l-0.3,0.1h-0.7l-0.2,0.1H81l-0.3,0.1h-0.4l-0.6-0.2l-0.3,0.1
		v-0.1h0.2v-0.1l-0.1-0.1l-0.1-0.7l-0.2-0.6l-0.2-0.2l-0.2,0.1l-0.1-0.1h-0.1l-0.5-0.3l-0.6-0.4l-0.3-0.4h-0.1v-0.3l-0.2-0.1
		l0.1-0.2h0.4l0.2-0.2l0.3-0.1h0.8l0.3-0.1l0.4,0.1l0.4-0.3l0.5-0.8L80.6,154.5z M93.2,150l0.9,0.2l0.8,0.3l0.9,0.6h0.1l1.6,0.7
		l1,0.3l0.3,0.3l0.2,0.1l0.2-0.1l0.1,0.2l0.8,0.1l0.5,0.3l0.6,0.2l0.3-0.2v0.2l0.2,0.2l0.3,0.1l0.3-0.1l0.6,0.5l0.4,0.1l0.5,0.5h0.4
		l0.1,0.2l0.6,0.2l0.2,0.2l0.2-0.1l0.3,0.5l0.4,0.1l0.6,0.2l1.6,0.9l0.3,0.1l0.2,0.1l0.6,0.2h0.1l0.1,0.2l0.5,0.2l0.8,0.7l-0.2,0.1
		l-0.1,0.1l-0.4,0.3l-0.3-0.1l-1.5,0.1l-1-0.5l-0.2-0.3L107,158l-0.4-0.3l-0.7-0.3l-1-0.8h-0.4l-0.5-0.3l-0.3,0.1l-0.9-0.3l-0.2,0.1
		l-0.3-0.1l-0.3-0.2l-0.4-0.4l-0.6-0.4l-1.2-0.2l-0.3-0.2h-0.3v-0.1l-0.2-0.1h-0.2l-0.5-0.2l-0.6-0.4l-0.7-0.3l-0.3-0.5l-0.3,0.1
		l-0.1-0.2H96l-0.1-0.1l0.1-0.1l0.1-0.2h-0.3l0.1-0.2l-0.1-0.2l-1.2-0.6l-0.8-0.7l-0.3-0.5l-0.4-0.3L93.2,150z M126.6,148l0.2,0.1
		h0.1l0.2,0.2l0.3-0.1l0.3,0.2h0.3v-0.2l0.1-0.1l0.2,0.1l0.3-0.1l0.2,0.1l0.2,0.1l0.2-0.1l0.2,0.1l0.4,0.1l0.4,0.2l0.4-0.1l0.3,0.2
		l0.1,0.1l0.7-0.2l1.3,1l0.1,0.6l0.2,0.2l0.3,0.1l-0.2,0.2h-0.3l-0.1,0.6l0.4,0.2l0.2,0.2l-0.1,0.2l0.1,0.1l-0.2,0.3l-0.3,0.1
		l0.1,0.3l-0.4,0.1l-0.3,0.2l0.1,0.3v0.2l-0.1,0.3l0.1,0.2h-0.4l-0.3-0.2l-0.2,0.2l-0.4-0.2l-0.5,0.2h-0.3l-0.9-0.4l-0.4,0.1
		l-0.2-0.1l-0.3,0.1l-0.4-0.1l-0.2,0.2l-0.3-0.1l-0.1,0.1l0.2,0.3l-0.3,0.1l-0.2-0.2l0.2-0.3l-0.1-0.2h-0.4h-0.2l-0.2,0.1h-0.4
		l-0.3,0.1l-0.3-0.1l-0.7-0.5l-0.6-0.3l-0.2-0.1l-0.6-0.3l-0.6-0.8l-0.1-0.7l-0.1-0.2V150l0.2-0.5l-0.2-0.3l0.2,0.1l0.1-0.3v-0.1
		l0.2-0.2h0.2l0.8-0.5l1.4-0.3h0.5L126.6,148z M102.2,136.2l0.5,0.2l0.2,0.2l0.2-0.1l0.2,0.1l-0.1,0.1l0.3,0.2l0.3,0.6l0.1,0.3h0.2
		v0.1v0.2l0.4,0.4l0.1,0.5l-0.1,0.1l0.2,0.2v0.2l-0.1,0.1l0.1,0.1h-0.3l-0.4,0.2l-0.7-0.2l-0.1,0.1l-0.1-0.1v-0.1l-0.2-0.1v-0.2
		l-0.9,0.1l-0.4-0.4l-0.3-0.9l-0.3-0.3v-0.2h-0.2l0.1-0.2l0.6-0.5v-0.2l0.1-0.2l0.1-0.1h0.2h0.2l0.1-0.1L102.2,136.2z M1.9,118.8H2
		L1.9,119l0.2,0.4l0.6,0.4l0.2-0.2l0.1,0.1v0.1l0.1,0.1l0.3-0.1l0.1-0.2l0.1,0.1l0.1,0.2v0.2l0.2,0.2l-0.1,0.1l0.1,0.4l0.3,0.2
		l0.1,0.3h0.3l0.1,0.4l-0.1,0.2l-0.3,0.2l-0.2,0.3v0.1l0.2,0.3H4.1l-0.2,0.1l-0.1,0.2l0.1,0.4l-0.1,0.4l-0.2,0.2v0.3l-0.3,0.2
		l0.1,0.1l-1,0.3l-0.9-0.1L1.4,125H1.2L1,124.9H0.7l-0.1-0.2l-0.2-0.1l0.1-0.1l-0.1-0.1v-0.2l0.1-0.1l-0.1-0.2l0.2-0.2v-0.1
		l-0.2-0.1v-0.2l-0.2-0.2v-0.4l0.2-0.4L0.2,122L0,121.8l0.1-0.2v-0.1h0.2l0.1-0.2v-1l0.3-0.2V120l0.2-0.1l0.3-0.5L1,119h0.7
		L1.9,118.8z M5.1,110.6l0.6,0.3l0.2,0.5v0.3l-0.2,0.5l-0.5,0.5L5,112.8l-0.1,0.1H4.7l-0.1-0.1l-0.1-0.2l0.2-0.2l-0.1-0.2l-0.2-0.3
		l-0.1-0.4l0.3-0.7l-0.1-0.3l0.2,0.1L5.1,110.6z"/>
	<path id="PT-30" class="st1" d="M466.7,394l0.3,1l0.5,0.8l-0.5-0.2l-0.2-0.3l-0.3-0.8L466.7,394z M466.1,391l0.5,1l0.1,1l-0.8-1.9
		l-0.7-0.5l-0.1-1.2l0.6,0.7L466.1,391z M445.4,378.4l0.5,0.8l0.8,0.7h0.6l0.4,0.4l1.3,0.3l1.1-0.3l0.8-0.6l0.8,0.1l1.9-0.4l0.6,0.4
		l0.6,0.7l0.9,0.8l0.4,0.7l0.8,0.2l0.6,0.2l1,0.1l0.5,0.1h0.6l0.3,0.1l-0.1,0.3H459l-0.5,0.1l-0.3,0.6l-0.3,0.1l0.1,0.3l-0.4,0.6
		l-0.6,0.2l-0.3,0.8l-0.9,0.8l-0.6,0.2l-0.9-0.3h-0.9l-0.4,0.2l-0.9,0.3l-0.3-0.3l-1-0.4h-1l-2.2-1H447l-1.1-0.9l-2.3-1.3l-1-1.4
		l0.1-0.3l-0.3-0.8l-0.5-0.5l2.1-2L445.4,378.4z M472.6,369.9h0.3l-0.2,0.4l0.3,0.4l-0.3,0.2l0.2,0.4l-0.6-0.1l-0.5,0.1l-1.6,1.4
		l-0.1-0.3h-0.3l-0.1-0.3h0.3l0.3-0.5l0.1-0.6l-0.1-0.2l0.2-0.3h0.3l0.2-0.4l0.6-0.2l0.4-0.4L472.6,369.9z"/>
</g>
</svg>
