<?xml version="1.0" encoding="utf-8"?>
<!-- Generator: Adobe Illustrator 21.0.2, SVG Export Plug-In . SVG Version: 6.00 Build 0)  -->
<svg version="1.1" id="Layer_1" xmlns:amcharts="http://amcharts.com/ammap"
	 xmlns="http://www.w3.org/2000/svg" xmlns:xlink="http://www.w3.org/1999/xlink" x="0px" y="0px" viewBox="0 0 348.6 800"
	 style="enable-background:new 0 0 348.6 800;" xml:space="preserve">
<style type="text/css">
	.st0{opacity:0.8;}
	.st1{fill:#FFAA00;stroke:#FFAA00;stroke-width:0.5;}
</style>
<defs>
	
	
		<amcharts:ammap  bottomLatitude="55.338154" leftLongitude="11.105169" projection="mercator" rightLongitude="24.170696" topLatitude="69.061149">
		</amcharts:ammap>
</defs>
<g class="st0">
	<path id="SE-M" class="st1" d="M60.4,788l1.8-0.1l0.8-0.3l2.4-1.6l0.9-0.2l1.1,0.2l0.4-0.2l0.3-0.4l0.3-0.4l0.3-0.3l0.5-0.1
		l3.4-0.3l1.2,0.3h0.4l0.4-0.1l0.6-0.4l0.4-0.1l0.9,0.1l0.7,0.3l2.1,1.4l0.8,0.3l0.8,0.2h1.7l0.6-0.2l0.5-0.4l0.5-0.7l1.2-2.2
		l0.3-0.3l0.5-0.3l1.4-1.6L88,780l0.1-1l-0.3-0.9l-1.1-1.8l-0.6-0.6l-0.3-0.3l-0.2-0.6v-0.5v-0.5v-0.5l-0.3-0.6l-1-0.8l-0.4-0.6
		l-0.3-0.8v-0.7l0.1-1.8l0.3-1.9l0.7-1.9l0.9-1.5l1-0.6l0.3-0.4l0.3-0.9l0.3-0.9l0.5-0.4l0.5-0.2l0.6-0.5l1-1.2l0.9-1.3l0.5-0.4
		l0.7-0.2l0.3-0.1l0.5-0.4l0,0l0.1-2l0.3-1.1l0.3-0.8l0.1-0.8l-0.1-1.1l-0.2-1.1L93,747l-0.2-0.3l-0.2-0.1l-0.2-0.1h-0.3l-0.3-0.1
		l-0.2-0.1l-0.3-0.2l-0.7-0.3l-0.3-0.4l-0.2-0.6l-0.1-0.7l-0.2-0.6l-0.5-1.1V742l0.1-0.4l1.1-2.9l0.4-0.7l1.8-2.5l-4.7-1.4l-1.3-0.6
		l-0.8-0.2h-3l-0.4-0.1l-0.6-0.6l-0.4-0.2h-0.4l-0.5,0.3l-0.3,0.4l-0.2,0.3l-0.1,0.3l-0.1,0.6l-0.1,0.3l-0.5,0.3l-0.8,0.3l-10.8,2.6
		h-1.9l-1.3-0.2l-0.8,0.1l-0.8,0.3l-1.8,1.2l-0.6,0.5l-0.6,0.6l-0.5,0.6l-0.7,0.6l-0.6,0.2h-0.4l-0.3-0.3l-0.3-0.3l-0.4-0.3
		l-3.6-0.6l-0.8-0.3l-0.2-0.2l-0.1-0.3V739l0.1-0.4l0.1-0.4l0.1-0.3v-0.3l-0.1-0.3l-0.1-0.3l-0.1-0.2l-1.2-0.8l-0.5-0.6l0,0
		l-0.2,0.3l-0.4,0.6l-1.5,0.6l-3.1-1.2l-1.5,0.6l-0.9,1.7l0.6,1.1l2.3,1.7l0.8,2.1l0.5,1l1.2,0.7l0.1,0.6l-0.2,0.7l-0.3,0.6
		l-0.5,0.4l-0.5,0.1l-1.1-0.1h-0.2l-0.3,0.2h-0.2l-0.2-0.1l-0.4-0.4l-0.2-0.1l-0.2-0.2l-0.3-0.7l-0.2-0.2l-5.1-2.2l0.3,0.6l1,0.8
		l0.3,1.1l0.6,1.4l0.1,0.4l0.2,1.5l0.3,0.5l1,2.3l0.2,0.3l2.3,3l0.2,0.5l0.1,0.9l0.3,0.4l0.4,0.3l0.5,0.4l0.2,0.6l0.1,0.9l0.2,0.8
		l0.3,0.3l0.2,0.1l0.2,0.2l0.2,0.3l0.1,0.2v0.7v0.3l0.3,0.7l0.8,1l1,0.6l0.9,0.9l0.3,2v0.6l-0.1,0.3l-0.2,0.2l-0.3,0.1l0.3,0.6
		l0.5,0.2h0.6l0.2,0.9h0.5l0.5-0.1l0.4,0.7l0.3,0.3l0.4,0.5l0.2,0.9l-0.1,0.6l-0.2,0.6l-0.3,0.6l-0.3,0.4l-1.8,1.3l-0.8,0.9
		l-0.3,1.5l0.3,1.2l1.2,2.1l0.3,1.2l-0.3-0.3h-0.3l-0.1,0.3l0.1,0.6l-0.3,0.4l-0.6,0.3h-0.6l-0.5-0.3l-0.2-0.3l-0.2-0.1h-0.1h-0.2
		l-0.8,1.6l0.1,0.8h0.4l0.5-0.3l0.5-0.2h0.3l0.3,0.2h0.3l0.3-0.1l0.4-0.4l0.3-0.2l0.6-0.1l0.6,0.1l0.2,0.1l0.4,0.4l0.1,0.1h0.3
		l0.5,0.2h1.4l4.3,1.6L60.4,788z"/>
	<path id="SE-O" class="st1" d="M20.7,679.4l-0.2,0.1l-0.1,0.1l-0.1-0.2l-0.1-0.1h-0.1l-0.3,0.3l-0.1,0.1l-0.1-0.1h-0.2l-0.1,0.1
		v0.3l0.2,0.2h0.1l0.2-0.1L20,680l0,0l0.3,0.3l0.3,0.1l0.1-0.7L20.7,679.4z M17.5,677.2l0.1-0.2l0.1-0.1l-0.1-0.3l-0.3-0.4l-0.5-0.3
		v0.4v0.2v0.2l0.1,0.3v0.2l0.2,0.1l0,0l-0.3-0.1h-0.3l-0.1,0.1v0.2l0.1,0.2h0.2l0.2,0.1l0.2,0.3l0.2,0.2l0.2-0.1l0.3,0.1H18l0.1-0.2
		l-0.1-0.2v-0.1v-0.1v-0.1v-0.1L17.5,677.2L17.5,677.2z M16.9,668.2l-0.1-0.3l-0.3-0.2l-0.6-0.2l-0.5,0.1L15,668h-0.2v0.1l0.4,0.3
		l0.3-0.2h0.3v0.1l-0.6,0.3l-0.1,0.1l-0.2-0.1h-0.2v0.1l0.1,0.1l0,0l-0.1,0.1v0.2l0.5,0.3l0.2-0.2l0,0v0.2v0.2l0.2,0.4v0.1l0.2-0.1
		l0.2-0.3l0.2-0.1l0.2-0.3l0.2-0.2h0.1v-0.3l0.3-0.1v-0.2v-0.2L16.9,668.2z M19.6,659.7l-0.6-0.3l-0.5,0.3l-0.5,0.4l-0.6,0.2H15
		l-1.1-0.3l-0.5,0.2l-0.2,0.9l0.2,0.7l0.5,0.2h0.6l0.5,0.3l-0.3,0.1l-0.7-0.1l-0.3,0.2v0.4l0.1,0.4l0.2,0.4l0.1,0.4v0.6l0.2,0.2
		L15,665l0.2,0.2l0.2,0.3l0.2,0.2h0.3l0.2-0.3l0.2-0.4l0.2-0.3l0.5,0.1l0.3-0.2l0.2-0.4l0.2-1.3l0.3-0.8l0.4-0.4l0.4,0.2l-0.1,0.6
		l0.1,0.3h0.3l0.3-0.3l0.1-0.3l0.3-1.4l-0.1-0.2v-0.3L19.6,659.7z M21,650.5l-0.6-0.3l-0.5-0.5l-0.3-1.1l-0.9-0.3h-0.4l-0.4,0.3
		l0.1,0.2l0.1,0.5l-0.3,0.3l-0.2,0.4v0.5l0.1,0.5l-0.4,0.2l-0.8-0.2h-0.4l-0.3,0.2l-0.6,0.6l-0.9,0.3l-2.6,2.5l-0.5,0.8v0.7l0.3,0.4
		l0.8,0.9l0.1,0.3l0.2,1.2h0.2v-1.7l0.8,0.8l0.3,0.2h0.3l0.1-0.2l0.1-0.3l0.3-0.5l0.6-0.6l0.7-0.3l0.7,0.2l0.4,0.9l0.7-0.4l1.4,0.5
		l1.2-1l0.7-0.1l0.6-0.3l0.2-0.9V653v-1.1l-0.2-0.9L21,650.5z M0.9,617.2H0.7l-0.2,0.1H0.2l-0.1,0.1L0,617.5v0.2l0.2,0.3l0.2,0.1
		v0.1l-0.1,0.1H0.2v0.1v0.6v0.2v0.2v0.1l0.1-0.1l0.1-0.2v-0.3l0.1-0.1l0.1,0.1l0.1,0.3l0.5,0.2v0.1v0.1l0.1,0.1h0.1l0.2,0.1h0.1
		l0.3-0.4v-0.3v-0.2H1.9l-0.2-0.1v-0.2l0.1-0.1l0.1-0.2v-0.2L1.8,618l-0.3-0.2H1.2L1,618l0,0v-0.5v-0.1l-0.1-0.3L0.9,617.2
		L0.9,617.2z M33.4,602.5l-0.4-0.3l-0.2-0.4l-0.4-1.1l-0.5-0.4l-0.7-0.1l-1.5,0.3l-0.5,0.4l-0.1,0.8l0.1,0.5v0.3l-0.1,0.2l-0.3,0.3
		l-0.2,0.1h-0.3l-2.3-2l-0.5-0.3h-0.4l-0.4,0.3l-0.3,0.3l-0.4,0.1h-0.3l-1.9-0.7l-0.4-0.1l-0.2,0.7l-0.5,0.8l-0.2,0.8l-0.7,3.2
		l-0.1,2.4l-0.3,1.3l-0.6,2.2l-0.2,1.1l-0.2,1.3l-0.8,2.7l-1.4,1.4l-1.7,0.4l-1.7-0.1l-0.8-0.5v-3.3l-0.4-1.5l0,0l0,0l0,0h0
		l-0.4-0.5l-0.5-0.9l-0.5-1.1L10,610l-0.4-1.5l-0.9-0.4l-2.6,0.5l-0.7,0.5l-1.7,2.5l-0.3,0.5l-0.1,0.6l0.2,0.7l0.5,0.2l1.1-0.1
		l-1.2,0.6l-0.6,0.5L3,615.4l0.3,0.6l0.7,0.5l1.3,0.4l-0.1,0.4v0.1l-0.1,0.2l0.1,0.5v0.5v1.2l0.1,0.5l0.3,0.2l0.3,0.1l0.1,0.3v1.8
		v0.4l-0.3,0.6l-0.3,0.4l-0.2,0.4l0.1,0.7l-0.6,0.2l-0.3,0.8v0.9l0.3,0.4h0.7l0.1,0.1L5.4,628l-0.1,1l1,1.5l0.3,0.7v0.4l-0.2,0.5
		v0.4l0.1,0.4l0.2,0.1l0.1,0.2l-0.1,0.6h0.5L7,634.3l-0.2,0.2l-0.2,0.2L6.3,635l-0.1,0.4v1.5l0,0L6.1,637L6,637.2v0.2v0.3l0.3,0.4
		v0.3l0.1,0.3l0.9,0.6l-0.4,0.6l-0.4,0.3l-0.3,0.5l0.2,1l-0.9-0.1l-0.4,0.3L5,642.8l0.5,1.1l0.1,0.4v0.5l-0.1,0.4v0.3l0.3,0.3
		l0.6-1.3H7l0.7,0.3l0.7-0.4l0.1-0.2l0.2-0.6l0.1-0.2l0.2-0.2l0.4-0.3l1.1-1.6l0.2-0.5l-0.2,0.7l-0.2,0.5l-0.6,1l-0.9,2l-0.1,0.6
		l0.3,0.1l0.4-0.2l0.3-0.3l0.2-0.6l0.2-0.6l0.3-0.4h0.4v1.2l0.5,0.7l0.2,0.3l-0.9,0.1l-0.3,0.1l-0.3,0.4l-0.2,0.5l0.1,0.6l0.3,0.1
		l0.8-0.4h0.4v0.4l-0.4,0.3l-0.3,0.4l-0.3,0.6l-0.2,0.7l1.8-1.5l0.8-0.9l0.7-1.2l0.5-1.4l0.3-1.7v-1.7l-0.2-1.5h0.2l0.2,0.7l0.5,1.7
		l0.3,0.6l0.4-0.7l0.6-0.8l0.6-0.3l0.5,0.8l-0.9,0.4l-0.4,0.4l-0.3,0.6l0.4,0.3l-1.4,1.6l-0.6,1.1l-0.6,1.4l-0.4,1.2l-0.2,1.1
		l0.3,0.8l0.9,0.3l-0.2-0.8l-0.1-0.3l0.3,0.2l0.4,0.2H15l0.3-0.1l0.3-0.3l0.6-0.9l0.2-0.2l0.3-0.2l1.3-1.3h0.9l0.4-0.3v-0.7l0.6-0.1
		l1.4,0.2l1.1-0.8l0.6-0.1l0.3,0.6l-1.5,0.8l-0.4,0.7l0.1,1.2l0.3,0.5l0.3,0.3l0.3,0.4l0.2,1.3l0.2,0.4l0.3,0.1l0.4-0.1l-0.1,0.6
		l-0.2,0.3l-0.3,0.1h-0.3l-0.3,0.1l-0.1,0.3l-0.2,3.3l-0.3,0.9l-0.6,0.1l0.1,0.3v0.1l0.1,0.2l-0.4,0.4l-0.1,0.5l0.1,0.5l0.3,0.5
		l0.1,0.6l-0.1,0.7l-0.3,1.2l-1.1,2.1l-0.2,0.9l0.8,0.5l-0.2,0.5l-0.1,0.1l-0.3,0.1v0.3H20v0.3l-1.3,0.5l-0.3,0.5l0.3,1l-0.3,0.1
		l-0.3,0.3l-0.6,0.7l0.8,0.1l0.6,0.7l0.5,1l0.6,0.9l0.4-0.2l0.6-0.1l0.5,0.1l0.1,0.3l-0.2,0.3l-2.5,2.5v0.6v0.6l0.4,0.3h0.5l0.3-0.1
		l-0.1-0.9l0.6,0.1l1.3,0.8l0.6,0.1h0.7l0.7-0.1l0.6-0.3l-0.4,0.8l-1.5,0.3l-0.3,1l0.1,0.5l0.2,0.4l0.2,0.5l0.1,0.8l0.1,0.5h0.3
		l0.3-0.3l0.1-0.7h0.1l0.3,0.2l0.1,0.1l-0.1,1.2v0.6l0,0l1.1-0.2l2.9,0.7l2-0.4l4.1-1.8l0.8,1.6l0.1,0.6v0.9L35,685v1.4v0.3v0.1
		l0.1,0.4l0.6,0.8l0.8,0.9l0.4,0.5l0.2,0.4v0.4v0.4l-0.1,0.5l-0.4,0.9l-0.1,0.3v0.6l0.2,0.8l0.8,2.3l0.3,0.5l0.3,0.2h0.7l0.4-0.1
		l0.4-0.3l0.3-0.3l0.3-0.4l0.2-0.4l0.2-0.3l1.2-1.1h0.3l1,0.2h0.8l0.3,0.1l0.4,0.4l1.2,1.6l0.6,0.3h0.3l0.7-0.3h0.2l0.2,0.1l0.2,0.3
		l0.3,0.3l0.5,0.2l2.1,0.3l0.2,0.1l0.1,0.1v0.3v0.3l-0.1,0.3l-0.5,1.1v0.5l0.2,0.6l0.4,0.4l0.7,0.2l1,0.1l0.2,0.2l0.2,0.4l0.3,0.4
		l0.2,0.3l1.6,0.5l0.5-0.6l0.4-0.6l1.4-2.7l0.6-0.9l0.5-0.5l0.4-0.1l0.2-0.1l0.2-0.3l0.5-1.4l0.4-0.6L61,695l1-0.5l1.1-1l1.6-2.1
		l1.1-0.9l0.3-0.3l0.3-0.6l1.4-3l1.1-1.8l0.9-1l0.3-0.5l0.2-0.7v-1.8l0.1-0.7l0.3-0.8l0.5-0.9l0.1-0.6l-0.1-0.9l-0.1-0.6v-0.6
		l0.3-1.2l0.2-0.5l0.2-0.4l0.3-0.4l0.2-0.4v-0.6v-0.7l-0.4-2.2h1.4l0.6,0.2l2.7-0.3l0.6,0.2l0.7,0.6l0.6,0.4l0.4,0.1l0.3-0.1
		l0.1-0.3v-0.3v-0.4l0.1-0.3l0.1-0.3l0.1-0.2l0.2-0.1L81,668v-6.2l3.7-10.5l2.5-2.4l0.6-5.9l3.7-4.7v-3.6l5.7-6.6l-0.3-1.3l-0.5-1.1
		l-0.5-0.4l-0.5-0.1l-0.3,0.1l-0.1,0.2v0.3l-0.1,0.3l-0.2,0.3l-0.4,0.3l-0.5,0.3h-0.2l-0.1-0.2l-0.1-0.4l-0.3-0.2l-1-0.2l-0.6-0.3
		l-0.2-0.5v-1l-0.1-0.8l-0.4-0.9l-1.5-2.4l-0.3-0.7v-0.6v-0.7v-0.5l-0.2-0.5l-0.6-1.2l-0.5-1.2l-0.4-1.4l-0.2-0.5l-0.4-1.4l-1.6-1.2
		l-0.3-0.2l-0.3-0.1l-6.9-0.2l2.4,6.9l-1.8,6l-3.7,4.8l-4.3,4.8l-4.3-2.4l-1.9-5.2l-0.6,9.9l-4.3,2.4l-2.5,3.6h-1.8l0.6-9.5
		l-1.8-1.2l-4.9,8.3l-3.1,1.2l-3.7,4.7l-1.8-3.5L37,644l-1.8-3.5l3.7-3.6l1.8-5.9l-1.2-5.9l3.7,1.2l-0.6-10.7l4.5-6.3l-0.1-0.7
		l-0.2-2.4l-0.2-0.7l-0.3-0.5l-0.5-0.4l-0.3-0.3l-0.3-0.4l-0.4-0.3h-0.6l-1.6,1.4l-0.5,1.1l-0.4,0.5l-0.3,0.1l-0.3-0.3l-0.4-0.7
		l-0.2-0.2h-0.2l-0.4,0.1l-0.6,0.3h-0.2l-0.3-0.1l-0.3-0.3l-0.3-0.3l-1.1-0.6l-0.2-0.3V604l0.1-0.3l0.3-0.2l0.9-0.1l0.3-0.2V603
		l-0.3-0.2l-0.4-0.1l-2.2,0.7h-0.3l-0.8-0.3L33.4,602.5z"/>
	<path id="SE-K" class="st1" d="M100.2,757.8l0.2-0.6l-0.2-0.2h-0.3l-0.1,0.1v0.5l0.2,0.3L100.2,757.8L100.2,757.8z M124.5,756.4
		l0.1-0.2l-0.1,0.1V756.4h-0.2v0.2v0.1l-0.2,0.1l0.4,0.4l0.4-0.6l0.2-0.3l-0.2-0.1l-0.3,0.3l-0.1,0.1L124.5,756.4L124.5,756.4z
		 M121.7,752.2l-0.2-0.2l-0.4,0.2l-0.3,0.7l0.2,0.7l0.9,0.7h0.1h0.2l0.1-0.1V754v-0.4l-0.1-0.5v-0.3l0.3-0.1l0.3-0.3v-0.3l-0.2,0.1
		h-0.3H122L121.7,752.2L121.7,752.2z M103.6,751.9l-0.1,0.1l-0.3,0.1l-0.3-0.1v0.2l0.3,0.1l0.2,0.3l0.2-0.4L103.6,751.9z
		 M116.5,753.1l0.2-0.4l0.1-0.3v-0.3v-0.2h-0.1l-0.2,0.1l-0.5,0.1l-0.3,0.3h-0.1v0.3l0.1,0.3l0.1,0.1h0.3l0.1,0.1h0.1L116.5,753.1z
		 M118.7,752.8l0.1-0.6l-0.2-0.3l-0.6-0.2h-0.2l-0.2,0.3l-0.1,0.4v0.2v0.2l0.2,0.2l0.9,0.1L118.7,752.8z M120.4,753l0.1-0.2v-0.2
		v-0.2v-0.2V752l0.1-0.2v-0.2l-0.2-0.1l-0.2,0.1l-0.2,0.1l-0.1,0.2l-0.4,0.6v0.1l0.1,0.3l0.3,0.3L120.4,753z M123.8,751.6h-0.3
		l-0.3-0.3H123l-0.3,0.1l-0.1,0.3l0.8,0.7l0.1,0.3l0.2,0.2l0.2-0.1l0.1-0.2v-0.3l0.1-0.2h0.1v-0.3l-0.1-0.2l-0.2,0.1L123.8,751.6z
		 M114.7,750.6l-0.3-0.3v0.6l0.2,0.2L114.7,750.6z M119.6,734.4l-0.5-0.3h-0.4h-0.3l-0.3,0.3l-0.1,0.1v0.1v0.2l-0.1,0.2l-0.2,0.1
		h-0.2l-1.4-0.3l-0.6-0.3l-0.5-0.1l-0.6,0.1l-0.2,0.1l-0.7,0.8L113,736l-0.3,0.1h-0.4l-0.7-0.2H111l-0.4,0.1l-0.3,0.3l-0.2,0.3
		l-0.1,0.3l-0.1,0.2l-0.2,0.1h-0.3l-0.4-0.1l-0.6-0.3l-0.8-0.5l-0.3-0.1h-0.5l-1.2,0.4l-1.1,0.1l-0.3,0.1L104,737v0.3l-0.1,0.3
		l-0.2,0.4l-0.9,1.3l-0.9,0.8l-0.6,0.2h-0.6l-3.7-1.1l-0.6-0.4l-0.9-0.8l-1-1.1l-0.8-0.7l-1.5-0.6l-1.8,2.5l-0.4,0.7l-1.1,2.9
		l-0.1,0.4v0.4l0.5,1.1l0.2,0.6l0.1,0.7l0.2,0.6l0.3,0.4l0.7,0.3l0.3,0.2l0.2,0.1l0.3,0.1h0.3l0.2,0.1l0.2,0.1l0.2,0.3l0.5,1.3
		l0.2,1.1l0.1,1.1l-0.1,0.8l-0.3,0.8l-0.3,1.1l-0.1,2l0,0l0.1-0.1l0.3-0.1l-0.1,0.1l0.1,0.2l0.3,0.3l0.6-0.6v0.6l0.1,0.4l0.2,0.3
		l0.2,0.3l-0.4,0.4v0.2h0.3h0.7h0.2l0.2,0.1h0.2l0.2-0.2l0.2-0.3h0.5l0.1,0.5l0.1,0.2l0.2-0.2l0.2-0.3l0.3-0.3l0.3-0.3l0.3-0.1
		l-0.3-0.8l-0.3-0.6l-0.7-1.1l-0.1-0.4l-0.1-0.4l-0.2-0.3l-0.4-0.1l-0.2-0.2V752v-0.6l0.1-0.4l0.4-0.6l0.6-0.3H98l0.6,0.3l0.5,0.5
		l0.4,0.3l0.5-0.2v-0.8h0.6l0.9,0.2l0.6-0.2l0.6-0.4l0.9,0.2l1.6,0.7l-0.1-0.3l-0.2-0.7l-0.1-0.3h0.3l0.6-0.3h0.2l0.2,0.3l0.1,0.8
		l0.2,0.2h1l0.2-0.1l0.2-0.2l0.2-0.1l0.2,0.2l0.8,0.6l1.1-0.2l1-0.6l0.6-0.8l0.6,1.2l0.1,0.5h-0.2l-0.5,0.3l0.3,0.3l0.3,0.1l1.2-0.1
		l0.1-0.2V751l0.2-0.5l0.4-0.6l0.3-0.2l0.4-0.1l0.4,0.1l0.3,0.3l0.2,0.3l0.2,0.2l0.5,0.4l0.1-0.2V750l0.2-0.3l1.1-0.6l1-0.8l0.3-0.1
		l0.3,0.3l-0.1,0.5l-0.3,0.6l-0.2,0.3l0.4,0.6l0.5-0.4l0.5-0.8l0.4-0.4l0.2,0.1l0.4,0.4l0.3,0.1l0.3,0.1l0.1,0.3l0.2,0.1l0.3-0.2
		l0.5,0.8h0.6l1.3-0.5l0.5,0.4l-0.2,0.9l-0.8,1.6l0.7,0.4l0.5,0.5l0.4,0.1l0.6-0.8l1.5-3.3l0.4-0.6l1-0.9l0.4-0.6l0.2-0.4l0.1-0.5
		l0.1-0.4l0.3-0.2l0.2-0.3l0.7-3.8h-0.1l-0.5,0.2l-0.3,0.3l-0.5,0.1l-0.8-0.1l-3.1-1.2l-1.5-1.2l-2-2.5l-1.5-1.4L119.6,734.4z"/>
	<path id="SE-C" class="st1" d="M197.2,550.8H197l-0.3,0.1l-0.1,0.1l-0.1,0.2v0.2h0.1h0.1l0.1,0.1l0.1,0.3h0.1l0.1-0.1v0.1v0.2
		l0.3,0.2l0.7-0.2l0.2-0.3v-0.1L197.2,550.8z M196.3,551.9l-0.1-0.2l-0.1-0.1v-0.1l0.1-0.2v-0.2l-0.9-0.6l-1.1-0.2l0.6,0.9l1.1,0.9
		h0.4V551.9z M198.4,547.7l-0.4-0.5l-0.2-0.1l-0.2,0.2l-0.1,0.4v0.2l0.3,0.2l0.2-0.1v-0.2l0.5,0.4l0.1-0.2L198.4,547.7z
		 M193.3,538.2l-0.3-0.5l-0.1-0.3V537v-0.3v-0.2l-0.1-0.3l-0.3-0.5l-0.1-0.3l-0.4-0.2l-0.3,0.1l-0.1,0.4l0.3,1.1v0.6l-0.1,2.6
		l0.1,1.4l0.3,1.1l1.5,0.8l1.5,1.7l1.1,0.7h0.2l0.1-0.5l-0.1-0.2l-0.2-0.1l-0.2-0.1l-0.1-0.1l-0.3-0.9l-0.1-0.5l-0.1-0.7l-0.6,0.6
		h-0.3l-0.3-0.5l-0.3-0.9l-1.2-2.5l-0.3-0.7l0.4,0.1l0.6,0.5l0.4,0.1l-0.2-0.6L193.3,538.2z M192.5,535.2l0.1-0.1V535l-0.1-0.4
		l-0.1-0.3l-0.2-0.1h-0.3l-0.4,0.1l-0.3,0.3v0.1l0.3,0.2l0.7,0.3H192.5z M173.4,535.6l-0.9-0.6l-0.3-1.1l-0.1-0.6l-0.4-1.2l-0.1-0.8
		l0.2-0.2l0.9-0.6l0.3-0.5l-0.3-0.6l-0.9-0.6l-0.4-0.5l-0.5-0.5l-0.7-0.1l-3.5,0.6l-0.5,0.3l-0.4,0.4h-0.1l-1.6,7.3l-0.9,2.1
		l-0.4,0.3l-0.5,0.6l-0.6,1.3l-0.2,1l0.2,3.9l3.7,3.1l0.5,0.6l0.1,0.8l-0.2,1.2l-2,6.5l-0.5,0.9l-0.4,0.4l-0.3,0.1l-0.7-0.1
		l-0.3,0.1l-0.3,0.3l-0.8,1.7l-0.3,0.5v0.2v0.3l0.2,0.4l0.3,0.3l0.4,0.3l0.2,0.3l0.1,0.6v0.9l-0.1,1.2L161,567l-0.3,0.6l-1.3,0.9
		l-1.1,1l-0.5,0.3l-0.5,0.1l-0.3-0.1l-0.3-0.3l-0.3-0.7l-0.2-0.2l-1.5-0.3l-1.8-0.7h-0.4h-0.2l-0.1,0.3v0.5l0.1,1.2l-0.2,0.6
		l-0.3,0.6l-1.2,0.9l-0.1,0.4l0.3,0.7l2.7,6l0.4,1.4l0.8,4l0.3,0.8l0,0l0.3,0.8l2.7,0.6l2-0.3l0.6,0.1l0.8,0.4l1,0.8l0.1,0.1v0.2
		l0.1,0.3l0.5,0.8l0.8,0.8l1.6,0.8l0.9,0.7l0.6,0.6l0.7,1.5l0.5-1.1l0.3-1.2l0.2-0.3l1-0.9l0.2-0.4l0.1-0.6V588v-0.6l0,0V587
		l0.2-0.6l1.2-2.3l0.1-0.5v-0.4l-0.4-0.6l-0.2-0.4l-0.1-0.5V581l0.1-0.8l0.3-0.6l0,0v-0.5v-0.3l0.1-0.2h0.2l0.6-0.2l0.4-0.3l0.5-0.6
		l0,0l0.3-0.6l0.2-0.2h0.2l0.9,0.1l0.5,0.2l0.9,0.6l0.3,0.1l0.7-0.4l1.6-0.5l3.6-2.2h2.1l0.5-0.5l0.4-0.9l0.7-1.8l0.6-0.8l0.9-0.6
		l1.6-0.4l1.8-0.9l1.2-0.9l0.6-1l0.3-1.1v-2.2l0.2-0.8l0.3-0.5l0.3-0.3l1-0.6l0.1-0.2l-0.1-0.2l-0.2-0.2l-0.2-0.2l-0.3-0.3l-0.2-0.3
		v-0.5l0.3-0.7l0.8-1.1l1.3-2.3l-0.1-0.4v-0.8v-1.6v0.1L196,553l-0.3,0.3l-0.3,0.2H195l-0.3-0.3l-0.6-0.8l-1.2-0.9l-0.5-0.8
		l-0.2-1.3l0.6,0.9l0.3,0.3h0.4l-0.9-1.2l-1.2-1.2l-1-1.4L190,545l1.4,2.2l0.8,1l4.2,1.7l1.1-0.6l-1-1.1l-3.6-1.4l0.3-0.3h0.3h0.3
		l0.3-0.1v-0.3l-0.6-0.6l-0.1-0.2v-0.4v-0.5V544v-0.2l-0.5-0.4h-1.8l-0.8-0.4l-0.3-0.1l-0.4,0.1l-0.5,0.3l-0.7,0.8l-0.4,0.3
		l-0.2-0.3l-0.2-0.3l-0.4-0.5v-0.4l0.3-0.5l0.6-0.7l0.4-0.3l-2.1-0.9l-0.9-0.8l-0.8-1.2l-0.1-0.3l-0.2-0.9l-0.1-0.3l-0.9-0.7
		l-1.2-1.3l-0.6-0.5l-0.7-0.1v-0.3l0.3-0.2l0.3-0.4l0.2-0.5v-0.6l-0.5-1.8l-0.7-0.6h-0.8l-2.7,0.8l-1.4,1.2l-0.9,1.5l0.4,1.5v0.4
		L173.4,535.6z"/>
	<path id="SE-AB" class="st1" d="M178.5,624.9l-0.1-0.4l-0.2-0.1v0.4l0.1,0.3v0.7v0.1v0.1l0.1,0.3L178.5,624.9z M174.7,620.8v-0.3
		h-0.1l-0.2-0.3l-0.3-0.2l0.3,0.7v0.2l0.1,0.3l0.1,0.1h0.1l0.1,0.1L174.7,620.8z M184.7,620L184.7,620l0.3-0.1l0.3-0.3v-0.2V619
		l0.1-0.3v-0.2l-0.1-0.2l-0.8,0.8l-0.3,0.6v0.2l0.1,0.1v0.1l0.1,0.1h0.2L184.7,620z M178.1,620.3h-0.4h-0.1l0.3-0.8l0.4-0.6v-0.4
		l-0.1-0.3l-0.1-0.1l-0.3,0.1l-0.2,0.4v0.3h-0.2l-0.1,0.3v0.5l0.1,0.5v0.2h-0.2l-0.1,0.2v0.3l0.1,0.7v0.4v0.5l-0.4,0.3l-0.2,0.3
		l0.1,0.2h1.2l0.3,0.2l0.1-0.1V623l0.1-0.1h0.1l0.1-0.2v-0.3l-0.1-0.1v-0.2v-0.6l-0.2-0.6L178.1,620.3z M185.9,617.7h0.2l1.2-1.5
		l0.1-0.2h-0.1l-0.1-0.1h-0.1l-0.2,0.2l-0.6,0.1l-0.1,0.2v0.3v0.1l-0.1,0.5h-0.3l-0.2,0.2v0.3v0.2l0,0L185.9,617.7z M182.7,615.9
		v-0.3v-0.1v-0.2v-0.2l-0.1-0.1v-0.2l0.1-0.1l0.1-0.2v-0.3l-0.2-0.1l-0.3,0.4l-0.7,1.4v0.3l0.3-0.1h0.1v0.2h0.1l0.2-0.2L182.7,615.9
		z M191.1,614.6l0.1-0.5L191,614l-0.8,0.5l-0.4,0.2l-0.2,0.1l-0.2,0.1h-0.3l-0.4,0.1l-0.9,0.8l-0.4,0.5l-0.4,0.8v0.4l0.1,0.2
		l0.2,0.1h0.3l0.6-0.4l0.9-0.3l0.4-0.2l0.7-0.2v-0.2l-0.4-0.2l-0.3-0.3l0.1-0.3h0.2l0.2-0.1l0.2-0.2l0.6-0.3L191.1,614.6z
		 M187.5,611.8l-1.2-0.1l-0.6,0.1l-0.6,0.3l-0.6-0.1l-0.3,0.3l-0.3,0.4l-0.1,0.3v0.3l-0.1,0.2l-0.3,0.1l-0.2,0.3l-0.2,0.7v0.2v0.3
		l0.2,0.1l0.4-0.3l0.4-0.5l0.2-0.1h0.1l0.5,0.6l0.3,0.1l0.3-0.2l0.1-0.4V614v-0.4l-0.1-0.5l0,0l0.3,0.4h0.2l0.2-0.2l0.2,0.1l0.2,0.3
		l0.1-0.2l0.1-0.6l-0.2-0.1h-0.2l-0.1,0.1v-0.1l0.9-0.4L187.5,611.8z M186.6,610.4l-0.2-0.1l-0.1-0.1V610h-0.2l-0.3,0.2l-0.1,0.4
		l0.2,0.1l0.3,0.2l0.2-0.1l0.2-0.1l0.1,0.1h0.2L186.6,610.4z M196,609.9L196,609.9l-0.1-0.1l-0.2,0.1l-0.2,0.2l0,0v-0.2l-0.2,0.2
		l-0.1,0.3l-0.1,1h0.3l0.2-0.2l0.1-0.4v-0.3v-0.3L196,609.9z M173.8,616.8l0.2-0.2l0.1-0.3l0.1-0.5l0.1-0.5v-0.5l-0.1-0.6v-0.4
		l0.1-0.4v-0.8l-0.1-0.8l-0.2-0.7l-0.2-0.6l-0.3-0.3h-0.1l-0.1-0.1l-0.1-0.3l-0.1-0.3h-0.3l-0.2,0.5l0.1,1.4v0.5v0.3v0.4l-0.3,0.6
		l-0.3,0.8l-0.1,0.9v0.3h0.2l0.2,0.4v0.9l0.2,0.6h0.2v-0.3l0.7,1.1h0.2l-0.2-0.6v-0.4L173.8,616.8z M197.6,609l0.1-0.1v-0.2v-0.3
		v-0.3l0.3-0.5l-0.5,0.3v0.1l-0.2,0.1l-0.1,0.2v0.3v0.2l0.1,0.2H197.6z M201.1,608.4v-0.3l0.1-0.2h0.1l0.1-0.1l0.1-0.2h0.1v-0.2
		l-0.1-0.1l-0.3,0.2l-0.2,0.3l-0.3,0.3l0.1,0.2l0.1,0.3L201.1,608.4z M193.7,610.1l0.7-1.3l0.1-0.1l0.1-0.2v-0.3l-0.1-0.1v-0.4
		l-0.2-0.6H194l-0.4,0.3l-0.4,0.4l-0.5,0.6l-1.1,0.6l-0.1,0.3l0.2,0.2v0.3l-0.3,0.3l-0.2,0.1H191v0.2l0.2,0.4l0.1,0.3l-0.2,0.1h-0.2
		l-0.1,0.2l0.1,0.4l0.3,0.5l0.3,0.3l0.3,0.1h0.3l0.1-0.2h0.1l0.3,0.1l0.2-0.2l0.2-0.3l0.1-0.2l0.1-0.2v-0.3V611l0.1-0.3l0.1-0.3
		L193.7,610.1z M197,606.8l0.2-0.1l0.1-0.2l-0.3-0.2l-0.3,0.5l0.1,0.2L197,606.8z M199,603.5L199,603.5l-0.1,0.1l-0.1-0.1l-0.3,0.1
		l-0.3,0.7l0.2,0.2l0.3-0.3L199,603.5z M201,603l0.3-0.4l-0.2-0.1l-0.7-0.1l-0.3-0.1l-0.3,0.1l-0.3,0.5l-0.3,0.6l-0.2,0.6l0.2,0.1
		L201,603z M193,602.3v-0.4l-0.2-0.1h-0.3l0.3,0.6L193,602.3z M197.8,601.2l-0.5,0.1l-0.2,0.3l0.1,0.1l0.3-0.1v0.1h0.2L197.8,601.2z
		 M206,599.1l0.1-0.3v-0.2l-0.1-0.1l-0.1-0.2l-0.1-0.2h-0.1h-0.3l-0.1,0.2l0.1,0.3l0.5,0.4L206,599.1z M202.1,599.9l0.3-0.6l0.2-0.3
		l0.2-0.3l0.1-0.3l-0.2-0.2h-0.2l-0.2-0.1h-0.4l-0.5,0.2l-0.5,0.5l-0.3,0.6v0.5l0.2,0.2h0.1h0.1l0.3,0.1l0.3,0.2h0.2l0.1-0.1
		l0.1-0.1v-0.1L202.1,599.9z M195.5,598.4l-1.6-0.5h-3l1.4,0.6l0.4,0.4l0.1,0.3l0.2,0.6l0.1,0.1l1,0.3l1.3,1.2l0.8,0.1l0.7-0.9
		l-1.2,0.1l-0.4-0.3v-1.1l0.6,0.6l0.6,0.1h1.3L195.5,598.4z M205,597.4l0.2-0.1l-0.2-0.1h-0.4l-0.3,0.2v0.2h0.6L205,597.4z
		 M205.6,595h-0.3l-0.3,0.3l-0.2-0.2h-0.2l-0.1,0.3v0.5l-0.1,0.3l-0.1,0.2v0.2l0.1,0.1l0.5-0.2l0.4-0.6v-0.3l-0.2-0.1l0.1-0.1h0.2
		h0.3h0.1v-0.2L205.6,595z M200,594.1h-0.2l-0.1,0.1h-1.1l-0.3,0.2l0.3,0.4l0.1,0.3l0.3,0.4l0.3,0.3l0.2,0.5v0.5v0.3l-0.1,0.2
		l-0.2,0.1l-0.1,0.3l0.1,0.2h0.1l1.1-0.6l0.4-0.4l0.1-0.6l-0.1-0.7v-0.3h-0.1l-0.2-0.1l-0.4-0.6l-0.2-0.2L200,594.1z M188.4,594.5
		l-0.3-0.3l-3-0.8l-0.4,0.2v0.4l0.2,0.3l0.1,0.4l0.2,0.4l0.4,0.4l0.6,0.4l0.6,0.1l0.6-0.2l0.3-0.5l-0.3-0.5l-0.2-0.2h0.5h0.2
		L188.4,594.5z M204.3,593.3l0.1-0.2l-0.1-0.3l-0.3-0.1l-0.2,0.3v0.3l0.2,0.2L204.3,593.3z M206.5,593.8v-0.5l-0.1-0.3l-0.2-0.3
		l-0.4-0.3h-0.3l-0.2,0.3v0.3l0.1,0.1l0.1,0.1l0.3,0.5l0.4,0.3L206.5,593.8z M192.4,592.2l-0.2-0.2h-0.4l-0.3-0.2h-0.2l0.3,1.1
		l0.4,0.2h1.1v-0.3l-1.3-0.4l0,0l0.4,0.1h0.2V592.2z M208.4,591.9l-0.1-0.1l-0.1,0.1l0.1,0.1L208.4,591.9z M206.7,591.6l-0.3,0.1
		l-0.2,0.2v0.2v0.3l0.1,0.3l0.2,0.3l0.2-0.1l0.3-0.5l0.2-0.2l0.1-0.3l-0.1-0.1H207L206.7,591.6z M190.6,591.6l0.5-0.2l-0.2-0.3
		l-0.5-0.4l-0.3-0.1l-0.2,0.2l-0.1,0.2v0.1l-0.1,0.3v0.1v0.2l0.3,0.1L190.6,591.6z M213.6,591.1v-0.3v-0.2v-0.2h-0.2h-0.2v0.1
		l0.1,0.2l0.1,0.3L213.6,591.1z M205.5,591.9l0.4-0.8v-0.4l-0.2-0.3h-0.1l-0.3,0.1l-0.6,0.3l-0.3,0.8l0.3,0.8l0.6,0.1L205.5,591.9z
		 M221.1,590.7l-0.1-0.4l-0.3,0.1v0.2L221.1,590.7L221.1,590.7z M201,589.8l-0.2-0.2h-0.3l-0.2,0.1l-0.1,0.1h-0.1H200l-0.8,0.1
		l-0.5,0.4l-0.2,0.4l0.1,0.2l0.6-0.1l0.2-0.2l0.2-0.1l0.3,0.1h0.5l0.2-0.2v-0.1h-0.2v-0.1l0.6-0.2V589.8z M203.3,588.8v-0.2
		l-0.3-0.1l-0.6,0.1l-0.2,0.1v0.1v0.1v-0.2l-0.2-0.2l-0.9,0.2v0.1v0.1h-0.5l-0.2,0.1v0.2l0.1,0.1L203.3,588.8L203.3,588.8z
		 M212.4,587.4l-0.1-0.1l-0.1,0.3l-0.1,0.1v0.2v0.2h0.1L212.4,587.4z M199.6,585.9v-0.3l-0.3-0.3l-0.5-0.2h-0.6l-0.6,0.2l-0.4,0.3
		l-0.3,0.4l-0.5,0.6l-0.2,0.4l-0.1,0.4l0.1,0.2h0.2l0.1,0.1l0.1,0.1h0.2h0.2v0.1l-0.2,0.1h-0.2l-0.1,0.1l-0.1,0.2v0.3l0,0l-0.2-0.6
		l-0.3-0.1h-0.3l-0.3,0.2l-0.1,0.4l0.1,0.3l0.1,0.2v0.5l0.2,0.5l0.3,0.4l0.1,0.5l0.1,0.4l0.1,0.3h0.2l0.2-0.3l0.3-0.2h0.2v-1.7
		l0.1,0.4l0.2,0.2l0.3-0.2l0.1-0.6l-0.3-1h0.1l0.1-0.1V588h0.1l0.4,0.3l0.3-0.1l0.1-0.5l0.2-0.3l0.3-0.1l0.6-0.7l1.5-0.7v-0.3
		l-1.2,0.3h-0.1H199.6z M209.1,583.6l-0.7,0.2l-0.1,0.2l0.2,0.3l0.6,0.2h0.1l0.5-0.4V584l-0.2-0.2l-0.3,0.1L209.1,583.6z
		 M211.6,583.3l0.1-0.1h0.5l0.3-0.1l0.1-0.1l0,0h-0.1v-0.2v-0.1l-0.8,0.6L211.6,583.3L211.6,583.3z M214.5,581.9l-0.3,0.2l-0.1,0.4
		l0,0L214.5,581.9z M207.2,581.4l0.1-0.1h0.1v-0.2l-0.1-0.2h-0.1l-0.3-0.7l-0.3-0.3l-0.4,0.2l-1.8,2.2l-0.3,0.5l0.1,0.6l0.6,0.3
		l0.3-0.1l0.3-0.1l0.2-0.5l0.4-1.5l0.2,0.2h0.5l0.3-0.1L207.2,581.4z M209.1,580.2h-0.2V580l-0.2-0.2v0.2l-0.1,0.1l-0.2,0.3v0.2h0.2
		h0.3l0.1-0.1l0.1,0.1L209.1,580.2z M202.2,583.9l0.6-0.4l0.2-0.1h0.2l0.1-0.1v-0.2l0.1-0.1l0.6-0.5l0.1-0.1l1.2-1.5l0.5-0.8v-0.4
		l-1.5,1.2l-1,1.2l-0.3,0.4l-0.5,0.6l-0.6,0.4l-0.5,0.3v0.1h0.3L202.2,583.9z M211.8,579.9L211.8,579.9l-0.2-0.2l-0.1-0.2l-0.3-0.1
		l-0.2,0.2h-0.1l0.1,0.2l0.2,0.1l0.3,0.3L211.8,579.9z M212.7,579.5l0.2-0.2v-0.2V579h-0.1h-0.2l-0.1-0.1l-0.1,0.1v0.3v0.3l0.1,0.1
		L212.7,579.5z M212.1,578.7L212.1,578.7L212.1,578.7L212.1,578.7L212.1,578.7z M205.1,579L205.1,579l-0.3-0.2v-0.1v-0.1l-0.2-0.1
		l-0.8,0.3l-0.2,0.3v0.2h0.1l0.5-0.1l0.3,0.3h0.2l0.3-0.2l0.1-0.2V579L205.1,579L205.1,579z M218.3,577.2l0.1-0.3l-0.3,0.3H218.3z
		 M211.7,575.2l0.1-0.2l-0.1-0.1v-0.1l-0.8-0.3h-0.2l-0.1,0.2v0.2l0.2,0.4l0.5,0.2L211.7,575.2z M212.6,574.1l0.3-0.5l0.1-0.3V573
		l-0.2-0.1l-0.4,0.1l-0.4,0.3l-0.1,0.2h0.2l0,0v0.2l0.1,0.1l0.1,0.3H212.6L212.6,574.1z M210.3,573.5l0.2-0.2V573l0.1-0.2l-0.1-0.2
		l-0.4-0.1l-0.3,0.3v0.4l0.2,0.2L210.3,573.5z M207.6,571.6l0.1-0.7v-0.7l-0.2-0.6l-0.3-0.4l-0.3-0.2l-0.3-0.1l-0.2,0.1l-0.3,0.7
		l-1.2,2l-0.3,0.8l0.1,0.4l0.7-0.1h0.2l0.2-0.2l0.1-0.1l0.2,0.1l0.3,0.2h0.4l0.4-0.2l0.3-0.3l0.1-0.3v-0.3L207.6,571.6L207.6,571.6
		L207.6,571.6h-0.2H207.6z M211.2,569.9l0.2-0.1l0.1-0.3v-0.4l-0.1-0.2l-0.4,0.2l-0.2,0.1l-0.2,0.6l-0.3,0.5v0.3l0.1,0.3l0.1-0.1
		l0.1-0.1l0.1,0.1L211.2,569.9z M201.1,556.8l-0.1-0.9l-0.4-0.6l-0.9-0.3l-0.9-0.9l-0.7-0.1l-0.7,0.1l-0.6,0.3l0.2,0.8l0.1,1v1
		L197,558h-0.2l-0.1-0.7l-0.5-1.7l0,0l-1.3,2.3l-0.8,1.1l-0.3,0.7v0.5l0.2,0.3l0.3,0.3l0.2,0.2l0.2,0.2l0.1,0.2l-0.1,0.2l-1,0.6
		l-0.3,0.3l-0.3,0.5l-0.2,0.8v2.2l-0.3,1.1l-0.6,1l-1.2,0.9l-1.8,0.9l-1.6,0.4l-0.9,0.6l-0.6,0.8l-0.7,1.8l-0.4,0.9l-0.5,0.5h-2.1
		l-3.6,2.2l-1.6,0.5l-0.7,0.4l-0.3-0.1l-0.9-0.6l-0.5-0.2l-0.9-0.1h-0.2l-0.2,0.2l-0.3,0.6l0,0l-0.5,0.6l-0.4,0.3l-0.6,0.2h-0.2
		l-0.1,0.2v0.3v0.5l0,0l-0.3,0.6l-0.1,0.8v0.7l0.1,0.5l0.2,0.4l0.4,0.6v0.4l-0.1,0.5l-1.2,2.3l-0.2,0.6v0.4l0,0v0.6v0.7l-0.1,0.6
		l-0.2,0.4l-1,0.9l-0.2,0.3l-0.3,1.2l-0.5,1.1l0.3,0.5v0.4l-0.4,0.6l-0.4,0.3l-0.9,0.1l-0.4,0.1l-0.3,0.2l-0.3,0.4l-0.3,0.6
		l-0.1,1.2v1.4l-0.2,1l-1,1.1l-0.2,0.3l-0.1,0.4v0.5l0.1,0.7v0.6l0.2,0.7l0.3,0.9l0.7,1.7l0.5,4l0.2,0.6l0.2,0.5l0.6,1.1l0.3,0.2
		l0.5,0.1h1.7l1.2,0.2l0.9,0.5l0.7,0.8l0,0l0,0l0.3-0.3l0.3,0.3l0.2-0.7l0.2-1.1l0.3-0.8l-0.4-0.7V611l0.1-1.1l-0.3-1.1l0.5-0.3
		l0.4-0.4l0.3-0.6l0.3-0.8l-0.4-1.7l0.3,0.3l0.3,0.5l0.2,0.5l0.1,0.6l-0.1,0.7l-0.5,1.2l-0.1,0.7l0.9,1.2l0.3,0.2l0.3-0.3l0.1-0.7
		v-1.6l0.1-0.5l0.3-0.4l0.3-0.2l0.3,0.3v0.6l-0.3,1.2v0.2v0.7v1.5l-0.1,1.5l-0.4,0.8v0.4l0.3,0.9l-0.1,1.1l0.1,0.9l0.9,0.4l-0.1,0.3
		l-0.1,0.6v0.6l0.1,0.2l0.2-0.1l0.2-0.3l0.3-0.9l-0.4-0.9l-0.3-1.1v-0.7l0.3,0.3l0.5,1l0.3,0.3l0.4,0.3h0.2l0.2-0.1h0.2l0.3,0.3
		l0.1,0.2l0.2,0.6l-0.2,0.7l0.1,0.6l0.3,0.5l0.3,0.3v-1.5v-0.7l0.1-0.6l0.3,0.3h0.5l0.5-0.3l0.3-0.4l0.3-0.7v-0.4l-0.1-0.4v-0.6
		l0.4-1.2l0.7-1l0.4-0.9l-0.4-0.8l0.3-0.3h0.3l0.6,0.3V611l-0.1-0.6v-0.3l1.4,0.1l0.3-0.3l0.6-1.2l0.2-0.3l0.3-0.2l0.9-0.1l0.3-0.3
		l0.3-0.5l0.3-0.3l0.4-0.1h0.4v0.3l-0.2,0.1l-0.2,0.2l0.3,0.3l-0.3,0.3l-0.7,0.4l-0.3,0.3l0.8-0.2l2.4-1.2l-0.1-0.4l-0.2-0.2
		l-0.3-0.1l-0.3,0.1l0.4-0.6l0.9-0.5l1-0.3l0.6,0.1l0.3,0.3l0.3-0.2l0.2-0.5l0.1-0.6l-0.1-0.5h-0.3l-0.7,0.3V604l0.1-0.2l0.1-0.2
		v-0.2l0.1-0.2l-0.5,0.3l-0.3-0.4l-0.1-0.6l-0.2-0.3h-0.4l-0.6-0.2l-0.4-0.4V601l0.6-0.1l2.4,2l-0.4-0.9l-0.6-0.8l-0.7-0.5l-0.6-0.2
		l-1.5-0.9l-0.2-0.6l0.3-0.3h0.9v-0.3l-0.2-0.4l-0.3-0.4l-0.3-0.3l-0.3-0.2l0.4-0.5l0.4-0.4l0.5-0.2h0.5v0.2l-0.8,0.8v0.3l0.7,0.3
		l2.1-0.3h0.3l0.7,0.3l0.3,0.3l0.4,0.3l0.4-0.1l0.4-0.2l0.4-0.1l1.4-0.1l0.5-0.3l0.2-0.8l-0.3-0.9l-0.8-0.5l-0.9-0.3l-0.6-0.3
		l0.5,0.1l0.5,0.2h0.4l0.3-0.6l-1.8-1v-0.2l-0.1-0.7v-0.2l-0.7-0.6l-0.7-0.3l-1.5-0.1l0.3,0.9l0.5,0.5l1,0.7h-1.2l0.2,0.7l0.7,1.7
		l-0.3,0.6l-0.3,0.1l-0.8-0.3l0.1-0.2l0.3-0.4l0.1-0.2l-1.5-0.8l-1.8-0.3l-1.6,0.7l-0.9,2.2h-0.2l-0.2-0.6l-0.3-0.1l-0.6,0.4h-2V596
		l0.4,0.1l0.9-0.2l-3.6-3.5l0.3,0.1l0.6,0.4l0.3,0.1l0.3-0.1l0.9-0.6l-0.2-0.4l-0.2-0.6v-0.6l0.3-0.3l0.2-0.1l0.3-0.5l0.1-0.1
		l0.2,0.1l0.3,0.5l0.2,0.1l0.3-0.2l0.6-0.6l0.3,0.1l0.1,0.3l0.1,1l0.1,0.4l-0.3-0.3h-0.3l-0.3,0.1l-0.3,0.2l0.8,0.8l1.5,0.5h1.5
		l0.8-0.6h-0.5l-0.6-0.2l-0.4-0.4l0.2-0.7l-0.4-0.4l-0.5-0.3l0.3-0.1l0.7,0.1l0.3-0.3l-0.9-0.7v-0.3l2,0.2l0.9-0.2l0.9-0.8l1.2-1.6
		l0.7-0.6l1.5-0.6l1.5-1.5l1.1-0.5l0.6-0.7l0.3-0.2l0.3-0.3l-0.2-0.6l-0.5-1h0.3l0.3,0.3l0.2,0.3l0.3,0.1l0.3-0.2l0.3-0.4l0.3-0.5
		l0.2-0.4h-1.2l0.2-0.2l0.2-0.3l0.1-0.3v-0.5l0.2-0.1h0.9v-0.7l0.6-0.6l1.9-0.6l0.6-0.4l0.6-0.7l0.3-0.9l0.2,0.3l0.3,0.8l0.3,0.4
		l0.4,0.2h0.5l1.6-0.5l0.6-0.4l0.4-0.7l0.3-1.2l-1.1-0.6l-6.6,0.3l-1,0.5h-0.5l0.1-0.7l0.4-0.4l0.6-0.1h1.2l0.6-0.1l0.5-0.4l1.6-2.5
		l0.3-0.8l-0.1-0.9l-0.9-1.6l-0.3-0.7l0.8,0.4l0.8,1.1l1.9,3.1l0.3,0.3l0.9,0.1v-0.4v-2.1l0.1-0.7l-0.4-0.2l-0.5-0.1v0.2l0.1,0.6
		v0.3h-0.3l-0.2-0.2L208,567v-0.1v-0.4v-0.1l-0.1-0.1l-0.4-0.4l-0.6-0.4l-1.1-0.4l-0.5-0.7l-0.9-2.4l-1.1-3.9l-0.1-0.6v-0.9l0.1-0.8
		l-0.1-0.2l-0.3-0.2l-1,0.6l-0.3,1.5l0.3,1.4l0.5,1.3l0.4,1.3l-0.2-0.6l-1.1-1.7l-0.2-0.7L201.1,556.8z M202.2,552.8l0.1-0.1v-0.3
		l-0.2-0.3l-0.3-0.1l-0.2-0.2l-0.1-0.4l-0.2-0.3l-0.4-0.3l-0.5-0.1l-0.2,0.2l0.4,0.6v0.2h0l-0.1,0.1l-0.1,0.3v0.3v0.5l0.2,0.6
		l0.1,0.3l0.3,0.1l0.6,0.1l0.6-0.2l0.6-0.4V553l-0.2-0.4l-0.1-0.1l-0.1,0.1L202.2,552.8L202.2,552.8z"/>
	<path id="SE-I" class="st1" d="M202.2,670.4L202,670v-0.5v-0.2l-0.1-0.1l-0.1-0.1v-0.3v-0.2l0.1-0.2v-0.2v-0.3l-0.3-0.9l-0.4-0.6
		l-0.5-0.3l-0.6,0.1l-0.6,0.3l-0.5,0.6l-0.4,0.8l-0.4,0.9l-0.1,0.5L198,670l-0.2,0.3l-0.3,0.3l-0.4-0.1l-0.4-0.2l-0.4-0.1l-1.3,0.6
		l-0.9,1.2l-3.6,6.3l-4.2,4.6l-0.9,1.5l-0.4,1.8v1.1l0.2,1.1l0.3,0.9l0.3,0.6l0.1,0.3v0.6v0.3l0.3,0.5l0.1,0.2l0.2,0.3l0.3,0.2
		l0.1,0.3l-0.3,0.6l0.1,0.7l-0.1,1l-0.3,0.9l-1,0.8l-0.4,0.9v0.9l1.6,1.4l0.6,4.1l1.1,0.5l-0.1,0.3l-0.1,0.5l-0.1,0.3l0.3,0.3v0.6
		l-0.3,0.6l-0.3,0.4v0.3l0.6,0.3l0.6-0.5l0.6-0.7l0.6-0.4l-0.2,0.6l-0.2,1.3l-0.2,0.6l-0.4,0.3l-0.9,0.3l-0.3,0.4l0.1,0.6v0.5v0.4
		l-1.7,3l0.8,0.5l0.9-0.1l2.4-1.2l0.3-0.3l0.3-1l0.3-0.4l0.7-0.6l-0.3-0.3v-0.3h1.4l-0.9-0.3l-0.4-0.3l-0.3-0.6l0.2-2.4l0.4-0.6
		l1.8-1l0.6-0.5h-1.8l0.5-0.7l0.6-0.6l3.2-1.8l0.6-0.2v-0.3h-0.3v-0.3l0.7-0.4l2.3-0.6v-0.2l0.9-0.5l-0.1-1.5l-0.2-0.2l-0.6,0.1
		l-0.2-0.1l-0.2-0.9l0.3-0.6l1-0.9l0.6-0.9l0.7-0.8l0.8-0.6l0.9-0.2l0.2-0.1l0.3-0.5l0.1-0.1h0.2l0.3,0.2h0.1h0.8l0.4-0.3l0.1-0.6
		l-0.1-0.6l-0.2-0.5l-0.2-0.3l-0.1-0.2l-0.4-0.3l-0.3-0.2l-0.1,0.2v0.3l-0.1,0.2l-1-0.2l-1-0.4l0.2-0.7l0.1-0.3h-0.5l-0.3-0.2
		l-0.1-0.5l0.2-0.8l-0.4-0.5l0.2-0.6l0.4-0.7l0.2-0.6v-0.8l0.1-0.7l0.2-0.6l0.3-0.8l-1.1-0.3l-0.2-0.1v-0.5l0.1-0.4l0.1-0.3l0.1-0.5
		l0.5-1.2l0.3-1.7v-0.5l-0.1-0.4v-0.3l0.3-0.1l0.3,0.1l0.6,0.5l0.3,0.1h0.9l1-0.3l-0.2-0.6v-0.6l0.2-0.5l0.3-0.4V673l0.2-0.1
		l0.3,0.3l0.3,0.4l0.1-1.8l0.7-0.7l1.8-0.2l-0.2-0.4l-0.7-1.3l-0.3-0.3l-0.4-0.2l-0.3-0.5l-0.2-0.6l-0.1-0.5l0.2-0.3l-0.3-0.2h-0.5
		l-0.5,0.2l-0.4,0.3v0.6h-0.6l-0.5-0.5l0.4-0.9V666l-1.6,0.3l-0.3,0.1v0.3l0.2,0.4l0.1,0.3l-0.2,0.9l-0.4,0.5l-0.4,0.6l-0.2,1.2
		L202.2,670.4z M213.6,663.1l-0.4,0.3h-0.5l-0.4-0.1h-0.2l-0.4,0.4h-0.9l-0.4,0.2l-0.3,0.4l-0.2,0.5l-0.1,0.5l-0.2,0.5l-0.6,0.7
		l-0.2,0.3l-0.1,0.6l0.9,1.8l0.3,0.4l0.3,0.3l0.4,0.2l0.4,0.1v-0.3l0.8-1.4v-0.4v-0.3l-0.2-0.3l-0.3-0.3l0.6-0.9l1.1-0.4l0.5-0.6
		l0.6-0.3l1.2,0.4l0.4-0.6h0.2h0.2l0.2-0.1l0.2-0.2l-0.4-0.4l-0.4-0.2h-0.9l-0.9,0.3l-0.3-0.1L213.6,663.1z M215.4,645.4l1-0.9
		l-0.7-0.6l-1.5-0.3l-0.7-0.4h-0.9l0.7,2l0.9,0.6L215.4,645.4z"/>
	<path id="SE-AC" class="st1" d="M218.5,373.4V373v-0.1l-0.1-0.2l-0.1,0.4v0.3v0.3L218.5,373.4z M221.2,372.9l-0.4-0.5l-0.2-0.4
		l-0.1-0.2l0.1,0.8l0.2,0.5v0.1h0.1v0.1l0.1,0.3l0.4,0.3l0.2-0.6L221.2,372.9z M231.1,370.6l-0.3,0.3l0.1,0.6l0.1-0.2l0.2,0.1
		L231.1,370.6z M230.6,367.8l0.2-0.5l-0.1-0.5l-0.2-0.6v0.6v0.5l-0.1,0.1l0.1,0.3l0.1,0.6V367.8z M254,364v-0.2l0.1-0.3v-0.3
		l-0.2-0.1l-0.2,0.2v0.3l-0.1,0.5l0,0l-0.1-0.3h-0.1l-0.1,0.3v0.3l0.3,0.3l0.4-0.2l0.2-0.2v-0.1L254,364z M240.4,360.7l0.4,0.7
		l0.1-0.3l-0.1-0.3l-0.2-0.1l-0.1,0.1L240.4,360.7z M255.6,361.7l0.3-0.4l0.2-0.5l0.2-0.6v-0.4h-0.1l-0.9,1.4v0.6L255.6,361.7z
		 M248.8,356.4l-0.2-0.7l-0.1,0.3l-0.2,0.2v0.4h0.1l0,0l0.1,0.1l0.2,0.4L248.8,356.4z M257.3,358.7l0.4-0.5l0.3-0.7l0.1-0.7v-0.6
		v-0.5l0.1-0.4l0.2-0.3v-0.3l-0.1-0.3v-0.2l0.1-0.2v-0.1l-0.3,0.1l-0.5,0.5l-0.3,0.5l-0.2,0.1l-0.3,0.3l-0.2,0.4l-0.5,2.9l0.1,0.6
		l0.4-0.4h0.2h0.2L257.3,358.7z M248.5,354l0.2-0.2l0.2-0.1l0.1-0.4l-0.1-0.3h-0.1l-0.2,0.6L248.5,354L248.5,354z M257.6,354.1
		l-0.4-1.2l-1-0.2l-0.6,1.7l0.3-0.3l0.3-0.1l0.3,0.2l0.2,0.6l-0.2,0.4L257.6,354.1z M251.9,352.4l0.1-0.1V352l-0.3,0.1v0.3v0.3l0,0
		L251.9,352.4z M259.9,352.4l0.1-0.1v-0.4v-0.1l-0.3,0.2l-0.1,0.6L259.9,352.4z M262.8,329.3h-0.3l0.4,0.4h0.1L262.8,329.3z
		 M272.9,305.2V305l-0.2-0.2v0.5l0.2,0.1l0,0V305.2z M263.7,299.6l-0.1-0.3V299l0.1-0.3v-0.4l-0.3-0.3h-0.3l-0.1,0.3v0.3v0.3
		l0.2,0.5v0.2l0.2,0.2l1.5,0.8l0.2-0.1h0.1v-0.2l-0.1-0.5l-0.2-0.4l-0.3-0.3l-0.3,0.2l-0.2,0.4L263.7,299.6z M267.4,288.3V288v-0.4
		l-0.2-0.4V287l-0.5-0.5h-0.2l-0.1,0.2v0.4l0.1,0.6l0.3,0.4l0.3,0.4l0.3,0.1L267.4,288.3z M214.3,267.4l-0.2-1.9l-0.3-1.1l-0.7-0.9
		l-1.5-1.2l-2.7-0.8l-1.4-2.1l-4.3-2.1l-1.5-1.7l-0.1-0.2l-0.7-1.6l-0.3-0.4l-0.5-0.2l-3.6-0.2l-0.9-0.5l-1.6-1.9l-2.7-0.8l-1.5-0.9
		l-1.4-1.4l-1.2-1.8l-0.6-1.2l-0.5-0.1l-9.9-4.7l-8-6.2l-15.3-15.9l-9.9-4.5l-16.4-12.8l-9.4-4.8l-0.6-0.3l0.2,0.9l0.2,2.1v1.3
		l-0.3,0.9l-11.1,7.8l-6.6,0.9l-6.6,0.9l2.7,18l0.1,2.6l-0.3,1.3l-1.8,4.1l-0.3,1l-1.3,14.8v3l0.2,3.3l-0.1,2.9l-0.8,1.8l-2.1,2.1
		l-0.5,0.9l-0.4,1.5l-0.7,5.7l-0.1,0.5l0.2,0.2l0,0l9.5,6.9l1.4,1.7l0.5,0.7l0.4,0.8l0.3,0.7l2,3.6l0.3,0.3l0.5,0.3l1.3,0.5l1,0.6
		l0.5,0.4l0.6,0.8l0.3,0.9l0.5,2.2l0.4,0.9l0.3,0.3l0.3,0.1l1.5,0.1l1,0.6l1.1,0.9l0.4,0.5l0.3,0.5l0.2,0.5l0.8,1.1l0.6,0.4l0.5,0.5
		l0.1,0.2l-0.2,0.3l-1.6,0.9l-0.2,0.5l0.3,0.5l0.6,0.5l0.4,0.5l0.5,0.8l4.3,3.9l0.7,0.9l0.4,0.6l0.1,0.3l0.1,0.3l0.2,1l0.3,1.1
		l0.2,0.3h0.2l0.6-0.3l0.3-1.7l0.2-0.6l0.4-1l1-0.2l0.5,0.7l0.3,0.7l0.2,2.4l0.3,1.3l0.6,1.1l5.1,4.4l1,1.4l0.6,2.3l0.5,1.2l0.4,0.4
		l1.8-0.6h1l0.8,0.3l1,0.7l12.5,14.1l1,1.2l3,2.2l21.5,4.2l16.4-5.5h1.7l1.1,0.7l0.2,0.8l0.1,0.6l-0.1,0.3l-0.2,0.2H193l-0.1,0.2
		l0.1,0.5l1.6,3.2l0.1,0.5l0.2,0.3l0.4,0.4l1.5,1l0.6,0.2l1.9-0.1l0.4,0.1l1.3,0.8l1.2,0.4l0.5,0.3l0.6,0.8l0.6,0.3l0.5,0.1h1
		l0.6,0.3l0.6,0.6l0.3,0.9v0.5v0.4l0.2,0.3l1.3,0.6l0.6,0.6l0.9,1.2l3.3,5.9l2.8,7.5v0.4l0,0l0.4,0.6l0.5,0.5l0.6-0.3l-0.7-1.9V371
		l0.7,0.4l2.1,2.8l0.9,0.8l0.5,0.3l0.2-0.2v-0.6l-0.1-0.4l-1-1.6l-0.3-0.5l0.1-0.2h0.4l0.3-0.2l0.7-0.5l-0.7-1.1l-0.7-0.2l-0.3-0.5
		l0.4-1.5l-0.6-0.3l-0.3-0.2l-0.3-0.3l0.7-0.7h0.6l0.6,0.5l0.5,0.9l0.3,0.4l1.4,0.6l0.7,1l0.3,0.2v0.2v0.4v0.2l0.6,0.4l0.1,0.5
		l-0.1,0.6l0.1,0.8l1.2,0.8l0.3-0.1l0.6-0.6l0.3-0.5l0.2-0.3l0.6-0.2l0.1-0.2l-0.1-1.3l-0.4-1.5l0.1-0.6l0.9-1l1.1-0.9l0.9-1
		l0.4-1.5l0.2-0.2l0.9-0.6l0.4-0.4h0.4l2,1l-0.4-1.2v-0.6l0.2-0.8l0.4-0.6l0.5-0.4l0.5-0.2l0.5,0.1l0.2,0.2l0.1,0.3l0.2,0.6l0.3,0.3
		l0.3-0.1l0.3-0.3l0.3-0.1l1.7-0.1l0.6,0.1l-0.2-1.3l0.3-1.5l0.5-1.2l0.5-0.8v0.7l-0.1,0.8l-0.2,0.8l-0.2,0.6v0.6l0.3,0.7l0.4,0.4
		l0.3-0.1l0.3-1.5v-3.6l0.2-0.8l0.3,0.2l0.3,0.7l0.3,0.8v0.6l-0.2,0.9v0.7l0.3,0.5l0.5,0.2l0.3-0.2l0.3-0.5l0.3-0.6l0.2-0.6v-0.3
		l-0.2-1.3v-0.5l0.1-0.3v-0.3l-0.1-0.5l0.6,0.4l0.5-0.6l1.2-2.9h0.1l0.6,0.7l0.3,0.5v0.5l-0.3,0.6l0.3,0.3l0.3-0.1l0.2-0.5l0.1-0.8
		l1.2-1.4l0.5,0.1l0.3,0.4l0.6,1.4l0.3,0.1l0.3-0.6l0.6-1.4l-0.4,0.1l-0.4-0.1l-0.2-0.4l0.1-0.8l0.3-0.3l1.2-0.1l1.2-1.2l0.3-0.6
		l0.5-1.9l0.5-2l0.4-0.9l0.6-0.3l0.1-0.1l0.1-0.3l0.2-0.3l0.3-0.1l0.2-0.3l0.1-0.6v-1.2l0.1-0.3l0.1-0.1h0.1v-0.2v-0.2v-0.3v-0.2
		v0.1l0.1-0.7v-0.3v-0.3l1-2.2l0.2-1.1l-0.3-1l0.5-1.2l2-2.5l0.6-1.8l0.2-0.3l0.1,0.1l0.8,0.3l0.1-0.1l3.3-5.1l0.2-0.1l0.2,0.2
		l0.4,0.2h0.4l0.7-0.6l0.4-0.2l-0.1-0.3v-0.2l-0.1-0.2l-0.2-0.2l0.1-0.5v-0.5v-0.5l-0.1-0.5l0.4,0.5l0.5,0.9l0.6,0.6l0.6-0.6
		l0.5-0.8l1.1-1.1l1.5-2.6l0.3-0.4l0.6-0.4l0.3-0.4l0.3-0.3h0.3l0.3-0.1l0.2-0.6v-0.8l-0.2-0.6l-0.3-0.3h-0.3l0.2,0.9l-0.5-0.3
		l-0.5-0.1l-0.2,0.2l-0.3,0.9l-0.3,0.2l-0.5-0.1l-0.3-0.4l-0.3-0.7l0.3-0.9v-0.4l-0.2-1l-0.1-0.3l-0.3-0.1l-1.6,0.2l-0.3,0.2
		l-0.3,0.3l-0.3-0.3l-0.5-1.1l-0.3-0.1l-0.2-0.1l0.1-0.4l0.2-0.2h0.2l0.2,0.2l0.1,0.4l0.3,0.6l0.7-0.5l1.2-1.2l0.2,0.2l0.6,1.2
		l0.4,0.2l0.4-0.1l0.3-0.3l0.3-0.4h-0.5l-0.4-0.2l-0.3-0.4l-0.3-0.7v-1.4l-0.1-0.3l-0.2-0.3h-0.3l-0.3,1.5l-0.5-0.5l-0.6-1.1
		l-0.5-0.8l-0.5-0.3l-0.1,0.2v0.6l-0.2,0.7h0.1v0.3l-0.1,0.3l-0.3,0.2l-0.3-0.2l-0.3-0.9l-0.2-0.2l-0.1-0.2l-0.2-0.8l-0.1-0.3
		l-0.3-0.2l-0.3-0.1h-0.6l-0.5-0.3l-0.3-0.6V302l0.5-0.1l-0.5-1l-0.8-0.3l-0.9-0.1l-0.7-0.3l-0.5-0.7l-0.3-1v-1l0.3-0.8l0.6-0.2
		l0.6,0.7l0.5,0.9l0.6,0.4l0.6,0.3l1.2,1.4l0.7,0.3v-0.4l-0.3-0.4l-0.1-0.5l0.2-0.3h0.4v-0.4l-1.2-1.1l-0.6-0.8l-0.4-1l0.5-0.2
		l1.3,0.1l0.3-0.3l-0.2-0.9l-0.6-0.5l-1.7-0.8l-1.6,0.5h-1l-0.5-0.2l-0.5-0.6v-0.3l0.1-0.6l-0.8-0.3l-0.3-0.3l-0.1-0.8l0.1-0.9
		l0.3-0.6l0.4-0.3l0.4,0.2l0.1,0.5v0.7l0.2,0.6l0.4,0.3h0.5l0.9-0.4l0.4-0.4l-0.2-1.1l0.5-0.5l0.5-0.6l-0.3-1.6l0.3-0.1l0.3-0.4
		l0.3-0.5l0.2-0.4l0.1-0.6l-0.1-0.4l-0.2-0.3v-0.5l0.3-0.2l3.2-0.2l0.4-0.4l-0.4-0.6l0.1-0.6l0.4-0.5l0.4-0.4l0.1-0.2l0.1-0.3v-0.3
		v-0.2h0.3l0.5,0.3l0.3,0.1l0.3-0.1l0.8-0.7l-0.2-0.3l-0.5-0.9l-0.3-0.9l0.3-0.4h2.2l0.5-0.4l0,0l-0.9-0.5l-7.3-5.4l-29.8-9.1
		l-10.7,3.8l-1.9,2.6l-3.2,2.2l-1.5,0.6l-0.7,0.2l-0.5-0.2l-0.4-0.4v-0.1v-0.1v-0.2v-0.2v-0.2l-0.1-0.2l-0.3-0.3l-0.2-0.1l-0.6-0.4
		l-0.1-0.2l-0.9-0.3h-0.7L214.3,267.4z"/>
	<path id="SE-Y" class="st1" d="M174.4,444.6l0.3-0.3v-0.1v-0.1l0.5-0.7l0.1-0.3v-0.2l-0.1-0.2l-0.4-0.3l-0.6-0.1l-0.4,0.4l-0.2,0.6
		l0.1,0.8l0.3,0.6L174.4,444.6z M179.2,426.5l-0.2,0.1v0.1L179.2,426.5z M184.5,418.5l0.1-0.4l-0.3-0.3l-0.3-0.1v-0.2l-0.2-0.2
		l-1.3,0.2l-0.2,0.2l-0.2,0.3l0.1,0.2l2.1,0.9L184.5,418.5z M184.3,413.2l-0.3-0.3l-0.5-0.2l-0.6,0.2l-0.3,0.5l-0.1,0.6l-0.3,0.7
		l-0.3,0.9l0.6,1.2l1.3,0.3l1.2-0.5l0.1-0.3L185,416l-0.2-0.2l0.1-0.3h0.3h0.3l0.1-0.2V415l0.2-0.6l0.1-0.8v-0.4l-0.3-0.2l-0.6-0.1
		l-0.6,0.4L184.3,413.2z M187.3,412.8l0.5-0.8l0.3-0.3v-0.4h-0.3l-0.2,0.3l-0.4,0.7l-0.1,0.3l0.1,0.4L187.3,412.8z M182.1,412.5h0.2
		l0.2-0.2l0.1-0.4l-0.1-0.4l-0.3-0.3L181,411v0.3l0.1,0.5l0.6,1l0.2,0.1L182.1,412.5z M189.8,408l-0.1-0.3v0.4l0.1,0.3V408z
		 M179,405.1l0.3-0.5v-0.3H179l-0.2,0.1l-0.1,0.1v0.3l0.1,0.3H179z M198.7,399.8l0.2-0.3l0.1-0.5v-0.6V398l-0.2-0.1l-0.6,0.7v0.3
		l-0.2,1.2l0.2,0.3L198.7,399.8z M195.2,397.9l0.2-0.3l0.6-0.4l0.1-0.2l0.1-0.5l0.2-0.4l0.2-0.1l-0.1-0.3h-0.3l-0.2-0.1l-0.1-0.3
		l-0.9,0.6l-0.2,0.4v0.5l0.1,0.3v0.2h-0.1v0.1l0.1,0.3l0.2,0.3L195.2,397.9z M198,395.7l0.1-0.2l0.1-0.3l0.1-0.3v-0.3l-0.3-0.2
		l-0.3,0.3l0.1,0.7L198,395.7L198,395.7z M201,394.9v-0.5V394v-0.2l-0.1,0.1v0.3v0.4L201,394.9l0.1,0.2v-0.2H201z M201.8,391.6
		l-0.2-0.3v0.5l0.2,0.3V391.6z M203,391v-0.3l-0.9-0.2l-0.1,0.2l0.1,0.3l0.1,0.2l0.2,0.1L203,391z M199.6,391.2v-0.5l-0.1-0.3
		l-0.1-0.3l-0.2-0.1l-0.2,0.3v0.5l0.2,0.2l0.3,0.2L199.6,391.2z M203.8,390.4l0.6-0.7l-0.4-0.1l-0.5,0.5l0.1,0.3L203.8,390.4z
		 M205.2,388.3v-0.1l0.2-0.1l-0.1-0.3l-0.5,0.1l-0.1,0.3L205.2,388.3L205.2,388.3z M212.6,383.5v-0.3l-0.3-0.4l-0.3,0.1l0.2,0.3
		L212.6,383.5L212.6,383.5z M153.4,343.1l-3-2.2l-1-1.2l-3,9.8l-0.3,3.4l-0.7,3.3l-1.7,1.3l-1.1,0.5l-5.8,0.9l-2.6-0.6l-1.5,0.4
		l-2.4,1.3l-1.9,0.6l-0.6,1.4l1.4,2.8l0.6,1.8l0.4,2.7l0.1,1.3l0.3,1.8l0.7,0.7l1,0.4l1.2,1.3l1.2,2.4l20.4,22.1l-0.1,0.8l-6.3,2.1
		l-1.7,1.1l-5.6,7.7l-1.3,2.4l-1,0.9l-1.1,0.4l-11.1,0.8l-7.2,3.2l-11.3,2.8l-4.6-0.4l-3.4,0.5l-0.7,0.5l-0.3,0.5l0.1,0.4l0.1,0.3
		v0.3v0.3v0.3v0.3v0.3l0.3,0.6l0.2,0.4l0.3,1.5l0.3,0.9v0.4l-0.2,0.4l-0.5,0.3l-0.3,0.5l0.3,1.6l1.2,1.2l1.5,2.8l1.2,1.4l1.7,1.7
		l1.6,0.8l1.7,0.5l2-0.8l2.3,0.3l4.5-3.7l1.3-0.5l1.2,0.2l15.1,5.3l7.2,0.6l13.6,3.9l5.1,0.1l1.2,0.5l6.3,1.2l0.1-0.2l0.2-0.7v-0.5
		l-0.1-0.8v-0.9l0.1-0.8l0.3-0.5l0.4-0.4l0.5-0.1l0.4,0.3l-0.7,1.4l0.1,0.3l0.6-0.2l2.1-1.5l-0.5-0.5l-0.9-0.5l-0.9-0.3l-0.5,0.3
		l-2.2-1.3l0.3-0.3l0.2-0.1h0.3V439l-0.3-0.3l-0.2-0.5l-0.2-0.6l-0.2-0.5l-0.4-0.5l-0.3-0.1l-0.8,0.2l-0.3-0.3l-0.3-0.6l-0.2-0.7
		v-0.6l0.1-0.7l-0.2-0.6l-0.3-0.5l-0.3-0.3h0.3h0.3l0.3-0.1l0.2-0.3v-0.3v-0.5v-0.5v-0.2l-1.2-1.9v-0.9l0.3-0.6l0.4-0.3l0.5-0.1
		l0.4-0.3l0.3-1.4l0.5-0.3l0.3,0.3l1.1,1.8l1.2,2.3l0.1,0.1l0.5,0.8l0.3,0.3l0.4,0.2l3.4,0.2l-0.3-0.7l-0.5-0.3l-0.4-0.3v-0.9
		l0.3-0.6l0.6-0.5l1.1-0.5h1.3l0.3,0.2l0.4,0.8l0.3,0.2l0.5-0.2l0.5-0.6l0.8-1.5l-0.4-0.8l0.6-0.3l0.2-0.2l0.1-0.5v-0.4v-0.5
		l0.3-1.8l0.1-0.4l0.2-0.2h0.3l0.1,0.2v0.3l0.2,1.7v0.7l0.2,0.2l1.9-1.8l0.6-0.2l-0.3-0.3l-0.2-0.3l-0.1-0.5v-0.6l-3.9-1.8l-0.5-0.7
		h1.6l0.3,0.1l0.6,0.5l0.2,0.1h0.3l0.3-0.1l0.1-0.3l-0.1-0.6V417l0.3-0.9l0.1-0.6l-0.2-1.1l-0.9-1.4l-0.2-0.6v-1.1l-0.1-0.2
		l-0.3-0.5l-0.3-0.3l-1.1-0.8v-0.4l0.4-1l-0.3-1.8l-0.6-1.8l-0.5-1.1l-0.8-1.2l-3.2-2.9l0.4-0.3l0.4,0.3l0.4,0.5l0.5,0.3l0.4-0.2
		l0.8-0.9l0.6-0.1l-0.3,0.9l-0.2,0.3l0.3,0.2l0.3,0.3l0.3,0.4l0.2,0.5l0.5,2.1l0.2,0.4h0.4l0.4-0.3h0.3l0.1,0.9v0.3l-0.3,0.5v0.3
		v0.3l0.3,0.5v0.2v2v0.5l0.2,0.3l0.4,0.3l0.4,0.2l0.2-0.2l0.3-0.8l0.8-0.9l0.9-0.6l0.6-0.2v0.1l0,0v0.1v0.1l0.3,0.6l0.5,0.3l1.1,0.5
		l-0.6,0.9l-2.3-0.3l-0.6,1l1-0.1l0.5,0.1l0.4,0.4l-0.1,0.2l-0.1,0.5l1.1,0.2l0.5-0.1l0.5-0.5l0.3-0.6l0.2-0.7l0.3-0.4l0.4,0.2
		l-0.1,0.2l-0.2,0.4l-0.1,0.4v0.4l0.3,0.3l0.3-0.3l0.3-0.5l0.3-0.3l0.5-0.3l0.4-0.6l0.6-1.8l-0.5-0.4l-0.9,1.1l-0.6-0.3l0.2-0.5
		l0.1-0.5v-0.4l-0.3-0.2v-0.3h1.2l-0.1-0.6v-0.2h0.5l0.4,0.4l0.9,1.2v0.3v0.3l0.1,0.2l0.2,0.1h0.4l0.5,0.2h0.3l0.6-0.3l0.3-0.2
		l0.2-0.3l0.2-0.2l0.6-0.2l0.3-0.2l0.2-0.4l0.1-0.5l-0.3-0.6l-1.2-0.6l-0.4-0.8l1.9,0.5l1-0.1l0.3-1.2l-0.3-0.4l-0.5,0.1l-0.9,0.4
		l-0.4-0.2l-1.2-1l0.3-1.1l0.4-0.3l1.5,0.9l0.7,0.2l0.6-0.3l0.2-1.1h0.2l0.3,0.9l0.4,0.3l0.2-0.3l-0.2-0.9l-0.5-0.7l-0.7-0.3
		l-6.7,0.1l-0.6-0.6l1.5-0.4l0.6-0.4l0.4-0.6v-0.1V397v-0.3v-0.2l0.2,0.1l0.1,0.2l0.2,0.6l0.1,0.1l1.7,0.3l-0.3-0.7l-0.4-0.5
		l-0.9-0.7l0.4-0.4l0.4-0.1l0.4,0.1l0.4,0.3l0.9,1.4l0.3,0.2l0.2-0.3l0.2-1.4l0.2-0.3l0.3-0.1l1.2-1h-0.9l0.4-0.5l0.2-0.6l0.1-0.6
		l0.2-0.6l0.6-0.5l0.5,0.2l0.5,0.4l0.6,0.2l0.4-0.2v-0.6l-0.1-0.7l-0.2-0.6l-0.3-0.6l-0.5-0.5l-0.6-0.3H197v-0.4h1.2l3.7,1.2
		l-0.1-0.5l-0.6-1.5l-0.1-0.6v-0.6l-0.2-0.5l-0.3-0.4l0.7-0.3l2.4,0.7v0.4h-1.3l-0.6,0.3l0.1,0.9l0.1,0.8l0.3,0.5h0.4l0.4-0.6V388
		l-0.1-0.6h1.7l0.8-0.3l0.5-0.8l-4.1-1.8l-0.5-0.6l0.4-0.4l0.5-0.2l1.1,0.1l1.5,0.6l0.3-0.2l-0.2-0.9l0.3-0.2l0.5,0.3l0.4,0.6
		l0.3,0.3l0.5,0.3l0.3,0.4l-0.1,0.8l0.2,0.4l0.5,0.6l0.2,0.3l0.1,0.1l0.7,1l0.1,0.2h0.4l0.2-0.3l0.1-0.5l0.2-0.6l0.3-0.3h0.3
		l0.3-0.1l0.2-0.7l-0.6-0.1l-0.8-0.3l-0.4-0.7l0.5-1.2l1,1.3l0.5,0.1l0.4-0.9H211l0.3-0.6l0.5-1.3l0.3-0.4l-0.4-0.7l-0.2-0.2
		l0.6-0.6l1.3-0.4l0.6-0.9l0.1,1l0.3,0.2l0.3-0.4l0.3-0.8v-1.8v-0.5l0.1-0.9v-0.6v-2.1l0.1-1l0.3-0.4l0.5,0.3l0.1,0.2l0,0v-0.4
		l-2.8-7.5L210,358l-0.9-1.2l-0.6-0.6l-1.3-0.6l-0.2-0.3v-0.4v0.1l-0.3-0.9l-0.6-0.6l-0.6-0.3h-1l-0.5-0.1l-0.6-0.3l-0.6-0.8
		l-0.5-0.3l-1.2-0.4l-1.3-0.8l-0.4-0.1l-2,0.3l-0.6-0.2l-1.5-1l-0.4-0.4l-0.2-0.3l-0.1-0.5l-1.6-3.2l-0.1-0.5l0.1-0.2h0.9l0.2-0.2
		l0.1-0.3l-0.1-0.6l-0.2-0.8l-1.1-0.7h-1.7l-16.4,5.5L153.4,343.1z"/>
	<path id="SE-BD" class="st1" d="M275.4,274.6l-0.5-0.4l-0.5,0.5l0.1,0.4v0.2l0,0v0.1l0.1,0.1l0.3-0.1l0.1-0.2h0.2l0.4,0.1
		L275.4,274.6z M278.5,272.9l0.2-0.5h-0.1l-0.2-0.3l-0.4-0.4l0.3,0.6v0.3l-0.2,0.3h0.1H278.5z M277.6,272.6v-0.3l-0.2-0.4l-0.5-0.7
		l-0.3,0.2v0.2v0.4l0.3,0.3l0.3,0.3L277.6,272.6L277.6,272.6z M284.3,269.1l-0.3-0.2h-0.4l-0.1,0.2l0.3,0.2l0.5,0.2V269.1z
		 M282.8,268.7l-0.5-0.6v0.4l0.3,0.3l0.4,0.3l0.2,0.2L282.8,268.7z M281.7,268.7v-0.5v-0.3v-0.1v-0.3l-0.1-0.3l-0.1-0.1l-0.1-0.2
		l-0.1-0.1l-0.1-0.2l-0.2-0.1l-0.1-0.2l-0.1-0.2h-0.3h-0.3l-0.1-0.1l-0.1-0.1h-0.3l-0.2,0.3l0.1,0.5l0.6,0.6l0.6,0.6l0.2,0.3
		l0.1,0.1l0.1,0.1l0.2,0.2L281.7,268.7z M284.2,263.8l-0.1-0.4h-0.2v0.1l0.1,0.3H284.2L284.2,263.8z M281.9,264.8l-0.2-0.3l-0.2-0.2
		l-0.3-0.2l-0.3-0.2l-0.2-0.3l-0.2-0.3l-0.2-0.3l-0.3-0.2h-0.2h-0.3l-0.2,0.1l0.2,0.8l0.5,0.9l0.6,0.2h0.3l0.1,0.2l0.3-0.1l0.3-0.2
		l0.2,0.3l0.2,0.4h0.2l0.1-0.4L281.9,264.8z M295.2,261.4v-0.2v-0.3H295l-0.3-0.1l-0.1,0.2L295.2,261.4L295.2,261.4z M280.7,260.8
		l-0.4-0.5l-0.5-0.3l-0.3-0.1h-0.2l-0.2,0.2v0.3l0.3,0.3l0.8,0.3l0.5,0.1L280.7,260.8z M282.8,258.8l-0.3,0.3h-0.1v0.3h0.2h0.1h0.1
		l0.1,0.2l0.1-0.1l0.1,0.2v-0.1v-0.2v-0.1l-0.1-0.1L282.8,258.8z M297.7,258.7l0.3-0.1v-0.2l-0.3-0.2h-0.1h-0.1l-0.2,0.2l-0.2,0.4
		l0.2,0.1L297.7,258.7z M298,257.2l-0.2-0.5l-0.3-0.3l-0.2,0.1l-0.1,0.3l0.1,0.3l0.4,0.3L298,257.2z M279.2,256.5l-0.3-0.1l-0.3-0.1
		l-0.5-0.1l-0.3,0.1l-0.1,0.3v0.3h-0.1l-0.3-0.2l-0.3-0.3h-0.3l-0.1,0.3l0.1,0.3l0.2,0.1l0.2,0.1l0.2,0.1h0.1h0.1l0.3,0.1l0.2-0.2
		l0.1-0.4h0.1l0.1,0.3l0.1,0.1v0.1l0.1,0.2l0.2,0.3l0.3,0.3l0.2,0.2l0.2,0.2l0.2,0.2l0.3,0.2l0.6,0.3l0.3-0.1l-0.1-0.4l-0.1-0.3
		l0-0.4l-0.2-0.3l-0.3-0.4l-0.4-0.5L279.2,256.5z M281.4,257.3l-0.4-0.4l-0.4-0.4l-0.3-0.3l-0.1,0.2l0.3,0.6l0.3,0.1L281.4,257.3
		L281.4,257.3L281.4,257.3z M296.8,258.3V258l0.1-0.3l-0.2-0.3l-0.3-0.1L296,257l-0.1-0.1l-0.2-0.3l-0.2-0.4l-0.2-0.1v0.4l0.4,0.7
		l0.4,0.5l0.1,0.1l0.1,0.2l0.2,0.3l0.2,0.1L296.8,258.3z M286.2,257.6v-0.5l-0.1-0.5l-0.3-0.3l-0.2-0.1l-0.2-0.1l-0.4,0.1l-0.2,0.5
		l0.1,0.4l0.5,0.5l0.6,0.3L286.2,257.6z M299.1,256.1L299.1,256.1l0.2-0.1v-0.3l-0.2-0.3H299l-0.3-0.1h-0.4v0.3l0.2,0.3l0.1,0.2
		l0.1,0.1l0,0h0.2L299.1,256.1z M287.1,256l0.1-0.1l0.1-0.2v-0.3l-0.1-0.1l-0.1-0.1l-0.2-0.2l-0.3,0.1l-0.1,0.4l0.2,0.3l0.3,0.2
		L287.1,256z M288.9,254.1l-0.2-0.4l-0.2-0.2l-0.1,0.1l-0.1,0.3l-0.1,0.2v0.1l0.3,0.3l0.2,0.1v-0.4v-0.3h0.2L288.9,254.1z
		 M296.4,252.8l-0.3-0.3l-0.4-0.3h-0.5l-0.5,0.6l-0.5,0.4l-0.3-0.3l-0.1-0.3l-0.3-0.2l-0.3,0.2l-0.2,0.6v0.7l0.3,0.2l2.1-0.2
		l0.3-0.2l0.6-0.5L296.4,252.8z M301.8,252.7l0.1-0.2l-0.3-0.5l-0.3,0.3l0,0l-0.1,0.1l-0.1,0.3l0.6,0.1L301.8,252.7z M302,251.3
		l0.1,0.4l0.3,0.2v-0.6l-0.2,0.1L302,251.3z M291.6,254.4v-0.5l-0.1-0.3l-0.3-0.3l-0.3-0.5v-0.4l0.2-0.3l-0.1-0.3l-0.9-0.5h-0.5
		l-0.3,0.3v0.6l-0.1,0.3v0.6l0.1,0.7l0.1,0.3l1.2,0.3l0.3,0.1l0.2,0.2l0.3,0.1L291.6,254.4z M304.7,251l0.1-0.3v-0.4l-0.1-0.2
		l-0.1,0.1l-0.1,0.2h-0.2l-0.2,0.3v0.3v0.1H304v0.2l0.1,0.2h0.1h0.1l0.2,0.1l0.2-0.2V251L304.7,251z M287.4,250l-0.4,0.1v0.2
		l0.2,0.2l0.5,0.3L287.4,250z M286.3,249.3l-0.3-0.1l-0.5,0.1l-0.2-0.1h-0.1l0.1,0.1h-0.1v0.2l0.2,0.1h0.1l0.1,0.1l0.2,0.2v-0.3
		h-0.2l0.3-0.1l0.3,0.2h0.1v-0.1V249.3L286.3,249.3z M300.3,251.2l0.2-0.2l-0.1-0.5l-0.3-0.5l-0.1-0.3l-0.1-0.2l-0.2-0.2l-0.1-0.1
		V249h-0.1h-0.2h-0.2h-0.2l-0.3,0.4l-0.1,0.5v0.1v0.2v0.2v0.2l0,0v0.1l0.3,0.2l0.6,0.1L300.3,251.2z M304,250v-0.2l-0.2-0.3
		l-0.3-0.3l-0.3-0.2l-0.3,0.2l0.3,0.6l0.6,0.4L304,250z M287.9,250.3l0.1-0.2l0.2-0.1l0.2-0.1v-0.2v-0.1l0.1-0.1l0.2-0.1l-0.1-0.3
		l-0.4-0.3l-0.4-0.1l-0.1,0.1v0.4l0.1,0.3v0.3v0.3L287.9,250.3L287.9,250.3z M304.3,248.5V248l-0.3-0.3l-0.4,0.3l0.1,0.6
		L304.3,248.5z M325.8,247.7l-0.4,0.1l-0.1,0.2h0.2v-0.1h0.1l0.1,0.2v0.1l0.1,0.1L325.8,247.7z M301.5,248.9l0.1-0.3l-0.2-0.4
		l-0.4-0.3h-0.2l-0.3-0.3l-0.5-0.3l-0.2,0.5l0.4,0.8l0.6,0.3l0.4,0.1L301.5,248.9z M295.4,248.5l-0.3-0.6l-0.2-0.2l-0.2-0.3
		l-0.4-0.3h-0.1l0.3,0.3l0.4,0.4l0.2,0.4v0.3v0.3l0.3,0.1L295.4,248.5z M296.5,247.5v-0.2l-0.1-0.2l-0.2-0.2l-0.1,0.4l0.2,0.2H296.5
		z M293.4,248.2l-2-1.3l-0.4-0.1l-0.3,0.2l-0.3,0.3l0.2,0.8l0.6,1.2l1.2,1.6l0.4,0.2h0.1v-0.3l-0.3-0.5V250v-0.2l0.1-0.1l-0.1-0.7
		l0.2-0.2l0.4,0.1l0.4,0.3l0.3,0.4l0.3,0.5l0.3,0.1l0.4-0.3v-0.6l-0.6-0.6l-0.3-0.5l-0.2-0.2l-0.2,0.1L293.4,248.2z M306.4,246.9
		l-0.4-0.2l-0.2-0.1l-0.3-0.2l-0.5-0.3l-0.2,0.3l0.2,0.4l0.3,0.1h0.2h0.1l0.1,0.3v0.3v0.2l0.1,0.2l0.1,0.3l0.2,0.2l0.1-0.2v-0.3
		v-0.2l0.1-0.1l0.2-0.1v-0.3L306.4,246.9z M303.4,246.6l-0.2-0.6h-0.6l-0.3,0.3l-0.1,0.3l-0.1,0.3l0.2,0.3l0.3-0.2l0.2-0.3h0.3
		L303.4,246.6z M306.5,246.4l0.1-0.3l-0.1-0.3l-0.2-0.3l-0.2-0.1H306h-0.2l-0.3,0.3v0.4l0.3,0.3l0.3,0.2L306.5,246.4z M302.2,244
		l-0.4-0.3l-1.2,0.7l-0.4,0.1h-0.4h-0.3l-0.2,0.3l0.1,0.5l0.2,0.3l0.8,0.6h0.2l-0.1-0.2h0.1l0.3,0.2l0.3,0.1l0.2-0.2l0.2-0.4v-0.5
		l0.2-0.3l0.4-0.2L302.2,244z M331.2,244.8l-0.2-0.7v-0.7V243h-0.1l-0.2,0.4l-0.1,0.3v0.3v0.2v0.1l-0.2,0.2h-0.1h-0.1l-0.1,0.2v0.3
		l0.1,0.1h0.1h0.1l0.2,0.2l0.2,0.2l0.2,0.1l0.2,0.2h0.2l0,0v-0.1v-0.4L331.2,244.8z M332.8,243l-0.2-0.3l-0.1,0.3l0.2,0.1L332.8,243
		z M295.5,242.9l-0.2-0.3h-0.2v0.1v0.1v0.2v0.3l0.4,0.3L295.5,242.9L295.5,242.9z M301.2,243.3l-0.3-0.8h-0.7l-0.3,0.5l0.1,0.3
		l0.3,0.4h0.5L301.2,243.3z M342.5,243v-0.5h-0.2v0.4v0.1H342.5z M338.3,243.1l0.1-0.4v-0.3l-0.2,0.1l-0.1,0.4l-0.1,0.2l-0.1,0.1
		l0.3,0.1L338.3,243.1z M297.4,243.2L297.4,243.2V243l-0.2-0.3l-0.3-0.3l-0.2-0.3l-0.1-0.1h-0.3l-0.2,0.2l0.3,0.3l0.3,0.2l0.3,0.3
		L297.4,243.2L297.4,243.2z M306.7,241.5l-0.2-0.3l-0.1,0.3l0.1,0.1L306.7,241.5z M298.2,241.1l-0.4-0.2l0.3,1h0.2L298.2,241.1z
		 M302.4,241.1l-0.1-0.6l-0.4-0.2l-0.3,0.1l-0.1,0.1v0.3l0.2,0.2h0.1l0.3,0.1L302.4,241.1z M311.2,240.9l-0.2-0.4l-0.2-0.2h-0.1
		l0.1-0.1l-0.2-0.2h-0.2v0.2v0.3l0.2,0.3l0.2,0.2l0.3,0.3L311.2,240.9z M332.4,240.9l-0.2-0.3l-0.2-0.3l-0.3-0.4l-0.1,0.2l-0.1,0.2
		l-0.3,0.4l0.6,0.4l0.1-0.1l0.1,0.1l0.3,0.1h0.1L332.4,240.9L332.4,240.9z M338.4,240.2l-0.2-0.4l-0.1,0.3l0.1,0.3L338.4,240.2z
		 M326.2,239.9l-0.1-0.2l-0.1,0.1L326.2,239.9L326.2,239.9z M296.4,239.8l-0.3-0.4h-0.3v0.4l0.2,0.1L296.4,239.8z M337.1,239.7
		l-0.3-0.3l-0.1,0.3l0.2,0.2L337.1,239.7z M333.1,240.1l-0.1-0.6l-0.1-0.5h-0.2v0.3v0.3v0.1v0.1l0.1,0.1l0.1,0.2L333.1,240.1z
		 M306,239h-0.1l-0.2,0.1l-0.1-0.1l-0.1,0.3l0.2,0.6l0.4,0.2l0.3-0.1v-0.3l-0.1-0.3v-0.3L306,239z M340.8,239.1l-0.3-0.5l-0.3-0.1
		l0.2,0.3v0.3l0.2,0.2l0,0h0.1L340.8,239.1z M311.9,238.5h-0.1h-0.2h-0.1h-0.1l-0.1,0.1v0.1l0.1,0.2l0.2,0.3h0.2l0.1,0.1h0.1
		l-0.1-0.3V238.5z M341.4,239.1l-0.1-0.5l-0.3-0.1l0.2,0.6H341.4z M297.4,238.5h-0.1v0.2h0.1l0.1,0.3l0.4,0.3v-0.6h-0.2v0.1
		L297.4,238.5z M313.8,238.8l-0.2-0.1l-0.2-0.1l-0.2-0.1h-0.1v0.2v0.2l-0.2-0.1l-0.3-0.1l0.1,0.3l0.2,0.2l0.3,0.2l0.3,0.2l0.2-0.1
		l0.1-0.1v-0.3L313.8,238.8z M304.3,238.8l-0.1-0.3l-0.1-0.2H304l-0.3-0.1l-0.2,0.2v0.3l0.3,0.3l0.4,0.2L304.3,238.8z M308.5,238.2
		l-0.2,0.2l0.3,0.4l0.3,0.1l0,0v-0.1v-0.2l-0.1-0.2h-0.1L308.5,238.2z M302,239.7l0.1-0.3v-0.2v-0.3v-0.5l-0.2-0.5l-0.3-0.2v0.3v0.2
		v0.1h-0.1v0.1l0.1,0.3l-0.1,0.3l-0.3,0.3l-0.1,0.3l0.1,0.1h0.1h0.3L302,239.7z M336.4,237.3l-0.2-0.1l-0.1,0.2v0.1l0.1,0.1v0.2
		l0.1,0.2l0.3,0.2h0.3l0.2-0.2l0.1-0.3v-0.3l0,0H337h-0.4L336.4,237.3z M340.2,236.7l-0.3-0.4l-0.3,0.3l0.3,0.1l0.3,0.5l0.2-0.1
		v-0.2h-0.2V236.7z M341.5,236.1h-0.4l-0.4,0.3l0.1,0.2h0.4h0.3l0.1,0.3l0.2,0.1v0.3h0.2l0,0l-0.1-0.3l-0.1-0.3L341.5,236.1z
		 M296.6,237l-0.1-0.5l0.1-0.4V236h-0.2h-0.2h-0.1l-0.3,0.2l-0.1,0.4l0.1,0.3h0.1l0.3,0.2L296.6,237z M299.9,235.8l-0.1-0.2
		l-0.1-0.2h-0.2l0.2,0.6l0.2,0.1l0,0V235.8z M316.4,235.6v-0.3l-0.2,0.2v0.2l0.2,0.1V235.6z M300.5,235.3l-0.2-0.3H300L300.5,235.3
		L300.5,235.3z M316.1,235.4L316,235h-0.3l0.1,0.3l0.1,0.3L316.1,235.4z M326,235.5l-0.3-0.4l-0.3-0.7l-0.1,0.5l0.2,0.3l0.1,0.2
		l0.3,0.5l0.3,0.1L326,235.5z M311.1,237l-0.2-0.6l-0.4-0.4l-0.4-0.3v-0.2h0.4l-0.1-0.5l-0.7-0.6h-0.6l-0.5,0.3l-0.1,1.1l0.4,1.2
		l0.7,1.1l0.8,0.9l0.4,0.3l-0.2-0.9v-0.5l0.1-0.3h0.2l0.3,0.1L311.1,237z M324.9,236.2v-0.3v-0.2v-0.3l-0.2-0.3l-0.2-0.3l-0.1-0.3
		v-0.2l-0.1-0.1l-0.1,0.3v0.3v0.3v0.5v0.2h0.1l0.1,0.1l0.1,0.2v0.1l0.1,0.2l0.2,0.1L324.9,236.2z M318.5,234.3L318.5,234.3l-0.3-0.1
		l-0.4-0.1l-0.3,0.3l-0.1,0.3l0.2,0.2v0.2l-0.2-0.1l-0.2-0.3l-0.2,0.1v0.3l0.1,0.2l0.1,0.3l0.2,0.3l0.1,0.2l0.1,0.3l0.1,0.1v0.1
		l0.1,0.3l0.2,0.1v-0.2l-0.1-0.1v-0.1h0.1v-0.2l-0.1-0.4l-0.1-0.3v-0.3l0.2-0.3l0.3,0.1l0.1,0.4l0.1,0.2l0.1,0.2l0.1,0.2l0.2,0.2
		l0.3,0.1l0.1-0.2l-0.2-0.3l-0.3-0.3l-0.2-0.6L318.5,234.3z M339.1,234.5l0.1-0.2l-0.1-0.5l-0.2,0.3l-0.2,0.2l0.1,0.3L339.1,234.5z
		 M332.3,234.3v-0.4l-0.1-0.3h-0.1v0.4l-0.1,0.2l-0.1-0.3l-0.2-0.1l-0.3,0.3l-0.3,0.2l-0.3-0.1l-0.3-0.2l-0.3-0.3l-0.1-0.1l-0.1,0.7
		l-0.2,0.3l-0.2-0.2l-0.2-0.6l-0.2,0.3v1.4l0.5,0.9l1,0.7l0.9-0.9l0.3-0.4v-0.2l0.1-0.2l0.2-0.3l0.2-0.4v-0.4H332.3z M322.5,234.4
		v-0.6l-0.1-0.3l-0.1-0.2l-0.1,0.1l-0.1,0.3v0.2l-0.1,0.2l0.2,0.2L322.5,234.4L322.5,234.4L322.5,234.4z M317.7,233.6h-0.2l-0.2-0.3
		h-0.2l-0.1,0.1h-0.1l-0.1,0.1l-0.1,0.1h-0.1v-0.1l-0.1,0.1h-0.1v0.1v0.2l0.1,0.2l0.1,0.2h0.2h0.2l0.2-0.2h0.3l0.2-0.2h0.2v-0.3
		H317.7z M321.2,233.5v-0.3l-0.2,0.1L321.2,233.5L321.2,233.5z M334.7,233.7v-0.3l-0.2-0.3l-0.1,0.4L334.7,233.7L334.7,233.7z
		 M318.6,233.9v-0.3v-0.3v-0.1l-0.2-0.1l-0.4,0.1l-0.3,0.1l0.1,0.3l0.4,0.3H318.6L318.6,233.9z M298.1,232.9l-0.1-0.3h-0.2
		L298.1,232.9L298.1,232.9z M306.6,236.2l-0.2-1.3l-0.3-1l-1.2-1.3l-0.3,0.3l-0.1,0.9v0.8l-0.1,0.6v0.4l0.2,0.3l0.2,0.3l0.5,0.3
		l1.2,0.2L306.6,236.2z M302,231.7L302,231.7l-0.3,0.1l-0.2-0.1l-0.1,0.1v0.3v0.2v0.2l0.2,0.1l0.3-0.1h0.2l0.2-0.2V232L302,231.7z
		 M336.6,231.9v-0.2l0.1-0.1l-0.3-0.1l-0.2,0.4l0.4,0.2V231.9z M324,231.6v-0.2v-0.2h-0.1l-0.1-0.2h-0.2l0.1,0.3l0.1,0.3v0.2l0,0
		L324,231.6z M317.7,231.6l-0.1-0.5l-0.3-0.2H317v0.3l0.2,0.3l0.1,0.1h0.2L317.7,231.6z M341.6,231.6v-0.5v-0.3h-0.3l0.2,0.6l0,0
		L341.6,231.6L341.6,231.6z M296.3,231.3l-0.2-0.1L296,231l-0.3-0.3l-0.2,0.3v0.3l0.1,0.1l0.2,0.1l0.3-0.2l0.4,0.1L296.3,231.3z
		 M340.4,231.4l0.3-0.3v-0.5h-0.2l-0.2,0.3h-0.2l-0.1,0.2l-0.1,0.3l0.3,0.2L340.4,231.4z M305.3,231.2l-0.2-0.4l-0.2-0.5l-0.5-0.1
		l0.5,0.8L305.3,231.2L305.3,231.2z M298.1,231v-0.2l-0.1-0.1h-0.1l-0.1-0.4l-0.1-0.5l-0.2,0.1v0.5l0.1,0.3l0.3,0.3l0.2,0.1
		L298.1,231z M305.6,230.3l-0.4-0.6l0.1,0.4l0.2,0.6l0.3,0.3L305.6,230.3z M249.9,12l-6.8,0.5l-6.8,0.5l6.2,8.1l0.2,1.2l0.2,6.3
		l-0.1,1.4l-0.3,1.5l-2.7,7.6l-2.2,3.7l-4.9,4.7l7.4,4.5l-6.1,8l-1,0.9l-1,0.1l-11.6-5.2L208.8,50l-8.7,0.7l-1.5-0.4l-4.2-4.3
		l-1.2-0.9l-6.4,2.5l-0.5,0.2l-0.3,0.4l-0.1,0.8l-0.5,6.5v2.1l1.4,13.8l-0.6,2.8l-4.8,9.9l-0.8,1.9l-0.8,1.2l-0.6,0.2l-7.5-4.7
		l-7.5-4.7l-0.6,0.5l-2.1,4l-10.7,9l-0.6,0.9l-0.6,1.4l-4,15.8l-0.6,1.5l-2.7,4.6l-1.4,1.6l-1.6,0.9l-4.3,0.9l-0.5,0.8l-1.4,5
		l8.1,14.9l0.2,1.2l-0.7,8.7l-0.4,1.1l-0.8,0.8l-1.5,0.9l-4.8,5l-2.3,3.1l-9.6,18.9l-6.3,7.1l0.1,1.8l1.2,7l0.6,0.3l9.4,4.8
		l16.4,12.8l9.9,4.5l15.3,15.9l8,6.2l9.9,4.7l0.5,0.1l0.6,1.2l1.2,1.8l1.4,1.4l1.5,0.9l2.7,0.8l1.6,1.9l0.9,0.5l3.6,0.2l0.5,0.2
		l0.3,0.4l0.7,1.6l0.1,0.2l1.5,1.7l4.3,2.1l1.4,2.1l2.7,0.8l1.5,1.2l0.7,0.9l0.3,1.1l0.2,1.9l0.5,0.5h0.7l0.9,0.3l0.1,0.2l0.6,0.4
		l0.2,0.1l0.3,0.3l0.1,0.2v0.2v0.2v0.2v0.1v0.1l0.4,0.4l0.5,0.2l0.7-0.2l1.5-0.6l3.2-2.2l1.9-2.6l10.7-3.8l29.8,9.1l7.3,5.4l0.9,0.5
		l0,0l0.1-0.1l-0.5-0.4l-0.4-0.1l0,0l0,0l-0.1-0.3l0.5-1.8v-0.6l-0.1-0.5l-0.3-0.4l1.5-0.1l0.5-0.6l-0.2-1.3l-1.9-3.9l-1.4-1.8
		l-1.5-3l-0.8-0.8l-3.3-0.9l0.3-0.8l1.1-0.1l0.3-0.8l-0.1-0.1l-0.3-0.3l-0.1-0.1l0.9-0.1l0.9,1.1l0.8,1.4l0.7,0.7l0.6,0.1l0.5,0.4
		l0.4,0.5l0.3,0.6l0.3,0.8l0.5,1.6l0.3,0.6l0.9,0.6l1.2-0.2l1.2-0.7l0.8-1.2l0.1-0.9l-0.4-0.7l-0.9-0.7l-0.8-1.1l-0.5-0.4l-0.5-0.2
		v1l-0.5,0.3l-0.6-0.2l-0.4-0.5l-0.4-0.8l-0.5-0.6l-0.6-0.4l-0.6-0.2l1.1-0.9l-0.1-0.1l-0.2-0.3l-0.2-0.1l0.5-1l1-0.2l1.9,0.3v-0.4
		h-0.4l-1.1-0.5V255l1.1-0.4h0.6l0.6,1.2l0.6,0.2h1.2l-0.4-0.9l0.5-0.1l2.2,0.9h0.8l0.8-0.4l0.8-0.7l0.2,0.7l0.5,0.3l0.6-0.1
		l0.4-0.5v-0.6l-0.2-0.6l-0.1-0.6l0.3-0.7l0.6,1.2l0.4,0.4h0.4l0.4-0.4l0.2-0.6l0.1-0.7l0.2-0.9l-0.7-0.6l-1.5-2.1l-0.6,0.1l0.2,0.1
		l0.5,0.7l-0.6,0.3l-0.7-0.7l-1.2-2.1l0.6-0.1l3.6,1.2l0.7-0.5h0.3l0.3,0.4l0.2,0.3l0.3-0.2l0.1-0.5v-0.3v-0.2l0.3-0.2l0.7-0.3h1.5
		l0.7-0.6h-0.5l-0.3-0.3l-0.6-1l-0.4-0.6l-0.3-0.3l-1.7-0.9l-2.1-2.1l-3.2-1.8l-1.5-1.6l-0.6-2.6l0.3,0.5l0.8,0.6l0.3,0.5l0.6,1.2
		l0.3,0.3l0.4,0.3l1.6,0.6l0.9,1.1l1.1,0.3l0.4,0.4l0.8,1.1l1.9,0.9l2.7,2l0.7,0.2l-0.2-0.9l0.3-0.4l0.3,0.1l0.6,0.7l0.6,0.3
		l0.8,0.2l0.5,0.4l0.4,0.8l0.5,0.5l0.6-0.4l-0.3-1.3l-0.2-0.6l-0.2-0.3l-1-0.3l-0.6-0.4l-0.3-0.5l0.2-0.6l1.2-0.9l-0.1-0.4l-1.4-0.7
		l0.2-0.4l-0.2-0.5l-0.4-0.6l-0.4-0.3l-0.2,0.6l0.1,0.6l0.6,0.9l0.1,0.6l-0.5,1.2h-1l-1.9-0.8l1.9-0.1l0.6-0.4l-0.3-1.2l-0.2-0.5
		l-0.2-0.3l0.2-0.5l0.1-0.5l-0.1-0.4l-0.2-0.3l0.6-0.5h0.7l0.6,0.7l0.3,1.5l0.3-0.3l0.3-0.2h0.3h0.3l-0.3-1.8l-0.4-1l-0.6-0.5
		l-1.7-0.4l-0.6-0.3l-0.5-0.6l-0.6-1h0.9l1.1,1.1l1.1,0.5l0.9-1.6l-0.4-0.6l-0.4-1.4l-0.3-0.6l0.8,0.3l0.3-0.1l0.1-0.8l-1.1-1.7
		l1.1-0.4l0.1-1.2l0.9-0.1l1.8,0.4l-0.1,0.6v0.2l0.9,0.8l0.4,0.5l0.3,0.8l-0.3,0.3l-0.3,0.6l-0.2,0.7l0.2,0.6l0.3-0.1l0.9-1l0.3-0.3
		l1.5,0.3l0.6,0.8l-0.1,1.5l0.4-0.2l0.3-0.5l0.3-0.7l0.2-0.9l0.1-0.9v-0.6l-0.1-0.6l-0.1-0.8l-0.1-1.6l-0.1-0.6l-0.3-0.7l-0.6-0.9
		l-0.3-0.6l0.5-0.2l0.5,0.2l2.9,2.6l0.5,1l0.8,2.6l0.6,0.7l0.5,0.1l0.6-0.3l0.3,0.2l0.6,1.1l0.2,0.2l1.2,0.7l1.5,0.2l0.3,0.4
		l0.7,1.7l-0.2,1.3l0.6,0.2l0.7-0.6v-1.2l0.5-0.7l0.3-0.3l1.6-0.9l0.4-0.3l-0.8-0.8l-0.4-0.6l-0.2-0.8v-1.1l0.3-0.5h0.4l0.4,0.3
		l1,1.2l0.6,0.5h0.6l0.3-0.4l0.3-0.6l0.4-0.5l0.6-0.1l-0.1,0.9l0.1,1.1l0.3,0.9l0.4,0.4l0.4,0.1l0.3,0.1l0.1-0.1l0.1-0.5v-0.6v-0.5
		l-0.1-0.3l-0.3-0.3l0.2-0.4l0.2-0.2l0.2-0.1l0.2-0.2l0.2-0.8v-0.1l0.3-0.2l0.3-0.1l0.2,0.3l-0.2,0.9l1.2,0.4h2.1l0.1,0.2l0.1,0.3
		l0.2,0.3h0.3l0.3-0.4l0.6-1.4l0.4-0.3h1.3l0.6,0.4l0.3,1l0.3,0.8l0.6,0.2h1.3l0.3-0.3h0.2l0.1,0.6l0.1,0.4l0.2,0.3l0.3,0.2l0.4,0.2
		l0.2,0.3l0.2,0.2h0.3l0.2-0.3l0.2-1l0.1-0.4l0.6-0.3l1.2,0.3l0.6-0.4l-0.3-0.2l-0.1-0.1v-0.2l-0.2-0.4l1.9,0.5l0.9-0.2l0.6-1.2
		v-1.2l-1-1.8l-0.6-2.5l-0.7-1.2l-0.6-1.3v-1.4v-0.9l-0.6-3.2l-0.3-0.9L338,214l-0.6-0.7l-0.3-0.4l-0.2-0.6l-1.4-4.3l-0.6-0.8
		l-2.7-1l-0.9-0.8l-0.7-1.1l-0.9-3.3l-0.2-1.7l-0.4-1.5l-0.1-0.7v-0.6l0.2-0.9l0.1-0.7V194l-0.1-1.2v-0.9l-0.1-0.6l-0.5-1.2
		l-0.1-0.8l0.3-1.5l0.6-1l0.8-0.6l0.6-0.3v-1l0.6-0.6l0.8-0.4l0.5-0.6v-0.7l1.4-1l0.5-0.6l0.3-1v-1.1l-0.1-1.2l-0.2-1.2l0.3-1
		l0.2-1.2l0.1-1.3v-1.3l-0.3-2.4v-0.5l0.9-1.5l0.4-1.2l0.6-0.2h0.6l0.4-0.2l0.1-0.6l-0.1-0.5l-1.1-3.3l-0.7-1.8l-0.6-1l-1-1.4
		l-1.5-3.4l-0.6-0.9l-0.8-0.3l-0.5-0.4l-0.6-1.1l-0.9-2.2l-0.2-0.6l-0.1-0.5v-0.6v-0.9l-0.1-0.7l-0.2-0.4l-0.3-0.3l-0.7-1.4
		l-0.6-0.7l-0.5-0.9l-0.2-1.3l0.3-0.5l0.3-0.6l0.3-0.7l0.2-0.9l-0.5-0.3l-0.1-0.5l0.1-1.3l0.2-1.1l0.5-0.6l3-1.4l0.7-1.1l0.6-2.1
		l-0.9-0.6v-1.6l0.3-1.9v-1.5l-0.3-0.5l-0.6-0.3l-1.8-0.3l-1.8-1.2l-1.1,0.1l-1,0.5l-0.9,0.1l-0.9-1.2l-0.3-1.7l0.3-1.3l0.6-1.2
		l0.5-1.4l-0.3-0.8l0.7-0.8l0.9-0.7l0.5-0.7l-0.1-1.6l-0.2-1.1l-0.6-1.8l-0.2-1.1l-0.3-2.7l-0.3-1.1l-0.1-0.9v-4l-0.1-1.4l-0.1-1.7
		l0.1-1.6l0.5-1.2l0.9-0.8l1.8-0.7l0.9-0.7l0.6-1.3v-1.2l-0.5-0.9l-1.8-0.7l-2.3-3l-0.7-0.6l-1.9-1.9l-0.2-0.6l-0.1-0.6l-1-4.1
		l-0.3-0.7l-0.3-0.5h-0.9l-2.2,1.6h-0.6l-0.2-0.4h-0.1l-0.1-0.1v-0.6V74l0.1-0.6l0.1-1.8V71l-0.2-0.5l0.1-1.6l-0.4-1.2l-1.2-1.5
		l-0.3-0.7l-0.1-0.6l-0.1-0.6l-0.2-0.6l-0.4-0.6l-3.9-2.7l-0.7-1l-1.1-2.4l-0.6-0.7l-1.5,0.6l-0.8-0.9l-0.8-1.3l-0.7-0.8h-0.5
		l-0.5,0.2h-0.5l-1.1-0.8l-1.2-0.1l-1.7-0.9l-2.1-0.2l-0.1-0.2v-0.7l-0.1-0.2l-1.8-0.6h-6l-0.9-0.8v-0.3v-0.5v-0.5l-0.2-0.2
		l-0.1-0.1l-0.3-0.4l-0.3-0.7l-0.7-1.1l-0.1-0.4l-1.2-1.5l-4.7-1.4l-0.5-2.2l-1.4-1l-2.3-2.4l-2-0.6l-0.8-0.8l-0.3-0.7l-0.8-2.2
		l-0.2-0.8l-0.2-0.7l-0.5-0.3h-1.8l-0.3-0.1l-0.1-0.3l-0.2-0.6l-0.1-0.1l-0.3-0.5l-1.5-2.9l-1.6-1.8l-2.1-2l-4.3-1.8l-0.6-0.9
		l0.1-1.5l0.8-0.4l0.4-1.2v-1.3l-0.6-1l-1.2-0.4l-1.8-1.8l-3.1-0.5L249.9,12z"/>
	<path id="SE-Z" class="st1" d="M149.4,339.7l-12.5-14.1l-1-0.7l-0.8-0.3h-1l-1.8,0.6l-0.4-0.4l-0.5-1.2l-0.6-2.3l-1-1.4l-5.1-4.4
		l-0.6-1.1l-0.3-1.3l-0.2-2.4l-0.3-0.7l-0.5-0.7l-1,0.2l-0.4,1l-0.2,0.6l-0.3,1.7l-0.6,0.3h-0.2l-0.2-0.3l-0.3-1.1l-0.2-1l-0.1-0.3
		l-0.1-0.3l-0.4-0.6l-0.7-0.9l-4.3-3.9l-0.5-0.8l-0.4-0.5l-0.6-0.5l-0.3-0.5l0.2-0.5l1.6-0.9l0.2-0.3l-0.1-0.2l-0.5-0.5l-0.6-0.4
		l-0.8-1.1l-0.2-0.5l-0.3-0.5l-0.4-0.5l-1.1-0.9l-1-0.6l-1.5-0.1l-0.3-0.1l-0.3-0.3l-0.4-0.9l-0.5-2.2l-0.3-0.9l-0.6-0.8l-0.5-0.4
		l-1-0.7l-1.3-0.5l-0.5-0.3l-0.3-0.3l-2-3.6l-0.3-0.7l-0.4-0.8l-0.5-0.7l-1.4-1.7l-9.5-6.9l0,0l-0.2-0.2v0.1l-0.6,1.8L83,281l0,0
		l-6.9,12.4l-6.9,12.3l7.7,5.6l1.1,0.4l2.1,0.5l0.9,0.7l0.5,1.5l1.2,14.1v1.1l-0.3,1.1l-4.3,8.9l-0.5,0.6H77l-9.1-2.4l-9.1-2.4
		l-6.5,1.9l-5.9,4l-1.9,2.1l-5.2,8.7l-4.9,9l-3.2,3.4l1.3,5.9v1.3l-0.4,1.2l-5.5,9.6l1.8,4.8l4.2,11.6l-3.1,4.5l-0.3,0.9l0.1,1.2
		l1.5,8.7v1.3l-0.4,1.6l-0.9,2.7l-0.3,1.5v1.1l4.9,13.6l0.2,0.5l0.7,2.7v0.8l0.7-0.1l11.8,3.8l4.6,4.2l1.9,2.7l3.6,2.1l2.6-0.2
		l2.5,2.4l-0.6,1.3l-0.8,4.1l2.1,3.9l1,2.3l1.2,2.2l0.7,1.7l0.6,2l1.6,1.5l17.9,3.2l2.2,1l2.6-0.5l1-2.2l0.6-5l0.6-2.9l0.8-2.1
		l2.1-3.1l0.8-0.6l0.5-0.1l0.2,0.5l1.8,3.5l0.3,0.3l0.4,0.3l0.2-0.3l0.1-0.7l-0.3-1.5l0.6-0.3l1,0.9l0.9-0.1l0.6-1.2l1.2-0.2
		l1.3,0.3l0.8,0.8h0.6l0.3-0.7v-1.1l-0.1-0.8v-0.5l0.1-0.4l0.4-0.4l0.1-0.9v-0.9l-0.1-1l-0.4-2.2l0.2-0.3l7.3-6.2l0.8-1.3l0.3-1.1
		l-0.3-1.3l-0.4-1l-0.6-0.9l-0.7-1.3l-0.6-2.3l-2.3-0.3l-2,0.8l-1.7-0.5l-1.6-0.8l-1.7-1.7l-1.2-1.4l-1.5-2.8l-1.2-1.2l-0.3-1.6
		l0.3-0.5l0.5-0.3l0.2-0.4v-0.4l-0.3-0.9l-0.3-1.5l-0.2-0.4l-0.3-0.6v-0.3v-0.3v-0.3v-0.3v-0.3l-0.1-0.3l-0.1-0.4l0.3-0.5l0.7-0.5
		l3.4-0.5l4.6,0.4l11.3-2.8l7.2-3.2l11.1-0.8l1.1-0.4l0.9-0.8l1.3-2.4l5.6-7.7l1.7-1.1l6.3-2.1l0.1-0.8L135,377.3l-1.2-2.4l-1.2-1.3
		l-1-0.4l-0.7-0.7l-0.3-1.8l-0.1-1.3l-0.4-2.7l-0.6-1.8l-1.4-2.8l0.6-1.4l1.9-0.6l2.4-1.3l1.5-0.4l2.6,0.6l5.8-0.9l1.1-0.5l1.7-1.3
		l0.7-3.3l0.3-3.4L149.4,339.7z"/>
	<path id="SE-S" class="st1" d="M90,560l-5-3.6l-0.5-1.6l-0.6-1.1l-0.1-0.6l-0.7-1.9l-0.6-1.2l-0.4-0.5l-0.4-0.3l-2.2-0.2l-1.3-0.6
		h-0.3l-0.2,0.1v0.3l0.1,0.5l0.3,0.5l0.8,0.9v0.2l-0.1,0.2l-0.4,0.3l-0.6,0.3l-0.6-0.3l-2.8-3l-4.6-7.6l-0.7-0.6l-2.9-1.5l-0.6-0.5
		l-0.3-0.5l-1-1.7v-0.1l-0.4-1.2l-0.9-2l-3.6-6.4l-0.4-0.4l-0.3-0.3l-0.4-0.2l-0.3-0.3l-0.2-0.4l-0.8-2.6l-0.6-1.3l-1.1-1.6
		l-8.9-9.8l-0.3-0.7l-0.8-2.1l-0.1-0.1l-0.2,0.6l-0.6,0.3l-2.9-0.6l-1.5,0.1l-6,1.8l-0.7,0.7l0.1,1.1l1,2.4l0.5,1.8l0.6,3.9l0.4,1.9
		l0.7,2.1l2.7,5.1l2.9,7.5l0.4,1.5l0.1,1.6l-0.2,1.9l-0.3,1.3l-0.4,1l-0.5,0.9l-1.7,1.6l-0.3,0.7l-0.1,0.9l0.2,1.8l0.7,3.3l0.1,1.9
		l-0.3,2.3l-0.7,1.9l-0.9,1.6l-4,4.8l-3.8,3.1l-1.1,0.2l-4.2-0.4l-1.3,0.5l-0.4,0.4l-0.6,0.6l-0.2,1.8l0.3,0.7l0.7,1l0.2,0.2
		l0.3,0.9v0.8l-0.2,2v0.9l-0.1,0.4l-1,1.7l-0.6,0.7l-3.5,1.9l-0.5,0.8l-0.1,1.4l0.2,1.1l2.8,10.1l0.6,3.4l0.1,1.2v1.1l0,0l0.4,0.1
		l1.9,0.7h0.3l0.4-0.1l0.3-0.3l0.4-0.3H26l0.5,0.3l2.3,2h0.3l0.2-0.1l0.3-0.3l0.1-0.2v-0.3l-0.1-0.5l0.1-0.8l0.5-0.4l1.5-0.3
		l0.7,0.1l0.5,0.4l0.4,1.1l0.2,0.4l0.4,0.3l1.3,0.5l0.8,0.5h0.3l2.2-0.7l0.4,0.1l0.3,0.2v0.2l-0.3,0.2l-0.9,0.1l-0.3,0.2l-0.1,0.3
		v0.3l0.2,0.3l1.1,0.6l0.3,0.3l0.3,0.3l0.3,0.1H40l0.6-0.3l0.4-0.1h0.2l0.2,0.2l0.4,0.7l0.3,0.3l0.3-0.1l0.4-0.5l0.5-1.1l0.9-0.9
		h0.6l0.4,0.3l0.3,0.4l0.3,0.3l0.5,0.4l0.3,0.5l0.2,0.7l0.2,2.4l0.1,0.7l0.2,0.5l1.9,3.2l3.9-3.3l2.5,3.6l3.1,3.6l-0.6-6l-1.2-12
		l1.8-2.4H63l1.8,2.4l3.1,2.4l0.6-2.4l0.6-4.8l4.9,3.6l4.9,2.4l-1.2,9.9l6.9,0.2l0.3,0.1l0.3,0.2l1.6,1.2l0.4-2.1l0.1-2l-0.1-1.1
		l-0.3-1.5l-0.1-0.7v-2.3l0.1-1.7l0.4-3l0.5-2.1l0.6-1.8l0.9-2.1l0.2-0.5l0.1-0.3l0.2-0.3l0.9-1l0.3-0.5l0.1-0.5L91,588l-0.1-0.1
		l-0.5-0.5l-0.3-0.4l-0.2-0.5v-0.6l0.2-0.8l0.2-0.4l0.3-0.1l0.2,0.1l0.3,0.2l0.1-0.3v-0.8l-0.2-2.2l-0.2-1l-0.3-1.2l-0.2-0.9
		l-0.3-2.1v-1.3l0.1-3.4l-0.2-4.6l-0.3-1l-0.4-0.5l-0.9-0.6l-0.3-0.3l-0.1-0.3L88,564l0.4-0.4l2.2-1.4L90,560z"/>
	<path id="SE-N" class="st1" d="M55.4,703.3l-1.6-0.5l-0.2-0.3l-0.3-0.4l-0.2-0.4l-0.2-0.2l-1-0.1l-0.7-0.2l-0.4-0.4l-0.2-0.6v-0.5
		l0.5-1.1l0.1-0.3V698v-0.3l-0.1-0.1l-0.2-0.1l-2.1-0.3l-0.5-0.2l-0.3-0.3l-0.2-0.3l-0.2-0.1h-0.2l-0.7,0.3h-0.3l-0.6-0.3l-1.2-1.6
		l-0.4-0.4l-0.3-0.1h-0.8l-1-0.2h-0.3l-1.2,1.1l-0.2,0.3l-0.2,0.4l-0.3,0.4l-0.3,0.3l-0.4,0.3l-0.4,0.1h-0.7l-0.3-0.2l-0.3-0.5
		l-0.8-2.3l-0.2-0.8v-0.6l0.1-0.3l0.4-0.9l0.1-0.5v-0.4V690l-0.2-0.4l-0.4-0.5l-0.8-0.9l-0.6-0.8L35,687v-0.1v-0.3v-1.4l0.1-0.8
		v-0.9l-0.1-0.6l-0.8-1.6l-4.1,1.8l-2,0.4l-2.9-0.7l-1.1,0.2l0,0l0.1,2.1l-0.4,0.7l0.2,0.1l0.6,0.5l-0.4,0.3H24l0.5,0.3l0.4,0.4
		l-0.4,0.3l-0.3,0.4l-0.3,0.5l-0.1,0.8l0.1,0.8l0.2,0.8v0.6l-0.3,0.4l0.3,0.2l0.3,0.1h0.3H25l-0.3,1.3h0.4l0.6-0.2l0.2,0.9l0.3-0.9
		l0.3-3.3l0.4-0.7l0.2-0.1l0.2-0.3l0.2-0.2h0.3l0.1,0.2l0.8,1.7v0.6l-0.3,0.4l-0.6,0.4H29l-0.5,0.8l-0.7,0.7l-0.3,0.6l0.4,0.6l0,0
		l0.4-0.3l0.2-0.1l0.2,0.1l0.1,0.2l0.1,0.2L29,695l0.3,0.3l0.3,0.3l0.2,0.5v0.6l0.1,0.3v0.3l-0.1,0.3l-0.6,0.2l-0.2,0.3l-0.2,0.3
		l-0.3,0.3v0.3h0.9l0.4,0.1l0.3,0.3l-0.3,0.2l-0.3,0.1h-0.7l0.5,0.5l0.5,0.3l0.5,0.1h0.6l0.3,0.2l-0.3,0.4l-0.8,0.8l0.3,0.2h0.8h0.2
		v0.4l0.1,0.9l0.1,0.4l0.8,1.3l0.1,0.6l-0.5,0.7l0.5,0.6l0.2,0.1v0.9l0.6,0.9l0.8,0.6l0.8,0.4l0.2,0.3l0.2,0.4v0.3v0.3l0.1,0.5v0.3
		v0.1l-0.2,0.4v0.3l0.1,1l0.3,0.8l0.5,0.6l0.9,0.3l0.6,0.4l0.9,0.2l0.3,0.3l0.5,0.9l0.1,0.1l0.4,0.1l0.2,0.1v0.1v0.2v0.2l0.1,0.2
		l1.7,1.2v0.5l-0.1,1l0.6,1.8l0.4,0.8l0.5,0.4l0.4,0.5l0.2,1l0.3,0.6l1.3,1.5l0.4,0.1h0.4h0.4l1-0.4h0.6l0.8,0.2l0.4,0.6l0.5,2.1
		l0.8,2.1l0.1,0.9l-0.1,1l-0.3,1l-0.3,0.5l0,0l0.5,0.6l1.2,0.8l0.1,0.2l0.1,0.3l0.1,0.3v0.3l-0.1,0.3l-0.1,0.4l-0.1,0.4v0.4l0.1,0.3
		l0.2,0.2l0.8,0.3l3.6,0.6l0.4,0.3l0.3,0.3l0.3,0.3h0.4l0.6-0.2l0.7-0.6l0.5-0.6l0.6-0.6l0.6-0.5l1.8-1.2l0.8-0.3l0.8-0.1l1.3,0.2
		l-0.8-1.1l-0.4-1.2l-0.1-0.5V735v-0.4v-0.3v-0.4v-0.6l-0.2-1.5l-0.3-0.9l-0.5-1.1l-1.7-3.2l-0.5-0.7l-0.6-0.6v-0.2l0.1-0.4v-0.3
		V724v-0.7l0.1-2.3v-1.3l0.1-0.7l0.2-0.6l0.3-0.7l0.1-0.3l0.2-0.1l0.4-0.1l0.9-0.4l0.4-0.1H65l0.4-0.1l1-0.6l2.1-0.6l0.5-0.3
		l0.4-0.4l0.5-0.6l0.4-0.9l0.1-0.6l-0.1-0.9l-1.4-0.9l-0.9-1l-0.1-0.4v-0.5v-0.6l-0.3-0.7l-0.4-0.4l-0.6-0.4l-1-0.4l-0.3-0.4
		l-0.2-0.2l-0.2-0.1l-0.9-0.2l-0.7-0.3l-0.4-0.1h-0.5l-3.2,0.9h-0.5l-0.2,0.1l-0.1,0.2v0.3l-0.1,0.3l-0.1,0.2l-0.2,0.2l-0.5,0.3
		l-0.3,0.3l-0.4,0.7l-0.2,0.3l-0.3,0.2l-0.3,0.1h-0.3l-0.1-0.1l-0.4-1.1l-0.5-1l-0.2-0.6l-0.1-0.6v-0.7l0.1-0.7l0.1-0.3L55.4,703.3z
		"/>
	<path id="SE-U" class="st1" d="M155.1,586l-0.3-0.8l0,0l-0.3-0.8l-0.8-4l-0.4-1.4l-2.7-6l-0.3-0.7l0.1-0.4l1.2-0.9l0.3-0.6l0.2-0.6
		l-0.1-1.2v-0.5l0.1-0.3h0.2h0.4l1.8,0.7l1.5,0.3l0.2,0.2l0.3,0.7l0.3,0.3l0.3,0.1l0.5-0.1l0.5-0.3l1.1-1l1.3-0.9l0.3-0.6l0.3-0.9
		l0.1-1.2v-0.9l-0.1-0.6l-0.2-0.3l-0.4-0.3l-0.3-0.3l-0.2-0.4V562v-0.2l0.3-0.5l0.8-1.7l0.3-0.3l0.3-0.1l0.7,0.1l0.3-0.1l0.4-0.4
		l0.5-0.9l2-6.5l0.2-1.2l-0.1-0.8l-0.5-0.6l-3.7-3.1l-1.8,0.6l-0.5,0.5l-0.5,0.2l-2.1-0.3l-0.2-0.1l-0.2-0.1h-0.1l-1-0.1l-0.4,0.1
		l-0.4,0.2l-0.4,0.5l-0.2,0.3v0.3v0.3v0.5l-0.3,0.5l-2.7,1.8l-0.7,0.2h-0.6l-1.1-0.5v0.7l-0.5,0.3l-3.8,1.1l-0.9,1.1l-1.2,2.3
		l-0.6,0.6l-0.7,0.4l-1.5,0.6l-1.2,0.2l-2.5-0.3l-0.5-0.2l-0.7-0.5l-0.3-0.4l-0.1-0.4v-0.4l-0.1-0.4l-0.2-1.2l-0.6-0.7l-0.4-0.2
		l-0.9-0.3l-0.4-0.3l-0.3-0.3l-0.6,0.2l-0.5-0.3l-1-0.3h-0.7l-0.6,0.1l-1.5,0.6h-0.2l-0.6-0.2h-0.5l-0.5,0.4L123,554v0.4l0.1,0.3
		v0.3l-0.4,1.3l-0.3,0.7l-0.5,0.6l-0.1,0.4l0.1,0.4l0.3,0.4l0.1,0.4v0.3v0.2l0.1,2l-0.1,0.3l-0.3,0.6l-0.7,0.8l-0.5,0.3l-0.5-0.1
		l-0.6-0.4l-0.7-0.3h-0.9l-0.6,0.4l-0.3,0.6l-0.2,0.9l-0.2,0.6l-0.6,0.7l-0.3,0.5l-0.3,0.5l-0.3,0.8l0.3,0.6l0.4,0.7v0.5l-0.1,0.4
		l-0.2,0.5l0.1,0.3l0.4,0.2l0.5,0.2l0.8,0.6l0.4,0.9l0.5,1.5l0.1,1l-0.1,1.1l-0.5,2.3v1.2l0.1,0.7l0.2,0.3l0.3,0.1h1.1l0.5,0.1
		l0.4,0.6l0.2,0.9l0.1,1.5l0.1,0.7l0.2,0.4l0.3,0.1l0.7-0.1l0.3,0.1l0.3,0.3v0.5l-0.1,0.5l-0.5,1v0.1v0.1v0.3l0.1,0.3l0.6,0.9
		l0.1,0.7v0.8l-0.3,0.6l-0.5,0.3l-2,0.7l-0.2,0.3l-0.2,0.6v0.6l0.1,0.5l0.2,0.4l0.3,0.4l0.1,0.3v0.2l-0.7,2l-0.1,0.5l0.2,0.2l1,0.6
		l0.6,0.6l0.6,1.1l0.3,0.5l0.4,0.2l1.1-0.1l0.3,0.1v0.3L124,602l-0.6,1l2.1-0.8l0.6-0.5l0.5-0.5l0.1-0.5v-0.5v-0.5v-0.4l0.2-0.5
		l1.5-2.8l0.3-0.3l0.5-0.5l1.1-0.5l0.6-0.1h0.5l1.6,0.5h0.6l0.8-0.1l1.8-0.7l0.6-0.4l0.3-0.3l0.1-0.2v-0.2V593l-0.1-0.1l-0.6-0.3
		l-0.2-0.3l-0.2-0.4l-0.1-0.4V591l0.1-0.3l0,0l0,0l0.3-0.2l14.6-2.9l0.4,0.1l0.7-0.1l0.3-0.1L155.1,586z"/>
	<path id="SE-D" class="st1" d="M168.5,627.6l-0.1-0.5l-0.3-0.3l-0.2,0.1v0.4v0.4l0.1,0.3L168.5,627.6z M168.8,625.3l-0.5-0.3
		l-0.3,0.1v0.3l0.1,0.3v0.2l-0.2-0.3l-0.2-0.2h-0.3l-0.3,0.1l-0.2,0.3v0.3h0.3l0.1,0.2v0.3v0.2h-0.1l-0.2-0.1h-0.1l0.1,0.3l0.1,0.3
		l0.2,0.2l0.2-0.2l0.3-1h0.3l0.4-0.2L168.8,625.3z M174.1,623.2l-0.1-0.3l-0.8-0.7l-1.7-1.2l-0.1-0.3v0.2l0.2,0.4l1,0.8l0.3,0.5
		l0.9,0.6H174.1z M155.1,586l-1.5,1.1l-0.3,0.1l-0.7,0.1l-0.4-0.1l-14.6,2.9l-0.3,0.2l0,0l0,0l-0.1,0.3v0.5l0.1,0.4l0.2,0.4l0.2,0.3
		l0.6,0.3l0.1,0.1v0.2v0.2l-0.1,0.2l-0.3,0.3l-0.6,0.4l-1.8,0.7l-0.8,0.1h-0.6l-1.6-0.5h-0.5l-0.6,0.1l-1.1,0.5l-0.5,0.5l-0.3,0.3
		l-1.5,2.8l-0.5,0.6v0.4v0.5v0.5l-0.1,0.5l-0.5,0.5l-0.6,0.5l-2.1,0.8l-0.2,0.5l0.1,0.4l0.2,0.8l0.6,1.7v0.5l-0.1,0.3l-0.4,0.3
		l-0.5,0.3l-0.7,0.2l-0.4,0.3l-0.3,0.3l-0.3,0.6l-0.9,0.9l-0.3,0.5l-0.3,0.5l-0.1,0.5l0.2,0.6l0.3,0.5l1.6,1.5l1.4,0.8l0.3-0.1
		l0.3-0.2l0.3-1l0.1-0.3l0.2-0.2l0.5-0.3h0.5l0.3,0.1l0.9,0.9l4.2,3.2l1.5,1.8l4.2,3.3l0.4,0.6l0.3,0.8l0.4,0.6l1.3,1.7l0.1,0.3
		l0.1,0.9l0.2,0.6l0.4,0.6l0.4,0.4l0.3,0.2l4.6,0.2l1.5,0.4l1.2,0.8l0.8,0.9l0.4,0.6l0,0l3.7,0.5l2.3-0.8h0.6l-0.4-0.9l-0.5-0.4
		l-1.2-0.1l0.6-0.8l0.9,0.2l1.5,1h0.6l0.4-0.4l0.4-0.7l0.6-0.7V628l-0.5-0.1l-1.1,0.1l-0.5-0.3l0.2-0.2l0.2-0.3l0.2-0.4v-0.4
		l-0.3-0.3l-0.8-0.1l-0.3-0.2l0.5-0.1l0.8-0.5l0.3-0.1l0.4,0.2l0.5,0.9l0.3,0.3l0.8,0.3l3,0.1V626l0.8-0.2h1.4l0.5-0.6l-0.1-0.7
		l-0.9-1.4l3.2,0.8l0.7-0.4l-0.6-0.6l-0.2-0.1l-0.2-0.2v-0.4l0.2-0.9l0.2-1.5l-0.1-0.6l-0.5-0.3v-0.3l0.9,0.5l2,1.6h0.7l-0.2-0.1
		l-0.2-0.2h0.6v-0.3l-0.8-0.6l-0.3-0.5l-0.3-0.6l0.6,0.1l0.6,0.3l0.6,0.1l0.5-0.4l0.2-0.8l-0.3-0.3l-0.3-0.2l0.3-0.4v-0.3l-0.3-0.1
		l-0.2-0.1l-0.2-0.2l-0.2-0.3l0.1-0.2l0.1-0.2l-0.7-0.8l-0.9-0.5l-1.2-0.2h-1.7l-0.5-0.1l-0.3-0.2l-0.6-1.1l-0.2-0.5l-0.2-0.6
		l-0.5-4l-0.7-1.7l-0.3-0.9l-0.2-0.7v-0.6l-0.1-0.7v-0.5l0.1-0.4l0.2-0.3l1-1.1l0.2-1v-1.4l0.1-1.2l0.3-0.6l0.3-0.4l0.3-0.2l0.4-0.1
		l0.9-0.1l0.4-0.3l0.2-0.6v-0.4l-0.3-0.5l-0.7-1.5l-0.6-0.6l-0.9-0.7l-1.6-0.8l-0.8-0.8l-0.5-0.8l-0.1-0.3V588l-0.1-0.1l-1-0.8
		l-0.8-0.4l-0.6-0.1l-2,0.3L155.1,586z"/>
	<path id="SE-E" class="st1" d="M151.3,657.8L151.3,657.8l-0.1-0.1v-0.1l0.3-0.2v-0.2l-0.1-0.4h-0.1l-0.3,0.1l-0.3,0.2l-0.1,0.4
		l0.3,0.5l0.6,0.3l0.4-0.1l0.1-0.3l-0.2-0.1l-0.2,0.1l-0.1,0.1L151.3,657.8z M154,652.7L154,652.7l-0.1-0.1l-0.2,0.3v0.4v0.3h0.1
		l0.3,0.2l0.2,0.1l0.3-0.3l-0.1-0.3v-0.1V653l-0.1-0.3l-0.2-0.1l-0.1,0.2H154L154,652.7z M156.2,650.4L156.2,650.4l0.2-0.3l0.2-0.1
		h0.2l0.2-0.1l0.1-0.2v-0.1l-0.1-0.1h-0.1l-0.3,0.1l-0.2,0.3h-0.1l-0.1,0.2L156.2,650.4L156.2,650.4L156.2,650.4z M153.7,650.4
		l0.2-0.1l0.3-0.3v-0.4l-0.2-0.2l-0.2,0.4l-0.2,0.3v0.5L153.7,650.4z M152.6,649.2l0.3-0.4v-0.6l-0.1-0.3l-0.3-0.3l-0.6-0.3
		l-0.3,0.3l0.1,0.7l0.3,0.7l0.2,0.2L152.6,649.2L152.6,649.2z M152.4,642.9l-0.2-0.1l-0.3,0.1l-0.1-0.1h-0.2l-0.3,0.2l-0.2,0.1
		l-0.5,0.3l-0.1,0.4l0.3,0.4l0.1,0.3v0.3l0.1,0.3l0.1,0.2l0.1,0.5l0.3,0.6l0.5,0.4l0.5,0.1h0.4l0.3-0.2l0.3-0.3l0.1-0.2l0.1-0.3l0,0
		l0.1-0.1l-0.2-0.1l-0.5,0.2h-0.6l-0.6-0.6l-0.4-0.5l-0.1-0.4l0.2-0.3h0.3v-0.2l-0.5-0.5h0.3l0.3-0.1l0.3-0.4L152.4,642.9
		L152.4,642.9z M155.1,641.9l0.2-0.1l0.2-0.4l-0.2-0.2h-0.2l-0.1,0.1l-0.3,0.2l0.1,0.2l0.1,0.4l0.1,0.1L155.1,641.9z M155.5,638.8
		l0.1-0.2h0.1l0.1-0.2l-0.1-0.3l-0.3-0.1l-0.4-0.2l-0.3,0.2v0.4l0.2,0.3l0.3,0.2L155.5,638.8z M154.7,637.6l-0.2-0.3l-0.2-0.1
		l-0.3-0.3l-0.4-0.3h-0.3l-0.2,0.1v0.3l0.4,0.5l0.5,0.2h0.2l0.1,0.2h0.2L154.7,637.6z M127.9,613.6l-0.9-0.9l-0.3-0.1h-0.5l-0.5,0.3
		l-0.2,0.2l-0.1,0.3l-0.3,1l-0.3,0.2l-0.3,0.1l-1.4-0.8l-1.2,0.5l-0.7,0.1l-0.7,0.3l-0.6,0.4l-0.2,0.4v0.4l0.1,0.3l0.1,0.6l-0.1,0.7
		l-0.7,1.1l-0.7,0.6l-2.9,1.4l-0.7,0.2h-0.7l-0.9-0.3h-0.7l-0.8,0.2l-2.8,1.9l-0.8,0.9l-2,3l-0.9,1.1l-0.5,0.4l-3,0.9l1,8.7l1.2,2.4
		l-2.5,2.4l-2.5,1.2l-2.5,2.4l-2.5,7l-0.1,4.2l6.2,0.8l1-0.1l0.6-0.3l0.4-0.4l0.2-0.5l0.1-0.9l0.2-0.2l0.3-0.1l1.4-0.4h0.2l0.2,0.3
		l0.1,0.3l0.5,1l0.2,0.6l0.3,1.2l0.2,1.1l0.1,0.3l0.2,0.4l0.7,1l0.2,0.3v0.3l-0.1,0.3l-0.1,0.2l-0.2,0.1l-0.3,0.1l-0.6,0.2l-0.2,0.2
		l-0.1,0.3v0.5l-0.1,0.4l-0.2,0.5v0.3l0.2,0.4v0.3v0.3l-0.1,0.3v0.4l0.2,0.6l0.9,1.5l0.3,0.7l0.1,0.6v0.6l0.2,0.7l0.3,1l0.7,1.7
		l0.6,1.1l0.6,0.6l0.6,0.2l6.4,0.6l0.3-1.1v-0.3l0.1-0.5l0.2-0.3l0.6-0.3l1.1-0.4l0.5-0.3l0.3-0.4l0.3-0.6l0.3-0.5l0.5-0.6l0.8-1.2
		l0.5-0.3l0.5-0.2l0.9-0.2h0.6l1,0.2l0.5,0.2l1.2,0.8l1.8,0.4l0.8,0.5h0.6l0.5-0.2l0.7-0.6l1-1.4l0.3-0.6l0.1-0.7l-0.1-0.7l-0.2-0.9
		l-0.1-0.6v-0.4l0.1-0.3l0.3-0.5l0.2-0.4l0.1-0.4v-0.3l-0.1-0.3l-0.9-1.4l-0.2-0.4v-0.4l0.1-0.4l0.1-0.4V660l-0.1-0.2l-0.2-0.2
		l-0.1-0.3l0.1-0.3l0.4-0.1l1.5,0.3l0.8-0.1l0.8,0.2l0.3-0.1l0.2-0.4l0.1-0.4l0.4-0.6l0.5-0.3l1.6-0.6l0.6-0.1l1.7,0.2l0.9-0.3h0.5
		l0.5,0.1l0.6,0.3l0.4,0.3l0.3,0.4l0.3,0.2l0.3,0.1l1-0.2h0.4l0.3,0.3l0.3,0.3l0.2,0.4l0.3,2.3l0.2,0.7l0.4,0.8l0.1,0.1l0.1,0.2
		l0.1,0.1l0.4,0.2h0.7l0,0l0,0l-0.8-0.3l-0.3,0.1l-0.6-1.2l-0.2-0.6l0.3-0.5l0.3,0.2l0.6,1.5l0.6,0.3l-0.3-0.6l0.1-0.3l0.8-0.5
		l0.2,0.4l0.2,0.1l0.2-0.1l0.2-0.4l-0.4-0.7l-0.4-0.3l-0.4-0.2l-0.6-0.4l0.4,0.1l0.3-0.1l0.1-0.3l-0.1-0.6l0.6-0.3l-0.5-0.9
		l-0.9-1.2l-0.6-0.9h0.2h0.3h0.2l-0.4-0.9l-1-1l-0.4-0.9l1.2,0.9l1.5,1.8l1.5,0.9l0.9-1.5l-0.3-0.2l-0.2-0.3l-0.1-0.3l0.2-0.1
		l0.3,0.1l0.2,0.1l0.1-0.1v-0.6l-0.1-0.7l-0.2-0.6l-0.3-0.5l-0.3-0.3l0.1-0.1l0.3-0.3l-1.9-1.2l-0.6-0.1v-0.3l0.9-0.1l0.3-0.2
		l0.1-0.2v-0.3v-0.3v-0.2h0.2l0.4,0.1l0.1-0.1l0.3-0.9l-0.5-0.1l-1.5,0.3l0.2,0.5v0.3l-0.1,0.2h-0.3l-0.3-0.1V648l0.1-0.5l-0.4-0.4
		l-0.9-0.8l-0.4-0.5l3.7,0.7l-0.1-1.2l-0.1-0.3l-0.3-0.3v0.2l-0.3,0.3l-0.4,0.2h-0.2l-0.1-0.4v-0.4l0.1-0.4v-0.5l-0.3-0.6l-0.3-0.3
		l-0.9-0.1l-5.5-3l-0.9-0.1l0.7-0.4l2.6,0.9l1.5,1l3.2,0.6l0.2,0.1l0.3,0.3h0.2l0.1-0.1l0.3-0.5l0.2-0.1l0.6-0.1l0.9-0.3l0.6-0.6
		l-0.2-0.7l0.6-0.3h1.3l0.6-0.4l-1.4-1.4l-1-0.3L152,637l0.3-0.5v-0.4h-0.7v-0.3l0.1-0.1l0.3-0.3l-0.7-0.1l-0.5-0.5l-0.2-0.8
		l0.3-0.9h-0.3l-0.9-0.3v0.3l0.1,0.6v0.3l-0.5-0.5l-1.1-0.2l-0.3-0.3l-0.5-0.6l-0.6-0.2l-3,0.1l-0.3-0.3l-1.3-0.8l-0.4-0.1l-0.3,0.4
		l-0.2,0.7l-0.1,0.8l-0.2,0.6l-0.2,0.2h-0.3l-0.3-0.2l-0.1-0.4V632v-0.2H140l-0.6-0.7l-0.3-0.2l-0.3,0.1l-0.4,0.6l-0.6,0.4l-1.2-0.6
		l-0.5,0.3l-0.2-0.5l-0.3-0.1l-0.3,0.1l-0.3,0.2v-0.3l0.5-0.1l1.1,0.3l0.4-0.1l0.2-0.4l-0.1-0.4l-0.3-0.3l-0.3-0.2v-0.4l9,1.1
		l5.2,0.6l0,0l-0.4-0.6l-0.8-0.9l-1.2-0.8l-1.5-0.4l-4.6-0.2l-0.3-0.2l-0.4-0.4l-0.9-0.7l-0.2-0.6l-0.1-0.9l-0.1-0.3l-1.3-1.7
		l-0.4-0.6l-0.3-0.8l-0.4-0.6l-4.2-3.3l-1.5-1.8L127.9,613.6z"/>
	<path id="SE-T" class="st1" d="M116,568l-4.8-6.2l-0.3-0.3l-0.5-0.4l-5.7-2.5l-2.4-0.6l-1.2-0.7l-0.5-0.5l-0.2-0.3v-0.3v-0.3v-0.2
		l-0.1-0.2h-0.4l-0.5,0.2l-1.2,0.9l-0.3,1l-0.1,1l0.5,1.9l-0.7,0.2h-0.7l-6.9-1l0.1,1.8l-2.2,1.4l-0.4,0.4l-0.1,0.4l0.1,0.3l0.3,0.3
		l0.9,0.6l0.4,0.5l0.3,1l0.2,4.6l-0.1,3.4v1.3l0.3,2.1l0.2,0.9l0.3,1.2l0.2,1l0.2,2.2v0.8l-0.1,0.3l-0.3-0.2l-0.2-0.1l-0.3,0.1
		l-0.2,0.4l-0.2,0.8v0.6l0.2,0.5l0.3,0.4l0.5,0.5l0.1,0.1l0.1,0.8l-0.1,0.5l-0.3,0.5l-0.9,1l-0.2,0.3l-0.1,0.3l-0.2,0.5l-0.9,2.1
		l-0.6,1.8l-0.5,2.1l-0.4,3l-0.1,1.7v2.3l0.1,0.7l0.3,1.5l0.1,1.1l-0.1,2l-0.4,2.1l0.4,1.4l0.2,0.5l0.4,1.4l0.5,1.2l0.6,1.2l0.2,0.5
		v0.5v0.7v0.6l0.3,0.7l1.5,2.4l0.4,0.9l0.1,0.8v1l0.2,0.5l0.6,0.3l1,0.2l0.3,0.2l0.1,0.4l0.1,0.2h0.2l0.5-0.3l0.4-0.3l0.2-0.3
		l0.1-0.3v-0.3l0.1-0.2l0.3-0.1l0.5,0.1l0.5,0.4l0.5,1.1l5.1-6.4l1.8,3.6l-2.3,4.4l3-0.9l0.5-0.4l0.9-1.1l2-3l0.8-0.9l2.8-1.9
		l0.8-0.2h0.7l0.9,0.3h0.7l0.7-0.2l2.9-1.4l0.7-0.6l0.7-1.1l0.1-0.7l-0.1-0.6l-0.1-0.3v-0.4l0.2-0.4l0.6-0.4l0.7-0.3l0.7-0.1
		l1.2-0.5l-1.6-1.5l-0.3-0.5l-0.2-0.6l0.1-0.5l0.3-0.5l0.3-0.5l0.9-0.9l0.3-0.6l0.3-0.3l0.4-0.3l0.7-0.2l0.5-0.3l0.4-0.3l0.1-0.3
		v-0.5l-0.6-1.7l-0.2-0.8l-0.1-0.4l0.2-0.5l0.6-1l0.1-0.3v-0.3l-0.3-0.1l-1.1,0.1l-0.4-0.2l-0.3-0.5l-0.6-1.1l-0.6-0.6l-1-0.6
		l-0.2-0.2l0.1-0.5l0.7-2v-0.2l-0.1-0.3l-0.3-0.4l-0.2-0.4l-0.1-0.5v-0.6l0.2-0.6l0.2-0.3l2-0.7l0.5-0.3l0.3-0.6v-0.8l-0.1-0.7
		l-0.6-0.9l-0.1-0.3v-0.3V587v-0.1l0.5-1l0.1-0.5v-0.5l-0.3-0.3l-0.3-0.1l-0.7,0.1l-0.3-0.1l-0.2-0.4l-0.1-0.7l-0.1-1.5l-0.2-0.9
		l-0.4-0.6l-0.5-0.1h-1.1l-0.3-0.1l-0.2-0.3l-0.1-0.7V578l0.5-2.3l0.1-1.1l-0.1-1l-0.5-1.5l-0.4-0.9l-0.8-0.6l-0.5-0.2l-0.4-0.2
		l-0.1-0.3l0.2-0.5l0.1-0.4v-0.5l-0.4-0.7L116,568z"/>
	<path id="SE-G" class="st1" d="M118.4,700.7l-3.5-1.2l-1.2-0.1l-3.6,0.2l-0.3-0.1l-1.5-0.2l-0.1,0.1l0.3,1.2l0.1,0.5v0.4l-0.2,0.1
		l-1-0.3l-0.6,0.1l-0.8,0.5l-1.4,1.4l-0.6,0.3l-0.4,0.1l-0.9-0.1l-0.6-0.3l-0.4-0.5l-0.2-0.5l-0.1-0.6l-0.3-0.4l-2.2-1.3h-1
		l-1.3,0.4l-4.5,2.1l-3,0.6l-0.7,0.3l-0.6,0.6l-0.2,0.9l-0.2,2.6l-0.3,1.3v0.5l0.1,0.5l0.2,0.4l0.3,0.3l0.4,0.3v0.1v0.4l0.1,0.8v0.4
		l-0.1,0.5l-0.6,1.4l-0.9,1.6l-0.1,0.1h-0.1l-0.2,0.1l-0.8-0.1l-0.8-0.4l-0.4-0.4l-0.3-0.4l-1-3.1l-0.4-0.9l-0.1-0.2l-0.3-0.4
		l-0.4-0.4l-0.7-0.4l-0.7-0.6l-0.6-0.3h-0.3h-0.5l-0.6,0.3h-0.7l-0.9,0.2l-2.1,1.7l-0.3,0.1l-0.3-0.1l-1.1-1l-0.7-0.5l-0.5,0.1
		l-0.3,0.1l-1.5,2.2l0.1,0.9l-0.1,0.6l-0.4,0.9l-0.5,0.6l-0.4,0.4l-0.5,0.3L66,716l-1,0.6l-0.4,0.1h-1.7l-0.4,0.1l-0.9,0.4l-0.4,0.1
		l-0.2,0.1l-0.1,0.3l-0.3,0.7l-0.2,0.6l-0.1,0.7v1.3l-0.1,2.3v0.7v0.4v0.3l-0.1,0.4v0.2l0.6,0.6l0.5,0.7l1.7,3.2l0.5,1.1l0.3,0.9
		l0.2,1.5v0.6v0.4v0.3v0.4v0.4l0.1,0.5l0.4,1.2l0.8,1.1h1.9l10.8-2.6l0.8-0.3l0.5-0.3l0.1-0.3l0.1-0.6l0.1-0.3l0.2-0.3l0.3-0.4
		l0.5-0.3h0.4l0.4,0.2l0.6,0.6l0.4,0.1h3l0.8,0.2l1.3,0.6l4.7,1.4l1.5,0.6l0.8,0.7l1,1.1l0.9,0.8l0.6,0.4l3.7,1.1h0.6l0.6-0.2
		l0.9-0.8l0.9-1.3l0.2-0.4l0.1-0.3v-0.3l0.2-0.2l0.3-0.1l1.1-0.1l1.2-0.4h0.5l0.3,0.1l0.8,0.5l0.6,0.3l0.4,0.1h0.3l0.2-0.1l0.1-0.2
		l0.1-0.3l0.2-0.3l0.3-0.3l0.6-0.2h0.6l0.7,0.2h0.4l0.3-0.1l0.5-0.6l-0.2-0.5v-0.2v-0.1l0.3-1.5l0.2-0.4l0.2-0.3l0.3-0.2l0.2-0.3
		l0.1-0.5v-0.8l0.3-4.3l-0.1-0.9l-0.1-0.6l-0.3-1.2l-0.2-1v-0.5l0.2-0.3l0.6-0.3l0.3-0.2l0.3-0.4l0.3-0.2l0.4-0.1h1.2l0.3-0.1
		l0.3-0.3l0.2-0.3l0.1-0.4v-0.6l-0.1-0.7l-0.2-0.7l-0.4-1.2V716l0.2-0.4l0.3-0.3l0.3-0.2l0.4-0.1l0.5,0.1l1.6,0.9h0.3h0.2l0.5-0.3
		h2.4l0.7-0.2l0.6-0.7l0.3-0.8v-1l-0.2-0.6l-0.5-1.1l-0.1-0.2v-0.3l-0.1-0.3l-0.2-0.4l-1.5-2.1l-0.3-0.5l-0.3-0.4l-1.1-1.2l-0.2-0.3
		l-0.1-0.3V705v-0.2l-0.3-0.2l-1.6-0.6l-0.4-0.4L119,703v-0.7v-0.4l-0.2-0.3L118.4,700.7z"/>
	<path id="SE-W" class="st1" d="M90.7,477.4l-2.6,0.5l-2.2-1L68,473.7l-1.6-1.5l-0.6-2l-0.7-1.7l-1.2-2.2l-1-2.3l-2.1-3.9l0.8-4.1
		l0.6-1.3l-2.5-2.4l-2.6,0.2l-3.6-2.1l-1.9-2.7l-4.6-4.2l-11.8-3.8l-0.7,0.1v2.1l-2,14.1l-2,14l0.3,0.7l3,3.3l1.2,1l2.1,2.8l0.7,0.5
		l1,0.3l1.8,0.1l0.9,0.3l0.8,0.8l6.8,9.6l0.3,0.5v0.6l-0.9,5.1l-0.4,1.5l-0.5,1.2l-1.9,2.9l-0.2,0.5l-0.2,0.7l-0.5,3.6l-0.1,0.2
		l0.1,0.1l0.8,2.1l0.3,0.7l8.9,9.8l1.1,1.6l0.6,1.3l0.8,2.6l0.2,0.4l0.3,0.3l0.4,0.2l0.3,0.3l0.4,0.4l3.6,6.4l0.9,2l0.4,1.2v0.1
		l1,1.7l0.3,0.5l0.6,0.5l2.9,1.5l0.7,0.6l4.6,7.6l2.8,3l0.6,0.3l0.6-0.3l0.4-0.3l0.1-0.2v-0.2l-0.8-0.9l-0.3-0.5l-0.1-0.5v-0.3
		l0.2-0.1h0.3l1.3,0.6l2.2,0.2l0.4,0.3l0.4,0.5l0.6,1.2l0.7,1.9l0.1,0.6l0.6,1.1l0.5,1.6l5,3.6l6.9,1h0.7l0.7-0.2l-0.5-1.9l0.1-1
		l0.3-1l1.2-0.9l0.5-0.2h0.4l0.1,0.2v0.2v0.3v0.3l0.2,0.3l0.5,0.5l1.2,0.7l2.4,0.6l5.7,2.5l0.5,0.4l0.3,0.3l4.8,6.2l0.3-0.8l0.3-0.5
		l0.3-0.5l0.6-0.7l0.2-0.6l0.2-0.9l0.3-0.6l0.6-0.4h0.9l0.7,0.3l0.6,0.4l0.5,0.1l0.5-0.3l0.7-0.8l0.3-0.6l0.1-0.3l-0.1-2v-0.2v-0.3
		l-0.1-0.4l-0.3-0.4l-0.1-0.4l0.1-0.4l0.5-0.6l0.3-0.7l0.4-1.3v-0.3l-0.1-0.3v-0.4l1.2-1.2l0.5-0.4h0.5l0.6,0.2h0.2l1.5-0.6l0.6-0.1
		h0.7l1,0.3l0.5,0.3l0.6-0.2l0.3,0.3l0.4,0.3l0.9,0.3l0.4,0.2l0.6,0.7l0.2,1.2l0.1,0.4v0.4l0.1,0.4l0.3,0.4l0.7,0.5l0.5,0.2l2.5,0.3
		l1.2-0.2l1.5-0.6l0.7-0.4l0.6-0.6l1.2-2.3l0.9-1.1l3.8-1.1l0.5-0.3v-0.7l-0.3-0.6l-0.3-0.3l-0.5-0.5l-0.4-0.6l-0.4-0.9l-0.7-1.7
		l-0.5-0.9l-1.4-2l-0.9-0.9l-0.6-0.5l-0.4-0.2l-0.4-0.1l-0.6-0.6l-0.8-1l-2.4-4.4l-0.1-0.2l-0.2-0.1l-0.3-0.1l-0.3-0.3l-0.4-0.6
		l-1.3-2.7v-0.7l0.1-1.6l1.5-1.2l2.1-3.1l0.3-0.9l0.4-0.6l0.5-0.5l0.1-0.2l0.3-0.9v-0.7l-0.1-0.8l-0.5-1l-0.7-1l-1.4-1.5l-1.1-1.5
		l-0.3-1.2l-1-2.3l-0.7-1.3l-0.7-1.1l-0.9-0.4l-5.2-1.2l-3-1.8l-0.9-1l-1.7-2.5v-0.2v-0.4v-0.8l-0.2-1.6l-0.5-1.8l-1-1.6l-4.8-5.4
		l-5.4-8.1l-0.3-0.7l-0.4-0.4l-0.9-1.5l-1,1.5l-0.4,0.4l-0.3,0.6l-0.4,0.3H96.6l-0.2-0.3l-0.1-0.6l-0.5-0.9l-0.3-2.1L90.7,477.4z"/>
	<path id="SE-H" class="st1" d="M145.9,705.6l-0.6-0.4H145v0.2v0.2v0.3l0.2,0.2l0.3-0.1h0.3l0.2,0.2v0.1h0.1h0.2l0.4,0.2l0.2-0.2
		l-0.3-0.3l-0.4-0.1L145.9,705.6z M144.6,702.4h-0.1l-0.1,0.1h-0.1l-0.2-0.1h-0.2l-0.3,0.6v0.2l0.1,0.3l0.2,0.2l0.8-0.5v-0.3v-0.3
		L144.6,702.4z M150.8,699v-0.2l-0.2-0.3l-0.2,0.3L150.8,699L150.8,699z M157.9,694.4l-0.2-0.7h-0.3l-0.5,0.3l-0.4,0.4l-0.8,1.3
		l-0.6,0.6l-0.1,0.8l-0.1,2.7l-0.1,0.4l-0.3,0.4l-0.6,0.3l-0.3,0.3l-0.1,0.5l-0.5,3.5l-1.1,2.8l-1.3,2.6l-1.2,3l-0.4,1.8l-0.4,0.6
		l-0.7,0.2h-0.8l-0.6,0.2l-0.4,0.5l-4.4,11.1l-0.2,1l-0.1,0.4l-0.6,1.1l-0.5,1.5l-0.1,0.5l-0.2,4l0.1,0.9l0.3,0.9l0.2,0.9l-0.2,0.7
		v2v1.2l-0.2,1l0.3,1.3v0.5v1.1v0.4l0.4,0.5h0.6l0.6-0.4l0.5-0.6l1.3-3.1l0.2-0.8l0.1-0.5l0.4-0.6l0.1-0.5v-1.1v-0.4l0.2-0.9l0.3-1
		l0.3-1l0.4-0.9l0.1-0.5l0.1-0.5v-0.8v-0.2l0.2-0.5l0.1-0.3V733l-0.2-0.1v-0.3l0.1-1l0.2-0.4l0.3-0.2l0.2-0.2l0.3-0.4l0.2-0.5
		l0.1-0.4l0.1-1.1l0.2-0.9l1.5-4.8l0.1-0.9v-0.5v-0.5l0.1-0.4l0.2-0.4l0.2-0.3l1.2-0.7h0.1l0.3-0.9l0.4-2.5l0.3-0.5l0.4-0.4v-0.9
		l-0.2-1l-0.2-0.6l0.7-1.3l0.4-0.5l0.5-0.5l-0.3-0.1l-0.3-0.2l-0.2-0.3l-0.2-0.4l0.6-0.4l0.6-0.3l0.5-0.6l0.2-1.2l0.2-0.7l1.1-2.1
		l0.1-0.4l0.1-0.7l0.1-0.4l0.1-0.1l0.3-0.2l0.1-0.1v-0.2v-0.4l0.4-1.2v-0.7l-0.6-1.4l0.9-1.6l0.6-0.6l0.7-0.1v-0.3l-0.1-0.3
		l-0.1-0.2l-0.1-0.2v-0.2v-0.1v-0.1V694h-0.1l-0.2,0.4l-0.2,0.1L157.9,694.4z M148.7,686.8l-0.2-0.4l-0.3-0.3l-0.5-0.3l0.1,0.3
		l0.2,0.5l0.3,0.2H148.7L148.7,686.8z M148.9,681.9l0.1-0.4l-0.1-0.3l-0.6-0.2l-0.1,0.1v0.3v0.4v0.3l-0.6-0.1l-0.1,0.2l-0.3,0.1v0.2
		l-0.1,0.3v0.4l0.1,0.2l0.1-0.1V683l0,0h0.2v-0.1l0.1-0.1l0.2,0.1l0.1,0.3l0.3,0.2l0.2-0.1L148.9,681.9z M148.5,673.3v-0.2v-0.2
		l0.2-0.2v-0.2l0.1-0.1l-0.1-0.3l-0.3-0.3l-1-0.1l-0.2,0.1L147,672l0.2,0.3l0.6,0.4l0.1,0.2L148.5,673.3L148.5,673.3z M149,669.8
		h-0.4h-0.1l0.1,0.1l-0.3,0.3v0.3h0.1l0.1-0.1h0.1l0.3,0.3l0.1,0.2l0.1,0.3l0.1,0.2v0.3l0.1,0.1l0.2,0.1l0.4-0.3l0.2,0.1l0.1,0.1
		l0.2,0.3h0.2v-0.3l-0.3-0.2l-0.2-0.3v-0.2V671l-0.1-0.1v-0.2v-0.2h-0.4L149,669.8z M141.5,656.4l-0.5-0.1h-0.5l-0.9,0.3l-1.7-0.2
		l-0.6,0.1l-1.6,0.6l-0.5,0.3l-0.4,0.6l-0.1,0.4l-0.2,0.4l-0.3,0.1l-0.8-0.2l-0.8,0.3l-1.5-0.3l-0.4,0.1l-0.1,0.3l0.1,0.3l0.2,0.2
		l0.1,0.2v0.3l-0.1,0.4l-0.1,0.4v0.4l0.2,0.4l0.9,1.4l0.1,0.3v0.3l-0.1,0.4l-0.2,0.4l-0.3,0.5l-0.1,0.3v0.4l0.1,0.6l0.2,0.9l0.1,0.7
		l-0.1,0.7l-0.3,0.6l-1,1.4l-0.7,0.6l-0.5,0.2h-0.6l-0.8-0.5l-1.8-0.4l-1.2-0.8l-0.5-0.2l-1-0.2h-0.6l-0.9,0.2l-0.5,0.2l-0.6,0.3
		l-0.8,1.2l-0.5,0.6l-0.3,0.5l-0.3,0.6l-0.3,0.4l-0.5,0.3l-1.1,0.4l-0.6,0.3l-0.2,0.3l-0.1,0.5v0.3l-0.3,1.1l0.5,0.8l0.3,0.3
		l0.9,0.6l0.8,0.8l0.3,0.2h0.5h0.2l0.2,0.1l0.5,0.3l0.3,0.2l0.2,0.3l0.2,0.5l0.1,0.2l0.2,0.2l0.6,0.2l0.1,0.2l-0.1,0.3l-1.2,1.8
		l-0.1,0.4l0.1,0.4l0.3,0.3l0.6,0.3l0.2,0.2l0.1,0.3v0.5v0.5l-0.2,0.4h-0.1l-0.1,0.1l-0.2,0.4l-0.2,0.5l-0.1,0.8l-0.2,0.5l-0.2,0.2
		h-0.2l-0.2-0.1l-0.2-0.3l-0.2-0.3l-0.2-0.2l-0.2-0.1h-0.2l-0.3,0.1l-0.3,0.3l-0.2,0.5l-0.1,0.6l0.1,1.3v0.4l-0.3,0.9v0.5l0.2,1.4
		l-0.1,0.7l-0.2,0.3l-0.3,0.4l-0.1,0.2v0.4l0.1,0.6l0.2,0.6l1.1,1.7l0.2,1.4l0.6,0.6l0.2,0.3v0.4v0.7l0.2,0.6l0.4,0.4l1.4,0.6
		l0.3,0.2v0.2v0.3l0.1,0.3l0.2,0.3l1.1,1.2l0.3,0.4l0.3,0.5l1.5,2.1l0.2,0.4l0.1,0.3v0.3l0.1,0.2l0.5,1.1l0.2,0.6v0.7l-0.3,0.8
		l-0.6,0.7l-0.7,0.2h-2.4l-0.5,0.3h-0.2h-0.3l-1.6-0.9l-0.5-0.1l-0.4,0.1l-0.3,0.2l-0.3,0.3l-0.2,0.4v0.5l0.4,1.2l0.2,0.7l0.1,0.7
		v0.6l-0.1,0.4l-0.2,0.3l-0.3,0.3l-0.3,0.1h-1.2l-0.4,0.1l-0.3,0.2l-0.3,0.4l-0.3,0.2l-0.6,0.3l-0.2,0.3v0.5l0.2,1l0.3,1.2l0.1,0.6
		l0.1,0.9l-0.3,4.3v0.8l-0.1,0.5l-0.2,0.3l-0.3,0.2l-0.2,0.3l-0.2,0.4l-0.3,1.5v0.1v0.2l0.2,0.5l0.7-0.8l0.2-0.1l0.6-0.1l0.5,0.1
		l0.6,0.3l1.4,0.3h0.2l0.2-0.1l0.1-0.2v-0.2V734l0.1-0.1l0.3-0.3h0.3h0.4l0.5,0.3l1.8,2.1l1.5,1.4l2,2.5l1.5,1.2l3.1,1.2l0.8,0.1
		l0.5-0.1l0.3-0.3l0.5-0.2h0.1l0,0l0.8-3.9l0.6-1.7l1.2-2.5l0.2-0.9l0.2-0.5l0.7-0.1l0.2-0.5v-1.1l0.1-1v-0.5v-0.2l0.1-0.3l0.6-1.3
		l0.2-0.4l0.3-0.2l0.3-0.1l0.3-0.2l0.3-0.1l0.6,0.5h0.4l0.4-0.1l0.3-0.3l0.2-0.7v-0.9l-0.1-1.5l-0.4-1l-0.2-0.6l0.1-0.3l0.4-0.1
		l0.5-0.4l0.4-0.1l0.4,0.1l0.7,0.3l0.3-0.1l0.1-0.3l0.1-0.4V720l-0.3-0.2l-0.3,0.2l-0.3,0.3l-0.3,0.2l-0.3-0.2l-0.2-0.5v-0.4
		l0.7-2.3l0.1-0.5v-0.5l-0.1-1.3v0.2l0.7-1.3l0.1-0.5l-0.2-0.3l-0.3-0.4l-0.3-0.6l-0.1-1l0.1-0.8l0.3-0.4h0.5v-0.3l-0.3-0.1
		l-0.2-0.2l-0.2-0.3l-0.2-0.3h0.3l0.6,0.3l0.4,0.1l0.1,0.1l0.1,0.1l0.1-0.1v-0.2v-0.3v-0.3l0.1-0.1l0,0V708l0.1-0.1h0.2l0.2,0.1v0.2
		v0.2v0.1l0.9,0.3h0.3l-0.2-0.5l-0.3-0.6l-0.2-0.6l0.4-0.3l-0.4-1.1l-0.3-0.4h-0.2l-0.2,0.1l-0.3-0.2l-0.3-0.3l-0.7-1.3l-0.4-1.1
		l-0.2-1.3l0.2-1.2l0.7-0.7l-0.6-1.5l0.4-0.9l2-1.2l-0.4-0.5V695l0.3-0.2l0.3-0.4l-0.9-0.6l0.3-1.1l0.6-0.2l1.5,0.3l-0.2-0.9
		l0.3-0.3l0.5-0.1l0.4-0.3l-0.5-0.2l-0.4-0.4l-0.1-0.5l0.1-0.6l0.3-0.3h0.4l0.1-0.2l-0.3-0.8l0.8,0.2l-0.2-0.9l-0.6-1.2l-0.7-2
		l-0.9-0.4l-2-0.1v-0.3h0.7v-0.3l-0.6-0.3v-0.3l0.2-0.1l0.4-0.6l-0.2-0.2l-0.1-0.2l-0.3-0.6l0.3,0.2l0.2,0.1l0.2-0.1l0.2-0.2v0.5
		v0.6v0.5l0.1,0.2l0.2-0.1l0.7-0.7l0.3-0.3l0.3-0.3l0.3-0.1l0.1-0.2l-0.2-0.6l-0.3-0.3H145l-0.3-0.1l-0.2-0.5l0.6,0.3l0.3-0.1v-0.4
		l-0.3-0.8l-0.2-0.3l-0.5-0.6l-0.2-0.5l0.8,0.5l0.8,0.3l1.8,0.2v-0.3h-0.3v-0.3h0.6l-0.3-0.7l-0.4-0.4l-0.5-0.2h-0.6l0.3-0.3
		l-0.3-0.5l-0.9-1l-0.3-0.2l-0.3-0.1l-0.2-0.3l-0.2-0.4L144,673l-1.1-1.5l-1.5-1l-0.9-0.9l-0.3-0.6l-0.2-0.9l3.2,2.7l2.1,3.2
		l0.3,0.4l1.2,0.9l0.4,0.2l0.2-0.3l-0.8-0.7l-5.6-6.3v-0.3l0.5,0.2l0.2,0.2l0.2-0.3l-0.3-0.6l1.1,0.4l0.5,0.3l0.5,0.6l0.3-0.3
		l0.1-0.4v-0.5l-0.2-0.5l0.1-0.1l0.3-0.4l0.1-0.1l-1.5-0.7l-0.7-1l-0.2-0.3l-0.1-0.3l0.1-0.4l0.2-0.3h0.3l3.3,3.8l-0.2-0.2l-0.3-0.1
		H145h-0.3l0.2,0.4l0.1,0.4v0.4l-0.1,0.4l1,0.2h0.5l0.2-0.3l0.1-1l0.2,0.1l0.5,1.2l0.3,0.4l0.5,0.3h0.4l0.3-0.5l-0.1-0.6l-0.8-0.7
		l-0.2-0.7l1,0.6h0.4l-0.2-0.4l-0.7-0.8l-0.2-0.3v-0.8l-0.1-0.5l-0.2-0.1l-0.3,0.3l-0.3,0.2l-0.2-0.4l-0.3-0.9H146l-0.4-0.2
		l-0.1-0.1l-0.1-0.2l-0.1-0.1l-0.4-0.8l-0.2-0.7l-0.3-2.3l-0.2-0.4l-0.3-0.3l-0.3-0.3h-0.4l-1,0.2l-0.3-0.1l-0.3-0.2l-0.3-0.4
		l-0.4-0.3L141.5,656.4z"/>
	<path id="SE-F" class="st1" d="M115.7,676.7l-6.4-0.6l-0.6-0.2l-0.6-0.6l-0.6-1.1l-0.7-1.7l-0.3-1l-0.2-0.7v-0.6l-0.1-0.6l-0.3-0.7
		l-0.9-1.5l-0.2-0.6v-0.4l0.1-0.3v-0.3v-0.3l-0.2-0.4v-0.3l0.2-0.5l0.1-0.4v-0.5l0.1-0.3l0.2-0.2l0.6-0.2l0.3-0.1l0.2-0.1l0.1-0.2
		l0.1-0.3v-0.3l-0.2-0.3l-0.7-1l-0.2-0.4l-0.1-0.3l-0.2-1.1l-0.3-1.2l-0.2-0.6l-0.5-1l-0.1-0.3l-0.2-0.3h-0.2l-1.4,0.4l-0.3,0.1
		l-0.2,0.2l-0.1,0.9l-0.2,0.5l-0.4,0.4l-0.6,0.3l-1,0.1l-6.2-0.8l-3,2.8l-2.5,5.8l-3.1,5.8l-1.2,6.9l-3.1-5.8v-4.3l-1.2,0.5
		l-0.2,0.1l-0.1,0.2l-0.1,0.3l-0.1,0.3v0.4v0.3l-0.1,0.3l-0.3,0.1l-0.4-0.1l-0.6-0.4l-0.7-0.6l-0.6-0.2l-2.7,0.3l-0.6-0.2h-1.4
		l0.4,2.2v0.7v0.6l-0.2,0.4l-0.3,0.4l-0.2,0.4l-0.2,0.5l-0.3,1.2v0.6l0.1,0.6l0.1,0.9l-0.1,0.6l-0.5,0.9l-0.3,0.8l-0.1,0.7v1.8
		l-0.2,0.7l-0.3,0.5l-0.9,1l-1.1,1.8l-1.4,3l-0.3,0.6l-0.3,0.3l-1.1,0.9l-1.6,2.1l-1.1,1l-1,0.5l-0.5,0.3l-0.4,0.6l-0.5,1.4
		l-0.2,0.3l-0.2,0.1l-0.4,0.1l-0.5,0.5l-0.6,0.9l-1.4,2.7l-0.4,0.6l-0.5,0.6l-0.4,0.5l-0.1,0.3l0.3,0.6v0.7l0.1,0.6l0.2,0.6l0.5,1
		l0.4,1.1l0.1,0.1h0.3l0.3-0.1l0.3-0.2l0.2-0.3l0.4-0.7l0.3-0.3l0.5-0.3l0.2-0.2l0.1-0.2l0.1-0.3v-0.3l0.1-0.2l0.2-0.1h0.5l3.2-0.9
		h0.5l0.4,0.1l0.7,0.3l0.9,0.2l0.2,0.1l0.2,0.2l0.3,0.4l1,0.4l0.6,0.4l0.4,0.4l0.3,0.7v0.6v0.5l0.1,0.4l0.9,1l1.4,0.9l1.5-2.2
		l0.3-0.1l0.5-0.1l0.7,0.5l1.1,1l0.3,0.1l0.3-0.1l2.1-1.7l0.9-0.2h0.7l0.6-0.3H80h0.3l0.6,0.3l0.7,0.6l0.7,0.4l0.4,0.4l0.3,0.4
		l0.1,0.2l0.4,0.9l1,3.1l0.3,0.4l0.4,0.4L86,716l0.8,0.1L87,716h0.1l0.1-0.1l0.9-1.6l0.6-1.4l0.1-0.5V712l-0.1-0.8v-0.4v0.2
		l-0.4-0.3l-0.3-0.3l-0.2-0.4l-0.1-0.5V709l0.3-1.3l0.2-2.6l0.2-0.9l0.6-0.6l0.7-0.3l3-0.6l4.5-2.1l1.3-0.4h1l2.2,1.3l0.3,0.4
		l0.1,0.6l0.2,0.5l0.4,0.5l0.6,0.3l0.9,0.1l0.4-0.1l0.6-0.3l1.4-1.4l0.8-0.5l0.6-0.1l1,0.3l0.2-0.1v-0.4l-0.1-0.5l-0.3-1.2l0.1-0.1
		l1.5,0.2l0.3,0.1l3.6-0.2l1.2,0.1l3.5,1.2l-0.2-1.4l-1.1-1.7l-0.2-0.6l-0.1-0.6v-0.4l0.1-0.2l0.3-0.4l0.2-0.3l0.1-0.7l-0.2-1.4
		v-0.5l0.3-0.9V691l-0.1-1.3l0.1-0.6l0.2-0.5l0.3-0.3l0.3-0.1h0.2l0.2,0.1l0.2,0.2l0.2,0.3l0.2,0.3l0.2,0.1h0.2l0.2-0.2l0.2-0.5
		l0.1-0.8l0.2-0.5l0.2-0.4l0.1-0.1h0.1l0.2-0.4v-0.5v-0.5l-0.1-0.3l-0.2-0.2l-0.6-0.3l-0.3-0.3l-0.1-0.4l0.1-0.4l1.2-1.8l0.1-0.3
		l-0.1-0.2l-0.6-0.2l-0.2-0.2l-0.1-0.2l-0.2-0.5l-0.2-0.3l-0.3-0.2l-0.5-0.3l-0.2-0.1h-0.2h-0.5l-0.3-0.2l-0.8-0.8l-0.9-0.6
		l-0.3-0.3L115.7,676.7z"/>
	<path id="SE-X" class="st1" d="M165.1,520.5l0.2-0.2v-0.1l-0.5-0.1l-0.1-0.2l-0.2-0.3h-0.4l-0.2,0.1l-0.1,0.2v0.3v0.3l0.1,0.3
		l0.4-0.2l0.2,0.1h0.2L165.1,520.5z M162.4,507.9v-0.1v-0.2v-0.2h0.1l0.1-0.1V507l-0.1-0.2l-0.1-0.1l-0.2-0.1H162l-0.2,0.1l-0.2,0.4
		l-0.2,0.4v0.3l0.3,0.3l0.6,0.1L162.4,507.9z M164.3,501.6l0.1-0.4v-0.5v-0.2l0.1-0.1v-0.2l-0.3-0.1l-0.3,0.1l-0.2,0.3v0.3v0.3
		l0.1,0.3l0.2,0.3L164.3,501.6z M167.4,479.4H167l-1.2-0.3l-0.4,0.2v0.4l0.1,0.4l0.2,0.3h0.2l0.1-0.2V480l0.1-0.2v-0.2l0,0v0.3
		l0.1,0.3l1.5,0.1l0.3-0.3l-0.2-0.4L167.4,479.4z M163.3,479.5l0.4-0.3l-0.1-0.2l0,0l0.1-0.1v-0.3l-0.1-0.2l-0.6-0.2l-0.1,0.2v0.3
		l-0.1,0.2v0.3v0.3l0.2,0.2L163.3,479.5z M170.4,470.1l-0.3-0.3l-0.5,0.1l-0.1,0.5l0.3,0.3l0.1-0.1v-0.2l0.1-0.1h0.1L170.4,470.1
		L170.4,470.1z M168.6,457.9v-0.2v-0.3l-0.1-0.2l-0.2-0.1l-0.1,0.4l0.2,0.4L168.6,457.9z M169.7,457.8l0.2-0.3l-0.1-0.2l-0.6-0.1
		l-0.3-0.2v0.1l0.1,0.3l0.2,0.3l0.2,0.2L169.7,457.8z M165,461.9l0.4-0.3l0.1-0.3l-0.1-0.4l-0.3-1l-0.1-0.7v-0.7l0.1-0.6l0.2-0.4
		l0.3-0.2l0.6-0.2l0.1-0.5V456l0.1-0.6l0.3-0.2l1.2-0.2l0.3-0.2l-0.2-0.5l-0.4-0.5l-0.3-0.3l0.9-1.2l0.3-0.8l-0.6-0.3l0.5-0.4
		l0.1-0.5v-0.7v-1.1l0.2-0.8l0.4-0.9l0,0l-6.3-1.2l-1.2-0.5l-5.1-0.1l-13.6-3.9l-7.2-0.6l-15.1-5.2l-1.2-0.2l-1.3,0.5l-4.5,3.7
		l0.6,2.3l0.7,1.3l0.6,0.9l0.4,1l0.3,1.3l-0.3,1.1l-0.8,1.3l-7.3,6.2l-0.2,0.3l0.4,2.2l0.1,1v0.9L108,460l-0.4,0.4l-0.1,0.4v0.5
		l0.1,0.8v1.1l-0.3,0.7h-0.6l-0.8-0.8l-1.3-0.3l-1.2,0.2l-0.6,1.2l-0.9,0.1l-1-0.9l-0.6,0.3l0.3,1.5l-0.1,0.7l-0.2,0.3l-0.4-0.3
		l-0.3-0.3l-1.8-3.5l-0.2-0.5l-0.5,0.1l-0.8,0.6l-2.1,3.1l-0.8,2.1l-0.6,2.9l-0.6,5l-1,2.2l4.8,1.5l0.3,2.1l0.5,0.9l0.1,0.6l0.2,0.3
		h10.1l0.4-0.3l0.3-0.6l0.4-0.4l1-1.5l0.9,1.5l0.4,0.4l0.3,0.7l5.4,8.1l4.8,5.4l1,1.6l0.5,1.8l0.2,1.6v0.8v0.4v0.2l1.7,2.5l0.9,1
		l3,1.8l5.2,1.2l0.9,0.4l0.7,1.1l0.7,1.3l1,2.3l0.3,1.2l1.1,1.5l1.4,1.5l0.7,1l0.5,1l0.1,0.8v0.7l-0.3,0.9l-0.1,0.2l-0.5,0.5
		l-0.4,0.6l-0.3,0.9l-2.1,3.1l-1.5,1.2l-0.1,1.6v0.7l1.3,2.7l0.4,0.6l0.3,0.3l0.3,0.1l0.2,0.1l0.1,0.2l2.4,4.4l0.8,1l0.6,0.6
		l0.4,0.1l0.4,0.2l0.6,0.5l0.9,0.9l1.4,2l0.5,0.9l0.7,1.7l0.4,0.9l0.4,0.6l0.5,0.5l0.3,0.3l0.3,0.6l1.1,0.5h0.6l0.7-0.2l2.7-1.8
		l0.3-0.5v-0.5v-0.3v-0.3l0.2-0.3l0.4-0.5l0.4-0.2l0.4-0.1l1,0.1h0.1l0.2,0.1l0.2,0.1l2.1,0.3l0.5-0.2l0.5-0.5l1.8-0.6l-0.2-3.9
		l0.2-1l0.6-1.3l0.5-0.6l0.4-0.3l0.9-2.1l1.6-7.3l0,0l-0.4,0.1l-0.5-0.1l-0.4-0.3v-0.4l1.1-0.7l-1.4-1.2l-0.8-0.3l-0.5-0.8l-0.5-0.2
		l-0.3,0.1l-0.6,0.3h-0.3l-0.2-0.1v-0.3l0.1-0.3l0.6-0.3l1-0.7l0.7-0.9l0.9-0.5l0.3-0.4l0.3-0.8l-0.1-0.2h-0.4l-0.5-0.2l-0.3-0.4
		v-0.5l0.1-0.6l-0.1-0.7l-0.2-0.2l-0.2,0.1h-0.2l-0.1-0.6l0.1-0.3l0.2-0.2l0.2-0.1l0.2-0.1l-0.9-3l-0.1-0.3l-0.2-0.1l-0.4,0.3
		l-0.1-0.2l-0.2-0.6l-0.1-0.3l0.1-0.6l-0.2-0.1h-0.5l-0.6-0.6V512v-0.6l0.2-1.5l0.5-0.6l1.5-0.4l-0.3-0.5l-0.6-0.1l-1.4,0.2l0.2-0.1
		l0.6-0.6l-0.3-0.2l-0.2-0.3l-0.1-0.2v-0.7l0.1-0.7l0.2-0.6l0.2-0.3l0.2-0.1v-0.3v-0.3l-0.1-0.3l-0.3-0.2h-0.7l-0.3-0.2h0.7l0.3-0.4
		l-0.1-0.7l-0.5-0.7l0.4-0.4l0.2-0.4l0.1-1.4l-0.9-0.7l0.5-0.9l0.7-0.3l0.4-0.5l-0.3-1.3l-0.5-0.9l-0.8-0.9l-0.8-0.8l-0.6-0.3v-0.4
		l0.6,0.1l0.4,0.2l1.3,1.3l0.5,0.1l1.1,0.1l-0.6-0.4l-0.8-0.3l-0.7-0.5l-0.4-1.1l1.6,0.8l0.9,0.2l0.8-0.2l-1.9-1.2v-0.6l-0.9-0.4
		l-0.8-0.7l-0.8-1.3l-0.6-0.5l0.1-0.6l0.5-0.5l0.2-1l0.3,0.2l0.3,0.5l0.2,0.4l0.2-0.3l0.3-0.3l0.3-0.1h0.3l0.3-0.2l0.1-0.4v-0.4
		l-0.2-0.2l-0.3,0.2l-0.1,0.3l-0.2,0.3h-0.2l-0.3-0.2l-0.2-0.4l-0.1-0.5l-0.1-0.5l0.3-0.5l0.3-0.3l0.1-0.3l-0.1-0.6l-0.2-0.3l-1-0.5
		v-0.3h1.1v-0.4l-0.3-0.1l-0.6-0.2l-0.5-0.5l-0.6-0.2l-0.2-0.3l0.3-0.3l2.5,0.1v-0.4l-2.7-0.6l-0.7-0.6l1.2-0.2l1.1-0.6l-0.3-0.6
		l-0.4-0.2h-0.9V476l1.8-0.1l0.6,0.1l0.9,0.6l0.4,0.1l0.6-0.3l-0.6-0.7l-3.3-0.8l0.6-0.5l1.2,0.5l0.7-0.3l-0.5-0.3h-0.2V474h0.7
		l0.9-0.3l0.8-0.6l0.2-0.9l-1.8-1.1h-0.9l-0.4-0.2l-0.3-0.6l2.2-0.1l1.1,0.3l0.9,0.9l-0.1,0.8l0.3,0.4l1,0.3l-0.3-1l-0.1-0.6v-0.7
		l0.8,0.5l0.6,0.9l0.9,2.4l0.3,0.6l0.3,0.3l0.4,0.2h0.5l0.4-0.3l0.2-0.8l0.1-0.9l0.2-0.7l0.2-0.6v-0.6l-0.2-0.6l-0.3-0.6l-0.5-0.5
		h-0.5l-0.5,0.3l-1.3,0.3l-0.2-0.3l-0.1-1v-0.9l0.1-0.8v-0.6l-0.4-0.3V466h0.3l0.3-0.2l0.2-0.3l0.1-0.5l-1.3,0.4l-0.3-0.2l-0.1-0.3
		v-0.3l0.1-0.3l0.1-0.3l0.2-0.5v-0.3l-0.1-0.1h-0.1l0,0v-0.4v-0.4v0.1L165,461.9z"/>
</g>
</svg>
