<?xml version="1.0" encoding="utf-8"?>
<!-- Generator: Adobe Illustrator 21.0.2, SVG Export Plug-In . SVG Version: 6.00 Build 0)  -->
<svg version="1.1" id="Layer_1" xmlns:amcharts="http://amcharts.com/ammap"
	 xmlns="http://www.w3.org/2000/svg" xmlns:xlink="http://www.w3.org/1999/xlink" x="0px" y="0px" viewBox="0 0 800 800"
	 style="enable-background:new 0 0 800 800;" xml:space="preserve">
<style type="text/css">
	.st0{opacity:0.8;}
	.st1{fill:#FFAA00;stroke:#FFAA00;stroke-width:0.5;}
</style>
<defs>
	
	
		<amcharts:ammap  bottomLatitude="45.422323" leftLongitude="13.373053" projection="mercator" rightLongitude="16.594476" topLatitude="46.875889">
		</amcharts:ammap>
</defs>
<g class="st0">
	<path id="SI-JP" class="st1" d="M41.9,290.7l2.2-0.6l8.1,0.1l2.6,1.1h4.7l1.6-5.1l2.2,0l2.5-2.1l0.7-3.5l-0.5-2l5.7,1.6l3.5,2.6
		l1,1.7l1.5,0.5l1.8,1.5l4.1-0.2l0.1-1.9l0.8,0.1l0.8-1l1.4,0.4l0.5,0.9l1.9,0.5l0.1,1.4l1.2,1.3l0.9-0.1l1,0.8l2.9,0.2l4-1.2
		l-0.2,1.3l1.1,0.1v1.9l0.9,0l0,0.9l0.8,0l0.2,1.1l5.4,4.5l2.7,1.4l1.2-0.3l0.3,0.8l1.1-0.1l0.8,1.1l2.9,1l2.9,2.1l-0.6,2l1.2-1.1
		l0.8,0.1l1-1.7l2.7,0.5l1.1,1.4l2.1,1.1l0,0l1.4,2.4l4.2,0.5l2.6,1.8l0.2,0.5l-0.9,0.6l0.3,0.9l0.5-0.3l-0.1,0.9l1.6-0.3l-0.1,1.1
		l-1.3,0.4l1.6,0.7l0.4,3.2l-0.7,1.1l-2.8-0.4l-0.4,1.1l-1,0l0.2,1.8l-1.3,1.8l0.3,0.6l-0.5,1.3l0.6,0.9l1.6,0.1l0.1,0.6l-0.2,3
		l0.8,1.1l-1.3,3.7l1.9,1.3l0.3,2.8l-1.1,1.8l3.1,2l-0.7,2.1l3.2,1.4l-1.3,9.9l-0.2,0.6l-1.1,0.4l0.2,1.3l-0.7,1.1l-0.3,3.4l0.8,0.7
		l1.2-0.6l1.6,0.7l-0.4,1.7l-1.9,2.5l-0.8,4.1l-2.5,2.3l5.4,1.2l0.4,1.2l1.4,0.6l0.5-1.4l1.2-0.4l-0.5,2l0.9,1.8l-0.5,0.1l0.6,1.9
		l-1,0.3l0,0.8l0,0l-2.9-1.4l-5,0.2l-3.2-0.8l-4.8-3.9l-1.5-0.1l-5.5-5.3l-2.4-0.1l-0.6,1.3l0.2,1.8l-4.8-1.8l-2.2,2.7l1.2,2.1
		l2.3,1l2.4,2.7l-0.9,0.3l0.8,1.3l-1.2,2.4l0.5,3.4l-2.9,2.4l-3-1.3l-1-1.1l-7.9,1.4l-0.6,1.3l-1.8,1.5l-0.1,1l-1.7,1.3l-0.4,2
		l-1.5,0.2l-2.5-0.5l-2.1,0.5l-0.6-1.7l-1.8-0.6l-5.2,0.1l-0.3-1.8l-1.9-0.7l0.9-2.9l-1-1.4l-2.7-1.5l-2.2,0.3l-1.9-0.5l-1.7-1.8
		l-3.1,0.4l-2.2,3l-3.5,0.6l-1.5,0.8l-2.1,2.2l-1.8,0.6l-5.3-4.1l-7.8-2l-2.3-1.8l-1.7-1.7l1-0.8l0.4-1.6l-1.4-3l0.4-0.4l0.5,0.3
		l-0.3-0.7l0.4-0.5l1.8,0l-0.9-0.1l0.6-0.6l-0.5-0.3l-0.3-1.7l-1.4,0.2l-1.4-0.8l-1,0.4l-0.5-0.4l-0.6-1.2l0.2-1.8l-0.9-1.3l3.1,1.2
		l4.1,0.3l1.4-1l-0.6-1l-0.3,0.9l-0.3-0.2l0.1-2l2.3-0.6l3.3,1.7l2.5,0.4l2.3-0.7l-0.4-1.1l0.3-1L57,366l0.8-1.6l2-0.9l3.3,0
		l3.1,1.3l0.7-1.5l2.7-1l-1.2-0.3l0.2-0.8l2.5-0.2l-2.4-0.3l0.6-1.2l1.7-0.3l0.1-0.9l-3.4-3.1l-4.4-2.6l0.3-1l2.7-0.2l0.7-0.7
		l4.2-0.7l9.1,4.8l8-0.5l2.6-1.5l2.7-2.9l0.8-2.9l6-3.4l3.2-3l-2-1.9l-4.4-2l-4-3.5l-5.8-7.8l-0.3-5.8l-4.7-4.1l-1.8-4.9l-0.7-0.7
		l-3.9-0.9l-2.3-1.9l-3.2,0.4l-2-1.3l0.6-0.8l-5.4-3.1l-5.9-5.6l-1,0.5l-1-2.2l-5.3,0.8l0.2-1.2l-3.7,1.8l-0.4-1.2l-4.5-2.1
		L41.9,290.7z"/>
	<path id="SI-NO" class="st1" d="M144.5,275.9l0.7-0.8l1.9,0.1l1.2-1.2l1.3,1.3l5.4-1.1l4,2.4l1.2-0.1l1.7,1.7l-0.1,0.7l3.5-0.2
		l0.4,0.2l-0.6,0.9l1.9,0.7l0.4,0.7l1.7-1.8l-0.3,1.1l2.4-0.1l1.3,1.5l4.4-9.4l-0.2-1.3l1.7-1.6l1.7-0.4l5.6,2l1.4,2.2l0.4,2.3
		l1.2-0.1l0.7,1.1l1.7-1.7l2.5,2.2l0.1,1.5l0.8,0.9h0.8l1-2.3l1.5-0.8l1.5,0.3l3.5,5l1.7-1l0.4-1.9l1.4-2.1l2.3,0.7l1.6-0.6l3.1-2.6
		l1.3,2.4l-0.2,1.9l-1.1,0.6l0.2,1.4l2.1,2.6l-0.4,0.9l3.5,3.6l1.4,3.4l3.3,0.5l0.6,3.3l2,1.4l0.6,1.4l0,0l-3.2,0.2l-0.4,0.4
		l1.6,2.2l2-0.1l0.9,0.5l-1.2,5.9l1.4,0.9l1.1,4.1l-3.8,0.8l-1.9-4.4l-1.8,0.7l0.6,3l3.9,8.4l0.9,9.2l1.4,0.2l0,0l-1.4,6l-4.7,8.1
		l-2.6,2.7l-2.8,1.1l-2.3,0.1l0.6,4.8l-1.4,3.7l-0.7,7.4l-1.4,2.5l-0.8,0.1l-5.6,4.7l-2.4,1.3l-1.9,2.2l-2.9-0.7v0.8l-2.8,0.6
		l-1.3,2.7l-5.4,2.3l-2.4-0.4l-1.5,0.5l-3.6,3.3l-1.2-1.4l-0.7-2.1h-2.6l-1.5-0.8l-1.7-1.9l-2.2,0.2l-0.3,0.8l-1.8,0.8l-3.5-5.3
		l-3.1,0.6l-1.3,0.9l-3.2,4.9l-0.1,3.3l-3.5-1l-1-0.8l-3.4-0.5l-2.7,0.4l-1.7,1.1l-1.9,0l0,0l0-0.8l1-0.3l-0.6-1.9l0.5-0.1l-0.9-1.8
		l0.5-2l-1.2,0.4l-0.5,1.4l-1.4-0.6l-0.4-1.2l-5.4-1.2l2.5-2.3l0.8-4.1l1.9-2.5l0.4-1.7l-1.6-0.7l-1.2,0.6l-0.8-0.7l0.3-3.4l0.7-1.1
		l-0.2-1.3l1.1-0.4l0.2-0.6l1.3-9.9l-3.2-1.4l0.7-2.1l-3.1-2l1.1-1.8l-0.3-2.8l-1.9-1.3l1.3-3.7l-0.8-1.1l0.2-3l-0.1-0.6l-1.6-0.1
		l-0.6-0.9l0.5-1.3l-0.3-0.6l1.3-1.8l-0.2-1.8l1,0l0.4-1.1l2.8,0.4l0.7-1.1l-0.4-3.2l-1.6-0.7l1.3-0.4l0.1-1.1l-1.6,0.3l0.1-0.9
		l-0.5,0.3l-0.3-0.9l0.9-0.6l-0.2-0.5l-2.6-1.8l-4.2-0.5l-1.4-2.4l0,0l0.9-3l1.4,0.1l0.5-7.7l1.4-0.8l0.6,1.1l0.4-3.3l-0.1-0.9
		l-3.6-6.3l10-3.2l-0.3-0.9l1.8-2.5l1.2-1l1.2-0.1L144.5,275.9z"/>
	<path id="SI-SP" class="st1" d="M53.1,120.2l0.4,0.8l1.8-0.3l3.4,0.8l0,0l-0.5,2l0.8,0.9l4.1-1l6.6-2.9l2.8,3.5l5.1,1.5l2.1,1.4
		v0.6l2.6,1.4l1.4,0l-0.1,2.6l0.8,1.8l-0.3,1.5l1.9,2.1l2-0.2l0.3,1l-0.7,1.9l-1.8,2.4l-1.4,0.6l-1.4-0.1l-1,1l-2.4-0.2l-2.1,2
		l-6.3,2.1l-0.7,1.3l0.8,5.2l-4,3.4l1.5,1.3l-0.3,1.4l1.4,2.7h0.7l1.2,1.1l1.7,3l2.3,0.5l5,5.3l7.8,4.6l4.2,3.5l4.6-0.1l5.5-0.8
		l7.9-2.7l9-1.9l-0.1,0.9l1.9,1.3l0.2,2.9l-0.6,2.1l-1.5,0.6l-1.4,3.1l-0.5,3.8l0.8,2.7l2.3,0.8l2.7-1.2l2.2,0.9l2.1-1l1.8,1l5,1.1
		l-0.1,2.4l-0.7,1.7l-2.6,3.1l0.3,1.9l-1.5,1.2l-1,1.9l-0.4,2.3l-2.3,1.6l-1.7,2.8l-0.6,3.3l1,2.3l1.3,1.4l4.5,2.7l2.4,2.5l1.8,0.8
		l0.9,2.8l-0.6,0.5l1.4,0.3l-0.3,1.1l-1.4,1.6l1.2-0.1l0.4-1.1l0.8,0.1l1-0.9l1.1-0.2l0.3,0.5l-0.4,0.8l0.9,0.8l-0.2,1.9l1,0.9
		l-0.6,1.6l1.6,0.4l0.4,1l1-0.1l0.2,0.7l1.9,0.5l1.2-0.3l0,0l1,0.6l-0.8,1.2l0.5,1.5l-1.2,0l-1.2,3.2l-0.8,0.5l-2.6-0.4l0.1,1.5
		l-1,0.5l0.4,1.9l1.8-0.7l-0.5,1.6l0.6,1.1v1.9l-1.3,0.8l-0.3,3.2l-2.5,1.6l0.7,2.1v3.7l2.6,2l0.9,1.4l0.7,5l1,2.3l0,0l-1.3,1.5
		l-1.2,0.1l-1.2,1l-1.8,2.5l0.3,0.9l-10,3.2l3.6,6.3l0.1,0.9l-0.4,3.3l-0.6-1.1l-1.4,0.8l-0.5,7.7l-1.4-0.1l-0.9,3l0,0l-2.1-1.1
		l-1.1-1.4l-2.7-0.5l-1,1.7l-0.8-0.1l-1.2,1.1l0.6-2l-2.9-2.1l-2.9-1l-0.8-1.1l-1.1,0.1l-0.3-0.8l-1.2,0.3l-2.7-1.4l-5.4-4.5
		l-0.2-1.1l-0.8,0l0-0.9l-0.9,0V289l-1.1-0.1l0.2-1.3l-4,1.2l-2.9-0.2l-1-0.8l-0.9,0.1l-1.2-1.3l-0.1-1.4l-1.9-0.5l-0.5-0.9
		l-1.4-0.4l-0.8,1l-0.8-0.1l-0.1,1.9l-4.1,0.2l-1.8-1.5l-1.5-0.5l-1-1.7l-3.5-2.6l-5.7-1.6l0.5,2l-0.7,3.5l-2.5,2.1l-2.2,0l-1.6,5.1
		h-4.7l-2.6-1.1l-8.1-0.1l-2.2,0.6l0,0l-1.8-6.1l-2-1l0-2.8l1-1.2l0.6-2.6l1.6-2l-0.8-2.3l1.3-2.3l2.7-2.1l2.2-4.6l0.4-2l2.7-3.5
		l-0.8-4.3l1.9-8.4l-1.5-1.2l-3.6,1.9l-0.5-0.8l-4.1-1.3l-2.7,2.1l-0.3,1.2l-1.9,2.2l-2.6-0.3l-1.2,1.2l-2.3-0.1l-4.3-3.9l-1.7-0.1
		l-2.7-3.5l-0.2-1.3l-1.2-1.4l-1-0.2l-0.1-0.6l1.9-2.2l2.2-0.2l1.7-3.1l0.7-3.8l-0.5-1.2l-1.4-0.7l0.1-2.8l1.1-1.1l4.8-1.6l2.6-3.8
		l5.5-2.3l1.4-1.9l3-2.1l1.4-2.4l1.4-0.5l2.4-2.1l1.8-2.7l2.2-1.6l1.9-3.9l-0.2-2.3l1.4-1.5l0.8-2.7l-1.5-2.4l-4-1.6l-1.2,0.1
		l-3.1,2l-0.6-0.4l0.5-1l-4,0.1l-0.4-0.7l-3.4,1.8l-1-0.9l0.1-1.8l-1.5-2.7l-4.1-2.3l-1.4-0.1l-0.5-1.5l-1.8,0.3l-0.6,0.6l-2.9,0
		l-1.1-1.6l-1.9-0.9l-1.9-0.2l-1.7,0.6l-3.5-0.8l-0.4,0.3l0.8,1.6l-0.4,1.6l-4.5,1.7l-2.3-1.1l-0.6-1.2l1.1-1.2l0.1-1l-0.7-1.1
		l1.5-0.6l0.8-1.2l-1.7-1.4l-3.3-4.4l-2-9.5l-1.6-0.1l-0.6-2l5.3-0.7l2.5-2.2l0.1-1.9l1.4-1.6l3.3-0.8l1.7-3.1l-2.2-5.5l0.5-1.3
		l2.7-0.8l3.1,0.5l2.9-2.5l2.1-0.2l2.5-1.7l1,0.3l0.2-1.6l1.9-1.5l1.6,0.1l1.6-1.4l1.5-0.1l1.6-1.5l1.2-0.1l2-3.3l0.4-4l0.7-1.4
		l1-0.2l1.7-2l5-1.3l1.8,0.2l3.2-1.2L53.1,120.2z"/>
	<path id="SI-GO" class="st1" d="M69.6,99.3l3-0.3l1.7,0.8l1.3-0.3l4.4,2.9l3.3-0.2l3.2-2.3l0.7-1.3l1.2,1l2.8,0.5l5-1.5l0.5-0.7
		l3,1l2.6-0.6l1.8,0.5l1.1,1.4l3.1,0.7l1.8,1.1l3.4,3.2l1.1-0.4l2.3,1.3l0.4,1.5l1.5,0.2l1.9,1.5l2.4,0l2.7-2.8l3.1-0.4l3.7,1.5
		l4.4,0.7l1.3,1.5l3.1,0.5l1.3,1.3l2.3,4.2v1.9l3,1.8l0.4,1.9l0.6,0.5l2.2,0.2l4.3-2.5l3.9,0.8l1.2-1l1.8,2.2l1.9,0.7l2-0.5l1.8-1.3
		l1.5,0.2l3.7-1.4l1.5,0.6l-0.1,0.5l3.7,2.5l3.7-0.4l1.8-0.8l0.7-0.9l4.2-0.1l0.7-0.5l2.1,0.5l3.2-1.8l2.4-0.5l3.6,0.2l1.2,1.7
		l-0.9,0.3l-0.1,1.3l1.8,1.4l0.4,1.7l0.7,0.4h3.8l2.1,0.7l0.3,1.4l1-0.3l1.6,0.7l3-3.5l2.4,0.4l3.5,3.8v1.4l2.3,3l1.2,5.2l0.8,0.7
		l2.6-0.8l0,0l0,0.3l0,0l-0.9,1.1l-2.4,0.2l-1.5,0.8v0.6l1.9,1.4l0.4,1.3l-0.8,2.1l-1.6,1.8l0.1,0.7l0.6,0.9l1.9,0.8l0.5,0.9
		l-0.2,0.8l-1.9,1.4l-1.4,1.9l2.8,4.9l-0.9,1.8l2.8,1.1l-0.5,1.4l1.8,2l-3.3,0.1l-1.1,1.6l0.1,0.8l2.7,0.9l-0.5,1.2l1.5,2.4
		l-4.7,3.7l0.2,1.8l-1,0.8l-0.4,1.2l-2.6,2.4l-1.1-0.4l-0.5,0.6l-0.9-0.1l-1.3,1.2l-0.3,1.6l-1.2,1l-0.9-0.5l-3.5,0l-1.4-0.9
		l-1.6,0.2l-0.5,0.6l1.7,1.2l-2,1.3l0,0l-4.7,0.7l-0.3-0.5l0,0l-1.3-0.5l-2,0.6l-1.5-0.3l0.2,2l1,2l2,1.9l-4.7,2.7h-2.7l0.2,2.1
		l-0.8,1.1l-0.8-0.3l-0.1-1.4l-2.2-0.2l0,1.3l-0.7,0.4l-0.9-0.7l-1.5,2.7l-1.6,0.3l-1.6,1.1l-0.5,3.4l1.8,1.7l-0.3,1.1l0.4,1l-1,2.2
		l-2.4,0.2l-1.5-1.3l-2,0.5l-7.7-1.2l-1.1,0.7l-1.1,2.2l-3.9,0l-0.8,1.5l-1.4,0.8l-1.3,2.7l0.4,4.8l-0.3,0.9l-1.5,1.1l-0.5,2.6
		l-2.5,1.5l0,1.2l-2.1,1.3l-0.1,1.9l-1.3,0.4l-1.8-0.5l-0.1,1.2l-1.3,0l-0.4,0.5l0.1,1.7h-1.1l-1,0.9l0,0l-1.2,0.3l-1.9-0.5
		l-0.2-0.7l-1,0.1l-0.4-1l-1.6-0.4l0.6-1.6l-1-0.9l0.2-1.9l-0.9-0.8l0.4-0.8l-0.3-0.5l-1.1,0.2l-1,0.9l-0.8-0.1l-0.4,1.1l-1.2,0.1
		l1.4-1.6l0.3-1.1l-1.4-0.3l0.6-0.5l-0.9-2.8l-1.8-0.8l-2.4-2.5l-4.5-2.7l-1.3-1.4l-1-2.3l0.6-3.3l1.7-2.8l2.3-1.6l0.4-2.3l1-1.9
		l1.5-1.2l-0.3-1.9l2.6-3.1l0.7-1.7l0.1-2.4l-5-1.1l-1.8-1l-2.1,1l-2.2-0.9l-2.7,1.2l-2.3-0.8l-0.8-2.7l0.5-3.8l1.4-3.1l1.5-0.6
		l0.6-2.1l-0.2-2.9l-1.9-1.3l0.1-0.9l-9,1.9l-7.9,2.7l-5.5,0.8l-4.6,0.1l-4.2-3.5l-7.8-4.6l-5-5.3l-2.3-0.5l-1.7-3l-1.2-1.1h-0.7
		l-1.4-2.7l0.3-1.4l-1.5-1.3l4-3.4l-0.8-5.2l0.7-1.3l6.3-2.1l2.1-2l2.4,0.2l1-1l1.4,0.1l1.4-0.6l1.8-2.4l0.7-1.9l-0.3-1l-2,0.2
		l-1.9-2.1l0.3-1.5l-0.8-1.8l0.1-2.6l-1.4,0l-2.6-1.4V127l-2.1-1.4l-5.1-1.5l-2.8-3.5l-6.6,2.9l-4.1,1l-0.8-0.9l0.5-2l0,0l1.9-1.6
		l0.2-2l1-2.2l-1-2.3l2.9-3.5l-0.2-0.8l-0.9-0.6l0.6-2l-0.7-2.1l2.2-2.6l0-3.2l1.4-0.8L69.6,99.3z"/>
	<path id="SI-LJ" class="st1" d="M228.5,138.4l4.6,3.1l1-1.1l4,0.3l4.2-1.6l0.2,7.3l-0.4,1.3l3.4,3.8l2.3,0.1l0.8,1l0.4,3.5
		l-0.5,3.3l1.6,0.6l3.8-1l0.1,1.7l-1.6,3.1l1.6,2.3l0,1.9l-1.5,2.7l1.4,2.3h4.6l5.2,1.7l1.2-0.8l2.6,0.8l4.4-1.4l9.7,0.7l2.4,2.1
		l3,1.1l0.4,1.1l1.7,0.2l0.9,1.1l1.3-0.5l1.2,3.3l2.4,0.4l-1,1.2l-1.1-0.4l-0.7,1.7l0,0l-1.7,0.2l0.2,5.1l-1,1.1l-1.2,0.3l-0.1,1.8
		l-3.5-0.9l-2.2,1.6L281,195l-6.9,0.3l0.7,1.1l1.9,0.4l-0.1,1.4l1,0.5l0.7,1.9l1.4,0.7l-1.2,2.7l0.2,2.1h1.3l1.4-0.7l0.6,0.3
		l4.8-0.7l1.3,0.6l0.9,1.3l-0.6,2.8l0.8,1l0.1,1.5l2.6,2.8l2.1,0.2l3.9,0.2l2.4-0.6l1.9-3.1l1.9-1.6l4.1-1.8l2.2,3.6l-0.7,1.2
		l-2.7,0.3l1.3,2.1l0,2.2l1.3,0.8l-0.3,0.6l-2.3,0.4l0.7,1.4l1.7,1.4l3.7,1.4l9.7-1.8l0,0l1,2.2l2.4,0.7l0,0l0.3,2.3l2.8,3.9
		l0.3,1.6l0.7,0.6l0,0l-3.1,0l0.5-0.8l-1.6-0.6l-1.8,1.4l-0.8,2.2l-3.1-1.2l-0.8-1.1l-5.3-0.2l-0.6,1.3l1,0.5l1.1,3.4l-0.6,1.5
		l-1.2,0.1l-0.4,0.8l-1.3,0.6l0.5,1.7l-0.9,0.7l-1.8-0.3l-0.2,0.8l-0.9,0l-2.3-1.7l-3,0.3l-1.4-1.6l-2.5-0.4l-1.8,1.1l-0.2,3.1
		l-2.9,0.9l-2.4,0.1l-1.6-1.4l-0.6-1.6l-1.3-1.1l0-2.5h-1.7l-1-3l-1.4-0.7l-0.7,1l-1,0.1l0.1,2.1l-1.3,1.4l-3.5-0.5l-1.1,0.7
		L276,240l-0.8,0.4l-0.8-1.2l-1.1,1l-0.8-1l-0.9,0.2l-0.1-0.8l-0.8-0.6l-1.6,1.8l-1.8,0.1l-0.1,1.7l-2.5,1.7l-2.3-1l-1.4,2.1l0.6,1
		l-1.2,0.2l-1.8,2.4l-0.1,2.3l-0.5,0.3l-0.3-0.7l-1.2,1.2l0.7,1.4l-0.9,0.3l-1.3,3.2l1.3,1.6l0.1-0.8l0.8-0.2l0.9,1.1l0.4-0.7
		l0.7,0.7l1,0l-1,1.1l1.2,5.1l1,2.2l1.9,2l-0.4,0.6l-1.1,0l-0.2,3.1l1,2.2l2.2,1.4l1.6,3.8l-1.5,0.5l-0.6,1.7l-1.4,1l0.2,6l1.8-1
		l0.9,1.2l0,1.4l1.2,0.2l1.5,1.2l0.2,0.7l-0.8,0.9l0.1,1.7l3,0.8l1.2,1.3l-0.4,0.7l0.4,0.8l-1,1.6v2.6l2.1,4.7l3.3,0.8l0.9-2.1
		l0.8,0.1l0.7,1.9l0.9-0.7l2.7-0.2l2.4,1.7l-0.3,1.7l0.6,1.5l-1,1.1l0.2,5.3l-1.7,1.1l-0.6,1.4l-1.5-1l-0.4-0.9l-1.5,0.3l-1.5-1
		l-4.4-4.4l-7-5.6l-1.1-1.6l-0.9,0.6l-0.6-0.5l-1.6-2.4l-1-3.5l-6.4-4.7l-0.4-1.7l-2.6-2.6l-2.6-0.4l-2.1,2.8l-2.2,0.7l-1.2,1.6
		l-2.2-0.7l-1,0.4l-2.6-0.8l-2.8,0.5l-1.1-0.5l-0.5,0.1l-0.2,1.5l-5.3-0.5l-0.6,1.2l0,0l-0.6-1.4l-2-1.4l-0.6-3.3l-3.3-0.5l-1.4-3.4
		l-3.5-3.6l0.4-0.9l-2.1-2.6l-0.2-1.4l1.1-0.6l0.2-1.9l-1.3-2.4l-3.1,2.6l-1.6,0.6l-2.3-0.7l-1.4,2.1l-0.4,1.9l-1.7,1l-3.5-5
		l-1.5-0.3l-1.5,0.8l-1,2.3h-0.8l-0.8-0.9l-0.1-1.5l-2.5-2.2l-1.7,1.7l-0.7-1.1l-1.2,0.1l-0.4-2.3l-1.4-2.2l-5.6-2l-1.7,0.4
		l-1.7,1.6l0.2,1.3l-4.4,9.4l-1.3-1.5l-2.4,0.1l0.3-1.1l-1.7,1.8l-0.4-0.7l-1.9-0.7l0.6-0.9l-0.4-0.2l-3.5,0.2l0.1-0.7l-1.7-1.7
		l-1.2,0.1l-4-2.4l-5.4,1.1l-1.3-1.3l-1.2,1.2l-1.9-0.1l-0.7,0.8l0,0l-1-2.3l-0.7-5l-0.9-1.4l-2.6-2v-3.7l-0.7-2.1l2.5-1.6l0.3-3.2
		l1.3-0.8v-1.9l-0.6-1.1l0.5-1.6l-1.8,0.7l-0.4-1.9l1-0.5l-0.1-1.5l2.6,0.4l0.8-0.5l1.2-3.2l1.2,0l-0.5-1.5l0.8-1.2l-1-0.6l0,0
		l1-0.9h1.1l-0.1-1.7l0.4-0.5l1.3,0l0.1-1.2l1.8,0.5l1.3-0.4l0.1-1.9l2.1-1.3l0-1.2l2.5-1.5l0.5-2.6l1.5-1.1l0.3-0.9l-0.4-4.8
		l1.3-2.7l1.4-0.8l0.8-1.5l3.9,0l1.1-2.2l1.1-0.7l7.7,1.2l2-0.5l1.5,1.3l2.4-0.2l1-2.2l-0.4-1l0.3-1.1l-1.8-1.7l0.5-3.4l1.6-1.1
		l1.6-0.3l1.5-2.7l0.9,0.7l0.7-0.4l0-1.3l2.2,0.2l0.1,1.4l0.8,0.3l0.8-1.1l-0.2-2.1h2.7l4.7-2.7l-2-1.9l-1-2l-0.2-2l1.5,0.3l2-0.6
		l1.3,0.5l0,0l0,0.5l5-0.7l0,0l2-1.3l-1.7-1.2l0.5-0.6l1.6-0.2l1.4,0.9l3.5,0l0.9,0.5l1.2-1l0.3-1.6l1.3-1.2l0.9,0.1l0.5-0.6
		l1.1,0.4l2.6-2.4l0.4-1.2l1-0.8l-0.2-1.8l4.7-3.7l-1.5-2.4l0.5-1.2l-2.7-0.9l-0.1-0.8l1.1-1.6l3.3-0.1l-1.8-2l0.5-1.4l-2.8-1.1
		l0.9-1.8l-2.8-4.9l1.4-1.9l1.9-1.4l0.2-0.8l-0.5-0.9l-1.9-0.8l-0.6-0.9l-0.1-0.7l1.6-1.8l0.8-2.1l-0.4-1.3l-1.9-1.4v-0.6l1.5-0.8
		l2.4-0.2L228.5,138.4z"/>
	<path id="SI-JS" class="st1" d="M226.8,297.6l0.6-1.2l5.3,0.5l0.2-1.5l0.5-0.1l1.1,0.5l2.8-0.5l2.6,0.8l1-0.4l2.2,0.7l1.2-1.6
		l2.2-0.7l2.1-2.8l2.6,0.4l2.6,2.6l0.4,1.7l6.4,4.7l1,3.5l1.6,2.4l0.6,0.5l0.9-0.6l1.1,1.6l7,5.6l4.4,4.4l1.5,1l1.5-0.3l0.4,0.9
		l1.5,1l0.6-1.4l1.7-1.1l-0.2-5.3l1-1.1l-0.6-1.5l0.3-1.7l-2.4-1.7l-2.7,0.2l-0.9,0.7l-0.7-1.9l-0.8-0.1l-0.9,2.1l-3.3-0.8l-2.1-4.7
		V300l1-1.6l-0.4-0.8l0.4-0.7l-1.2-1.3l-3-0.8l-0.1-1.7l0.8-0.9l-0.2-0.7l-1.5-1.2l-1.2-0.2l0-1.4l-0.9-1.2l-1.8,1l-0.2-6l1.4-1
		l0.6-1.7l1.5-0.5l-1.6-3.8l-2.2-1.4l-1-2.2l0.2-3.1l1.1,0l0.4-0.6l-1.9-2l-1-2.2l-1.2-5.1l1-1.1l-1,0l-0.7-0.7l-0.4,0.7l-0.9-1.1
		l-0.8,0.2l-0.1,0.8l-1.3-1.6l1.3-3.2l0.9-0.3l-0.7-1.4l1.2-1.2l0.3,0.7l0.5-0.3l0.1-2.3l1.8-2.4l1.2-0.2l-0.6-1l1.4-2.1l2.3,1
		l2.5-1.7l0.1-1.7l1.8-0.1l1.6-1.8l0.8,0.6l0.1,0.8l0.9-0.2l0.8,1l1.1-1l0.8,1.2l0.8-0.4l1.2,0.5l1.1-0.7l3.5,0.5l1.3-1.4l-0.1-2.1
		l1-0.1l0.7-1l1.4,0.7l1,3h1.7l0,2.5l1.3,1.1l0.6,1.6l1.6,1.4l2.4-0.1l2.9-0.9l0.2-3.1l1.8-1.1l2.5,0.4l1.4,1.6l3-0.3l2.3,1.7l0.9,0
		l0.2-0.8l1.8,0.3l0.9-0.7l-0.5-1.7l1.3-0.6l0.4-0.8l1.2-0.1l0.6-1.5l-1.1-3.4l-1-0.5l0.6-1.3l5.3,0.2l0.8,1.1l3.1,1.2l0.8-2.2
		l1.8-1.4l1.6,0.6l-0.5,0.8l3.1,0l0,0l4.1,1.3l0.7,2.1l0.9-0.7l0.2-1.3l0.6-0.2l3.2,0.1l1.6,0.8l0.2,1.8l-0.6,1.4l-2.3,1.1l-0.5,2.8
		l1.8,0.9l0.2,2.7l2,1.2l4.5,4.3l4.2,1.8l1.2,0.1l-0.1-1.4l0.8-0.6l1.6,0.8l0.2-1.5l1.6-0.1l0.5-0.7l-0.3-2.1l1.4-0.1l1.1,0.7
		l1.9,3.4l1.8-0.1l0.1-1.7l-1.6-1.8l0.8-1.2v-1.1l0.6-0.3l2.6,0.8l2.2,1.9l-0.1-3l3,1.1l2.4-0.2l0.1,3.5l2.6,0.8l0.8,1.4l-0.1,0.7
		l-1.4,1.6l0.8,11l-1.6,4.1l1.1,1l4.5,1.4l2.1,1.3l-0.6,1.8l0.6,0.4l0.2,2.6l2.4,0l-1.1,2l-4.3,0.9l-0.4,1.1l1.2,1l0.5,2.5l1.7,2.2
		l3,10l0,0l-2.2,1.7l-0.7,1.4l-1.5-0.1l-0.8,0.7l-1.6,0.1l-6.8,4l-4.7,1.6l-1.5,1.9l-2.4,1.2l-3.3,4.3l-4.2,1.1l-0.2,0.5l2.1,1.6
		l1.8-0.7l1.2,0.3l0.7,2.3l0.6,0.4l2.1-0.7l0.8,1.2l0.1,3.2l1.9,1.7l-0.2-0.9l0.7-1.9l1.9-0.1l-0.6,2.6l2.8,4l0.9-0.9l-1.5-4
		l0.2-1.3l2.4-1.6l1.3-3.1l3.4-0.1l0.4,1.2l-0.5,2.6l1.2,0.3l0.1,1.1l-0.5,2.2l-1.8,0.5l-0.3,3.5l0.5,0.3l0.4-0.5l0.2-1.1l1.2,0
		l0.4-2.9l1.1-0.7l0.1,1.5l1.3,2.2l1.5,1l1.1,1.7v1.3l0.8,0.8l0.4,2.1l1.9,1.1l-2.1,2.3l-1.7,0.6l-2.4-0.9l-0.7-1.4l-1.4,0.4
		l-3.2-0.6l-0.8,1l1.7,0.8l-0.2,0.9l-1.9,0.9l-2.9-0.3l-4.5,1l0,2.2l0.9,2.6l-3,0.4l-2.7,2.2l4.1,5.6l0.5,12.7l0.8,0.9l1.7,0.2
		l-0.2,2l2,0.9l1.3,2.6l4.8,2.9l1.3,1.8l1.4-0.8l0.5,1l2.4,1.7l-5.2,3.2l-2.4,5.1l-1.8,0.1l-1.3,0.9l-6.1-1.5l-5-2l-5.5,3.4
		l-2.9,4.2l-0.3,2.5l-0.6,0.5l-3.5,0.1l-2-2.6l-0.9,0.8l0,1.3l-1.5,1.5l-3,0.1l-1.4-0.5l-2-1.4l-1.9-3.6l-2.9-1l-3.6-4l-3.3-1.2
		l-0.4-0.8l0.2-3.6l-1.4,0l-1.8-1.4l-1.7-0.2l-1.1-1.5l-0.9,0.1l-1.8,1.8l-2.6,0.4l-0.6-1.1l-2.2-1.8l-5.7-0.6l-2.6-3.1l-7.1-5.2
		l-1.8,0.3l-0.4,1.4l-1.2,1.2l0.5,3.9l-0.8,1.2l0.5,1.5l-1.3,4.6l-3.4,0.3l-2.8,1l-1.4,1.5l-9.7,1.7l-0.4-3l-1.6-1.9l-0.1-2.1
		l-1.2-1.4l0.6-1.1l-1.2-2.1l-1.7,0.5l-0.2-1.4l-3.4-0.4l0-1.3l-2,0.2l-1.7-2.1l-1.9-1l-0.8-1.5l-3-1.5l-2.9-0.2l-0.6,2.2l-1.6,0.2
		l-1.3-2.2l0.8-5.2l1.3-0.6l0.8-1.7l-1.2-2.4l-0.1-1.4l-2.5-3.3l-5.2-0.7l-2.3-3.3l-2-0.4l-0.7-2.2l-3.1-1.1l-2.6-2.5l1-3.6
		l-0.3-0.8l1.5-4.4l1.3-1l-1.7-0.5l-1.2-1.4l-1.3,0.8l-2.2,0.2l-0.4-1.2l-0.4,0.5l-0.3-0.9l-0.6-0.1l0,0l-1.4-0.2l-0.9-9.2l-3.9-8.4
		l-0.6-3l1.8-0.7l1.9,4.4l3.8-0.8l-1.1-4.1l-1.4-0.9l1.2-5.9l-0.9-0.5l-2,0.1l-1.6-2.2l0.4-0.4L226.8,297.6z"/>
	<path id="SI-ZS" class="st1" d="M292,185.5v2.3l2.2,1.2l1.9,2.6l3.7,0.2l3.9-1l1.6-1l2.3,0.7l3.3-0.1l0.2,0.6l0.4-0.1l-0.3,1.5
		l0.9,0.3l1.4-1.4l1.5-0.1l1.6-1.3l1.8,0.7l4.7-0.3l4.8-3.2l1.4,0.6l0.5,1.3l2.6,2.2l0.3,1.8l1.1,0.1l-0.3,2.3l1.6,0.3l1.5-0.8
		l1,0.2l1,4.5l3.5,2.5l0.2,1.4l0.8,0.3l0.6,2l1.5,1.3l-2.4,0.6l-0.8,0.6l-0.3,1.3l-4.5-1.7l-1-1.1l-0.6,0.1l0.3,1.2l-0.8,0.4
		l-0.9,3.1l4.4,2.6l-2.2,1.1l-1.8,0.2l-2.5-0.9l-0.6,0.2l-2.4-1.3l-0.7,0.8l0.2,1.2l-2,0.8l-0.8-0.2l0,3.4l-0.3,0.3l-1.2-1.3
		l-1.8,1.4l-0.1,1.3l0.5,0.7l0,0l-9.7,1.8l-3.7-1.4l-1.7-1.4l-0.7-1.4l2.3-0.4l0.3-0.6l-1.3-0.8l0-2.2l-1.3-2.1l2.7-0.3l0.7-1.2
		l-2.2-3.6l-4.1,1.8l-1.9,1.6l-1.9,3.1l-2.4,0.6l-3.9-0.2l-2.1-0.2l-2.6-2.8l-0.1-1.5l-0.8-1l0.6-2.8l-0.9-1.3l-1.3-0.6l-4.8,0.7
		l-0.6-0.3l-1.4,0.7h-1.3l-0.2-2.1l1.2-2.7l-1.4-0.7l-0.7-1.9l-1-0.5l0.1-1.4l-1.9-0.4l-0.7-1.1l6.9-0.3l1.6-0.4l2.2-1.6l3.5,0.9
		l0.1-1.8l1.2-0.3l1-1.1l-0.2-5.1L292,185.5z"/>
	<path id="SI-SA" class="st1" d="M366.5,104.5l1.5,1.2l2.1-0.4l0.3,2.7l1.7,2l0.2,2.7l1.7,0.3l2-0.8l1.8,1.3l0.3,1.3l2.4,1.2l2-1.4
		l2.4,2.6l1.4,0.6l-1,1.7l0.2,1.5l-0.5,2.6h-1.4l-0.3,0.8l0.6,1l1.8,0.6l1.2,1.3l-1,0.9l0.8,1.1l-0.2,0.4l-2.6,0.5l1.1,1.1l2.8,0.6
		l-0.1,1.3l0.9,0.6l3.9,0.9l-0.1,1.3l1.4,0.8l3.1-0.1l1.5-0.8l1.6,1.2l1.5-1.4l1,0.5l0.2,2l0.9,1.4l4.8-1.4l1.3,1.1l-0.1,2.2l1,1.7
		l0.9,3.8l0,2.9l1.3,1.6l-1,3.1l1.2,0.9l0.1,1.1l-1.4,0.9v0.6l1.9,0.1l1.9,1l-0.3,1.6l0.6,2.2l2.2,0.2l0.9,0.8l3.3-0.9l1.6,1.2
		l3.7-0.8l3.5,1.3l0.3,1.4l3.1,0.9l2.6,0.1l0.1,0.5l1.5,0.5l2.3-0.3l-0.5,1.6l0.5,0.7l1.5-0.6l2.4,0.4l0,0l1.8-0.6l1.6,0.4l0,0
		l1.3-0.2l2,1.2l1-0.5l2,3.8l2.3,0.1l4.6-1.1l0,0l0.5,2.3l-1.1,0.7l-0.2,2.1l-1.3,3.1l-1.4,1.1l-3.8,1.6l-1.7-0.9l0.9-1.9l-0.8-1
		l-2.3-0.1l-0.6,1.2l-1.1,0.3l-0.3-1.8l-5.7-0.1l-3.3-1.2l-3.1,2l-0.7-0.2l-2.1,1l-1.5,2.6l1.3,1l-0.4,0.8l0.4,2.3l-0.5,1.5
		l-1.4,0.3l-0.2,1.5l-0.9,1.2L425,195l-0.7,1.8l1.4,1.1l0.5,1.3l-3.2,1.6l1.3,1.9l0.8,0.1l-0.4,0.7l1.1,0.2l0.2,1.4l-0.9,1.4
		l0.8,0.2l-0.4,0.6l-0.5-0.1l0.4,1l-0.9,1.2l1.1,2.4l0.7-0.1l-0.1,1.9l1.5,0l0.5,0.7l-0.8,1.5l0.4,0.8l2,1.3l1.7-0.2l0.6-0.9
		l0.5,0.1l0.6,0.7l-0.2,0.6l0.9-0.1l0.8,0.6l0.2,2.8l2-1.1l0.8,1.1l1.1-0.4l2.7,2.5l2.9,1.1l0.9-0.2l1.1,1.7l0,0l-2.6-0.5l-2,1.3
		l-2.6-0.8l-2.5,0.3l-1.8,3.5l-1.2,0.1l-2.4,1.4l-2.5,4.2l-1.9,1.7l-4.7,1.9l-6.6,0.7l1.3-2.6l3.9-2.5l0.9-1.4l0.3-2.6l-3.9-0.6
		l-1.7,0.9l-0.9-0.2l-1.4,0.7l-0.7-0.4l0.2-1l-0.9-2.1l-0.4-3.7l-1.9-0.5l-1.6-3.2l-2.2-1l-2.2,1.6v-0.7l-1.3-1.2l-3.2-1.7l-4.3,0.9
		l-3.1-0.7l-1.7,0.9l0,0l-1.3-0.4l-2.3,0.4l0,0l-3.6-0.7l-1.6-1.4l-3.9,2.2l-4.8-0.2l-2,0.4l-3.2-1l-1.9,0.8l-2.4-0.4l-0.2,3.6
		l-1.5-1.1l0.2-4.7l-1.5-0.7l0-2.2l-1.1-1.4l-0.7-0.1l-0.2,1.3l-0.9,0.8l-2.1,0.4l-2.3-0.3l-2.3-1.9l-2.3,0.8l-1.5-0.7l-2,1.2
		l-0.8-0.1l-0.4,1.4l2.8,1.8l0,1l-1.4,2.6l0.7,1.3l-1.1,1.1l2.7,1l-0.3,4.1l-2.5-1.9l-2.6-1l-7.2-1.7l-1.5,0l-0.7,0.7l-4.6,1.3
		l-2.5-0.5l0,0l-2.4-0.7l-1-2.2l0,0l-0.5-0.7l0.1-1.3l1.8-1.4l1.2,1.3l0.3-0.3l0-3.4l0.8,0.2l2-0.8l-0.2-1.2l0.7-0.8l2.4,1.3
		l0.6-0.2l2.5,0.9l1.8-0.2l2.2-1.1l-4.4-2.6l0.9-3.1l0.8-0.4l-0.3-1.2l0.6-0.1l1,1.1l4.5,1.7l0.3-1.3l0.8-0.6l2.4-0.6l-1.5-1.3
		l-0.6-2l-0.8-0.3l-0.2-1.4l-3.5-2.5l-1-4.5l-1-0.2l-1.5,0.8l-1.6-0.3l0.3-2.3l-1.1-0.1l-0.3-1.8l-2.6-2.2l-0.5-1.3l-1.4-0.6
		l-4.8,3.2l-4.7,0.3l-1.8-0.7l-1.6,1.3l-1.5,0.1l-1.4,1.4l-0.9-0.3l0.3-1.5l-0.4,0.1l-0.2-0.6l-3.3,0.1l-2.3-0.7l-1.6,1l-3.9,1
		l-3.7-0.2l-1.9-2.6l-2.2-1.2v-2.3l0,0l0.7-1.7l1.1,0.4l1-1.2l-2.4-0.4l-1.2-3.3l-1.3,0.5l-0.9-1.1l-1.7-0.2l-0.4-1.1l-3-1.1
		l-2.4-2.1l-9.7-0.7l-4.4,1.4L265,174l-1.2,0.8l-5.2-1.7H254l-1.4-2.3l1.5-2.7l0-1.9l-1.6-2.3l1.6-3.1L254,159l-3.8,1l-1.6-0.6
		l0.5-3.3l-0.4-3.5l-0.8-1l-2.3-0.1l-3.4-3.8l0.4-1.3l-0.2-7.3l-4.2,1.6l-4-0.3l-1,1.1l-4.6-3.1l0,0l0-0.3l0,0l1-1.5l-0.6-0.6l1-1
		l0.6-1.9l0.4-5.2l-1.1-1.3l0.5-3.2l1.5-0.7l0.6-1.3l2.1-0.7l4.4-0.1l3.8-1.5l2.1,0l0.8-1.2l1.8-0.4l0.5-1.4l0,0l4,1l6.1-0.6
		l0.5,1.1l1.3,0.1l1.3,0.8l2.3,5.5l0.7,0.1l1.2-0.9l0.6-2.1l1.3-0.4l1,1l1.5-0.4l1.4,1.2l2.3,0.5l5.3-0.7l2.4,1.7l3.3-0.9l4.8,0.3
		l3.3-3.3l5.6,0.2l0.6-1.8l2.8-0.8l-1.3-3.1l1,0l1.5,1.1l1.7,0.2l5.9,4l4.1,0.3l2.3,1.3l5.4,1.5l4.4,3.2l-0.3-2.2l0.7-0.9l2.9,1.6
		l2.4,0.6l0.1,1.6l0.8,0.4l0.6,1.9l3.4,1.8l0.9-0.3l0.6,1.4l1.5-0.1l0.2-1.4l1.6-0.9l0.9,0.2l1.4-0.5l0.3,2.1l-0.4,0.9l-1.6,0.9
		l0,1.4l0.3,0.5l2.8,0.6l0.7,0.7l2.3-0.6l5.8-3.2l-0.4-1.7l0.7-0.2l2-4.3l0.8-0.6l0.1-4.3l1.8-5.1l2.5-0.9l1.9-1.6l4.8-1.1l1-1.9
		l-2.9-3.1l-0.6-3.3L366.5,104.5z"/>
	<path id="SI-KO" class="st1" d="M338.2,60.4l0.4,0.4l1.5-0.3l0.7,0.8l3.1-0.3l1.9,2.2l4.7,1.5l1.1-0.3l2.1,1.1l4.7-1.4l3.5,0.1
		l2.9-2.2l2.8-0.1l2.3,1.4l1.4-1.5l2.8,0.5l0,0l-0.9,3.8l0.3,4l-5.4,0.2l-0.7,0.8l0,3.5l-2.6,2l-0.8,1.5l-0.9-0.1l-0.8,0.7l-0.1,2.8
		l-2,8.6l-1.9,2.1l-1.6,0.4l-0.5,1.1l-1.2,0.4l0,2.3l-0.7,1.7l-1-0.1l-0.1,1.1l-0.8,0l0.2,1.5l-1,4.3l1,0.3l0.8-0.4l2.9-2.9l2.9,0.4
		l0.7,0.6l2.9-1.6l1,0.9l2-0.5l0.9,1.5l-0.1,1.5l0,0l-0.5,0.4l0.6,3.3l2.9,3.1l-1,1.9l-4.8,1.1l-1.9,1.6l-2.5,0.9l-1.8,5.1l-0.1,4.3
		l-0.8,0.6l-2,4.3l-0.7,0.2l0.4,1.7l-5.8,3.2l-2.3,0.6l-0.7-0.7l-2.8-0.6l-0.3-0.5l0-1.4l1.6-0.9l0.4-0.9l-0.3-2.1l-1.4,0.5
		l-0.9-0.2l-1.6,0.9l-0.2,1.4l-1.5,0.1l-0.6-1.4l-0.9,0.3l-3.4-1.8l-0.6-1.9l-0.8-0.4l-0.1-1.6l-2.4-0.6l-2.9-1.6l-0.7,0.9l0.3,2.2
		l-4.4-3.2l-5.4-1.5l-2.3-1.3l-4.1-0.3l-5.9-4l-1.7-0.2l-1.5-1.1l-1,0l1.3,3.1l-2.8,0.8l-0.6,1.8l-5.6-0.2l-3.3,3.3l-4.8-0.3
		l-3.3,0.9l-2.4-1.7l-5.3,0.7l-2.3-0.5l-1.4-1.2l-1.5,0.4l-1-1l-1.3,0.4l-0.6,2.1l-1.2,0.9l-0.7-0.1l-2.3-5.5l-1.3-0.8l-1.3-0.1
		l-0.5-1.1l-6.1,0.6l-4-1l0,0l-0.3-1.7l1.3-1.6l1.8,1.2l1.5-0.5l0.1-1.6l-0.8-0.9l0.9-1.6l1.7-0.3l-0.1-3.1l0.6-1l0-1.7l1.8,1.4
		l0.9,2.1l2.5-4.4l1.5,2.1l1.8-1.9l3.2-0.1l2,1.3l4-2.1l2-0.4V98l1.4-1.8l-0.3-1.7l1.6-1.1l-1.7-1.1l0.4-1.1l1.2-0.4l1.3-3l-0.8-1.6
		l1.4-0.5l-0.4-1.9l2.2-2.2l0.7-2.4l0.5-0.4l0.9,0.4l0.8-1l-0.1-2.5l2.9-2l1.4-0.3l2.3,0.9l2.1,1.6l0.3-0.8l0.9,1.3l0.9-0.6
		l-0.3-5.2l1.8,1.5l2.1-2.3l2.2-1.2L303,71l0.6,3l1.2,1.7l3.2-2.9l-0.2-2.4l2.6-2.3l1.5-2.8l2.4-1.1l2.8-2.1l4.4,0.2l2.9,1.5l1-1.2
		l2-0.8l1.7-1.7l3.6,1.5l0.3,1l0.7-0.1l0.4-1.6l1.6-0.2l0.3-0.7L338.2,60.4z"/>
	<path id="SI-PS" class="st1" d="M326.1,224.9l2.5,0.5l4.6-1.3l0.7-0.7l1.5,0l7.2,1.7l2.6,1l2.5,1.9l0.3-4.1l-2.7-1l1.1-1.1
		l-0.7-1.3l1.4-2.6l0-1l-2.8-1.8l0.4-1.4l0.8,0.1l2-1.2l1.5,0.7l2.3-0.8l2.3,1.9l2.3,0.3l2.1-0.4l0.9-0.8l0.2-1.3l0.7,0.1l1.1,1.4
		l0,2.2l1.5,0.7l-0.2,4.7l1.5,1.1l0.2-3.6l2.4,0.4l1.9-0.8l3.2,1l2-0.4l4.8,0.2l3.9-2.2l1.6,1.4l3.6,0.7l0,0l1.4-0.4l2.3,0.4l0,0
		l1.7-0.9l3.1,0.7l4.3-0.9l3.2,1.7l1.3,1.2v0.7l2.2-1.6l2.2,1l1.6,3.2l1.9,0.5l0.4,3.7l0.9,2.1l-0.2,1l0.7,0.4l1.4-0.7l0.9,0.2
		l1.7-0.9l3.9,0.6l-0.3,2.6l-0.9,1.4l-3.9,2.5l-1.3,2.6l6.6-0.7l4.7-1.9l1.9-1.7l2.5-4.2l2.4-1.4l1.2-0.1l1.8-3.5l2.5-0.3l2.6,0.8
		l2-1.3l2.6,0.5l0,0l2.1,2.7l-1.6,0.4l-0.3,1l-1.1,0.7l0.4,0.7l-0.8,2.8l0.7,0.6l-0.5,0.4l-0.5-0.3l-1.1,1.3l0.6,0.5l0.6-0.2
		l-0.1,2.6h-0.8l-0.4,1.1l-0.8-0.1l-0.3,1.2l1.2,1.6l-1.1,0.6l0.9,0.8l0.9,5.6l-0.3,4.8l0.4,2.1l-0.8,3l0.2,1.7l-1.1,0.6l-4.1,4.7
		l1.5,5.3l-0.6,1.5l1.2,2.5l-1.2,1.8l1.6,0.6l2.4,2.6l0.3,1.2l-3.2,1.2l-4.8,0.3l-4.4,5.6l-2.6-3.4l-2.3-1l-1-1.2l-5.8-1.7l-1.6-1.6
		l-2.1,2.3l-0.3,1.4l-1.2-0.6l-0.6-1.7l-2.2-0.4l-0.9,5.1l-1.6,1.6l-4.5,0.4l-0.4-1.7l-1.7-1l-2.7,1.4l-0.4,1.7l-1.7,0.3l1.4,5.8
		l-2,0.9l-3.1-0.5l-1.9,0.5l-3.2-0.3l-4.1,1.1l0,0l-3-10l-1.7-2.2l-0.5-2.5l-1.2-1l0.4-1.1l4.3-0.9l1.1-2l-2.4,0l-0.2-2.6l-0.6-0.4
		l0.6-1.8l-2.1-1.3l-4.5-1.4l-1.1-1l1.6-4.1l-0.8-11l1.4-1.6l0.1-0.7l-0.8-1.4l-2.6-0.8l-0.1-3.5l-2.4,0.2l-3-1.1l0.1,3l-2.2-1.9
		l-2.6-0.8l-0.6,0.3v1.1l-0.8,1.2l1.6,1.8l-0.1,1.7l-1.8,0.1l-1.9-3.4l-1.1-0.7l-1.4,0.1l0.3,2.1l-0.5,0.7l-1.6,0.1l-0.2,1.5
		l-1.6-0.8l-0.8,0.6l0.1,1.4l-1.2-0.1l-4.2-1.8l-4.5-4.3l-2-1.2l-0.2-2.7l-1.8-0.9l0.5-2.8l2.3-1.1l0.6-1.4l-0.2-1.8l-1.6-0.8
		l-3.2-0.1l-0.6,0.2l-0.2,1.3l-0.9,0.7l-0.7-2.1l-4.1-1.3l0,0l-0.7-0.6l-0.3-1.6l-2.8-3.9L326.1,224.9z"/>
	<path id="SI-PD" class="st1" d="M458.8,46.3l5.2,7.6l0.6-1l2-0.7l1.9,3l-1.3,1.3l0.2,0.4l1.1,1.1l1.7,0.1l1.1,2.1l1.7,0.2l0.4,0.6
		l1-0.2l0.6,0.6l1-0.5l0.6,1.7l1.4-1.1l2,0.8l1.3-0.1l0.3,1.6l2.9,0.4l1.9,2l0.4,1.2l2.6,1.4l-0.1,1.1l-1.5,1.4l-0.9,0.1l-0.2,0.9
		l-1,0.7l-1.4-0.1l-0.6,0.7l1.1,1.6l0,2.3l1.2,2l3.6,0.4l2.5,1l1.5-0.4l3,0.5l-0.1,5.5l-1.3,2.1l0.5,2.6l3,3.5l0.7,2l1.3,0.9
		l0.6,1.3l0.2,1.3l-1.1,1.2l1.3,1.1l0.3,2l-1.1,1.4l5.2,4.9l0.5,1.4l-1.1,6.2l-2.6,3l0.1,3.2l0.9,0.6l2-0.4l0.9-2l1-0.1l0.3,4.3
		l-0.9,0.8l2.4,3.2l0.9,0.4l-0.5,0.8l1,2.7l0,0l-0.8,0l0,1.2l3.4,5.9l0.7,3.8l-0.6,2.2l-6.7,0.7l-3.5,5.9l-3.4,1.1l-1.4-1l-0.3,0.8
		l-0.8,0.2l-1.4-0.6l-2.4,3.7l-3.2,1.1l-1.2,1l-1.7-0.1l-3.5,1l-0.9-1.1l-1.1,0.5l-1.5-0.5l-1,1.3l-4.5,0.9l-1.2,1.4l-0.3,1.6
		l-2.3,1.9l-2.5-0.5l-1.8,0.9l-0.6,1.6l-6.1,0.8l1.1,2.4l0,0l-4.6,1.1l-2.3-0.1l-2-3.8l-1,0.5l-2-1.2l-1.3,0.2l0,0l-1.3-0.4l-2,0.6
		l0,0l-2.4-0.4l-1.5,0.6l-0.5-0.7l0.5-1.6l-2.3,0.3l-1.5-0.5l-0.1-0.5l-2.6-0.1l-3.1-0.9l-0.3-1.4l-3.5-1.3l-3.7,0.8l-1.6-1.2
		l-3.3,0.9l-0.9-0.8l-2.2-0.2l-0.6-2.2l0.3-1.6l-1.9-1l-1.9-0.1v-0.6l1.4-0.9l-0.1-1.1l-1.2-0.9l1-3.1l-1.3-1.6l0-2.9l-0.9-3.8
		l-1-1.7l0.1-2.2l-1.3-1.1l-4.8,1.4l-0.9-1.4l-0.2-2l-1-0.5l-1.5,1.4l-1.6-1.2l-1.5,0.8l-3.1,0.1l-1.4-0.8l0.1-1.3l-3.9-0.9
		l-0.9-0.6l0.1-1.3l-2.8-0.6l-1.1-1.1l2.6-0.5l0.2-0.4l-0.8-1.1l1-0.9l-1.2-1.3l-1.8-0.6l-0.6-1l0.3-0.8h1.4l0.5-2.6l-0.2-1.5l1-1.7
		l-1.4-0.6l-2.4-2.6l-2,1.4l-2.4-1.2l-0.3-1.3l-1.8-1.3l-2,0.8l-1.7-0.3l-0.2-2.7l-1.7-2l-0.3-2.7l-2.1,0.4l-1.5-1.2l0,0l0.1-1.5
		l-0.9-1.5l-2,0.5l-1-0.9l-2.9,1.6l-0.7-0.6l-2.9-0.4l-2.9,2.9l-0.8,0.4l-1-0.3l1-4.3l-0.2-1.5l0.8,0l0.1-1.1l1,0.1l0.7-1.7l0-2.3
		l1.2-0.4l0.5-1.1l1.6-0.4l1.9-2.1l2-8.6l0.1-2.8l0.8-0.7l0.9,0.1l0.8-1.5l2.6-2l0-3.5l0.7-0.8l5.4-0.2l-0.3-4l0.9-3.8l0,0l2.3-1
		l0.8,1l2.6,0.2l9.2-1.2l0.5,0.9l-0.2,1.1l1.8,0.2l0.6,1.1l1.3,0.6l1.4-0.7l1.5,0.9l-0.1,2.6l1.4,1.4l0.3,2.6l2.3,0.7l1.4-1.8
		l1.3-0.5l1.6,0.5l0.7,1.2l0.2-0.5l1.4-0.1l0.2-1.6l1.2,0.3l3.5-3.4l0.6-0.3l0.6,1.1l1.3-2.3l0.1-0.5l-1.2-1l0.4-0.8l1.3-0.3
		l-1.3-5.9l0.7-0.7l1.5,0.3l2.1-2.4l1.7-0.4v-0.6l2.2-0.2l1.4-1.7l2.1,0.6l-0.7,0.6l-1.4-0.6l-0.7,2.2l1.2,1.3l1.2,0.3l0.9-0.4
		l-1-1.8l0.8-0.7l3.1,1l1.3-0.7l0.2-1.4l0.8-1.1l2.8-0.2l0.2-3.7L434,47l3.8-0.1l4.2,2.4l4,0.5l3.4-1.1l5.2,0.2L458.8,46.3z"/>
	<path id="SI-PM" class="st1" d="M549,0.9l6,0.2l1.6,3.3l2.9,1.7l2.1,2.2l1.8,0.3l1.9,2.6l-0.1,1.6l-0.9,0.8l-0.5,1.6l0.1,3.6
		l-0.5,1.5l-3.2,0.7l-1.7,1.6l0,4.6l2.9-0.1l0.3,0.9l-2,5.5l5.8,5.9l-0.2,2.6l0.5,0.1l1,2.4l2.4-2.1l1.7,1.9l-0.1,1.5l-1.6,1.7
		l0.8,0.8l10.5,1.6l-1.9,10l-2.6,0l-1.5-1.3l-1.1,0l-0.2,2.3l-1.1,0.9l0.2,2.1l1.3,1.1l-0.2,1.6l1.2,0.6l1-0.4l1,0.7l1.7,2.2
		l1.1,2.8l4.3,0.9l1.9,3.3l1.3,0.8l1.3,2.7L589,80l1.4,1.5l0.6,4l1.6,0.5l0.5,0.7l2.8-0.3l1.8,2.9l0.1,2.1l-0.7,1.1l0.5,1.6l1.5,0.2
		l1,1l-1.3,3.5l0.3,1l1.1,0.6l-0.5,1.4l-0.9-0.2l-0.5,1.3l4.8,3.1l5.7,2.5l3.1,3.9l-1.6,0l-1,0.9l-1.9-1.8l-0.8,1.2l-3-1.7l-0.5-0.9
		l-1.3-0.1l-0.7-1.4l-1.6,1.2l-1.3-0.4l-0.8-0.8l1-1.4l-0.1-0.8l-3-0.8l-2.6-1.5l0.7-1.2l-0.6-1l-3.5-1.2l-1.6,0.3l-0.3-1.4l-1-1
		l-1.2,0.1l-1,0.8l-1.6-0.1l-0.9-1.1l-0.1-1.9l-0.7-0.7l-1.8,0.4l-1.4-1.1l-0.2,1.1l-0.6,0.2l-2.2-1.8l0.5-1.4l-0.5-0.8l-0.9,0
		l-0.7,2.3l-2.6,1.2l-0.6-0.2l-1.3-2.9l-0.9,0.4l-0.6,1.1l-2.4-1.1l-1,3.5l-0.8,0.2l-0.4-1l-1-0.2l-2.7,1.1l-0.9,1.8l-2.3,1.4
		l-0.8-0.4l-4.6,0.4l-1.8,5.1l-1.6,1.3v1.7l3,6.6l0.9,8.6l1.8,2.9l3.6,3l1.5,2.7l-0.2,2.8l-1.9,3.2l-1.6,1.3l-2.9,0.2l-0.7-2.3
		l-1.8-2.1l-1.1,1.3l-1.9,0.9l-2.3-0.3l-0.8-0.7l-3,1.7l-1.5-0.7l-1.9,0.6l-2.7-4.3l-6-3.9l-1.6,0.2l-2.8,2.2l-2.3,3.9l-1.2,0.1
		l-1.6-0.9l-3,1.3l-2.5-0.4l-1.9-1.3l0,0l-1-2.7l0.5-0.8l-0.9-0.4l-2.4-3.2l0.9-0.8l-0.3-4.3l-1,0.1l-0.9,2l-2,0.4l-0.9-0.6
		l-0.1-3.2l2.6-3l1.1-6.2l-0.5-1.4l-5.2-4.9l1.1-1.4l-0.3-2l-1.3-1.1l1.1-1.2l-0.2-1.3l-0.6-1.3l-1.3-0.9l-0.7-2l-3-3.5l-0.5-2.6
		l1.3-2.1l0.1-5.5l-3-0.5l-1.5,0.4l-2.5-1l-3.6-0.4l-1.2-2l0-2.3l-1.1-1.6l0.6-0.7l1.4,0.1l1-0.7l0.2-0.9l0.9-0.1l1.5-1.4l0.1-1.1
		l-2.6-1.4l-0.4-1.2l-1.9-2l-2.9-0.4l-0.3-1.6l-1.3,0.1l-2-0.8l-1.4,1.1l-0.6-1.7l-1,0.5l-0.6-0.6l-1,0.2l-0.4-0.6l-1.7-0.2
		l-1.1-2.1l-1.7-0.1l-1.1-1.1l-0.2-0.4l1.3-1.3l-1.9-3l-2,0.7l-0.6,1l-5.2-7.6l0,0l2.2-1.5l6.3-2l7.4-0.1l8.7,4l5,4.4l9.3,2.6
		l1.9,1.7l1.4,3l4.6,2.7l1-1.3l0.2-6.3l-2.3-4.6l-0.2-1.6l0.7-1.7l-2.2-0.4l-1-1.5l-2.2,0l0.4-1.3l-2.5-2.3l-1-2.4l0.4-1.4l-0.3-1.9
		l0.6-2l-0.4-4.3l1.4-3.8l-0.6-4.2l0.9-0.4l0.4-1.2l-1.4-1.7l-1.1-3.2l2.3-2.2l1,1.2l0.7,0.1l0.8-1.1l3.2-1.2l0.5-0.1l0.5,1.7l1.8-2
		l1.5,0.7l1.6-0.1l0.8-1.1l-0.1-1.2l2-1.8l1.3,0.2l2-3.1l0.9-0.2l0.9,1l1.7-2.1l0.9-0.3l0.3,1.2l1.3,0l1.2,1.8l2.8,0.9h2.5l1-1.4
		l2.6,0.3l2.4-2.3l6.8-1.1l2.6-1.6L549,0.9z"/>
</g>
</svg>
