<?xml version="1.0" encoding="utf-8"?>
<!-- Generator: Adobe Illustrator 21.0.2, SVG Export Plug-In . SVG Version: 6.00 Build 0)  -->
<svg version="1.1" id="Layer_1" xmlns:amcharts="http://amcharts.com/ammap"
	 xmlns="http://www.w3.org/2000/svg" xmlns:xlink="http://www.w3.org/1999/xlink" x="0px" y="0px" viewBox="0 0 800 800"
	 style="enable-background:new 0 0 800 800;" xml:space="preserve">
<style type="text/css">
	.st0{opacity:0.8;}
	.st1{fill:#FFAA00;stroke:#FFAA00;stroke-width:0.5;}
</style>
<defs>
	
	
		<amcharts:ammap  bottomLatitude="43.894649" leftLongitude="12.400659" projection="mercator" rightLongitude="12.514129" topLatitude="43.995697">
		</amcharts:ammap>
</defs>
<g class="st0">
	<path id="SM-01" class="st1" d="M259,316.8l8.9,2.3l1.1,0.9l4.6,7.6l0.6,3.7l2.9,8.9l1.1,9.2l-3.6,5.6l-0.5,5.5l1.8,5.2l2.8,4
		l-1.6,1.3l-3.8,0.4l-4.4,2.1l-3.9,0.9l-13.8,6.3l-3.9,0.4l-10.6-2.1l-8.3,0.4l-5.5-1.1l-10-0.1l2.8,3l2.8,1.3l6.2,5.9l0.6-0.1
		l2.8,3.5l0.6,3.7l-0.6,0.6l-0.5,6.5l-0.6,0.6l0.6,3.7l0,0l1.8,4.7v1.6l2.9,6.7l1.8,10.1l2.3,6.2l-17,16.3l-3.8,2.6l-4.4,4.2l-7.2,4
		l-6,6l-5,2.1l-6,4.4l-2.8,0.8l-10.4,10.8l-6.7,1.8l-7.2,5.6l-10.5,2.1l-8.7,10.1l0,0l-3.9,0.9l-2.8-4l-2.9-6.7l-0.1-7.5l-3.3-2.3
		l-3.3-0.8l0.4-6.5l-0.6-1.6l-2.8-3l-3.4-3.4l-8.9-5l-7.9-5.7l-8.9-3.4l-2.3-1.4l-5.6-4.8l-3.4-5l-1.1-3.1l-0.2-5.3l-1.1-2.6
		l-0.1-3.2l-0.6-0.5l0.5-1.1l0.4-13.5l0.6-0.6l-0.3-16.2l-1.1-3.1l-0.1-4.3l-1.2-3.9l-0.8-0.8v-17.4l2.1-5l-0.1-4.8l1.1-3.3l1.1-1.7
		l5.5-3.8l11.7,4.2l12.3,2l8.4,4.5l3.9-0.4l2-1.3l3.5,0.8l3.3-0.4l1.6-1.8l0.5-4.3l0.6-0.6l2.2,0.3l5-2.1l1.1,0.4l5-0.5l0.6-0.6
		l5.9-10.8l6.6-8.8l8.7-13.8l1.1-1.2l2.8-0.3l0.6-0.6l7.8,0.3l7.9,3.5l26-2.1l0.6,0.5l5-0.5l0.6,0.5l13.9-0.4l0.6,0.5l4.4-0.4
		l0.6,0.5l18.3-1.9L259,316.8z"/>
	<path id="SM-02" class="st1" d="M233.8,638l0.1,4.8l-0.6,0.6l0.6,3.1l2.3,2.5l4.5,1.1l3.3,1.8l4,5l2.9,7.2l2.8,2.4l1.6,0.4l5.7,4.8
		l2.3,3l3.5,7.2l0.6,6.9l0.6,0.4l0.1,5.9l-0.6,0.6l0.1,1.6l-8.7,12.8l-3.8,3.6l0.6,6.4l0,0l-3.3,1.4l-3.3,4.7l-1.1,0.1l-2.8,2.5
		l-3.9,0.9l-1.1,1.2l-3.9,0.4l-0.6-0.5l-3.3,0.4l-0.6-0.5h-5l-6.8-9.6l-4.4,2.1l-1.6,0.2l-3.3-1.3l-5.5,3.8l-8.8,3.6l-4.8,9.1
		l-5,3.2l-3.3,4.1l-10.5,3.8l-10,1.5l-0.6,0.6l-8.3,0.9l-0.6,0.6l-11.6,0.7l-1.1-0.9l-8.9-3.4l-5-0.6l-11.2-6.9l-10.6-2.6l8.7-14.9
		l0.5-6.5l4.3-9.1l4-6.7l6.5-4.7l0.5-3.8l1.1-2.3l-11.5-30.1l-0.6-3.7l-1.1-2.6v-2.1l-2.3-6.8l-0.1-2.1l-2.3-6.8l-0.1-2.1l-2.9-8.9
		v-2.1l-2.3-6.7l-0.1-2.3l-2.3-6.7v-2.1l-1.1-2.6l0.6-0.6l0.4-9.8l2.1-5.6l1.6-6.6l7-11.5l6.5-9.3l16.4-18.4l2.1-5.1l-0.1-8.6
		l-0.6-0.4l-1.2-6.9l3.9-1.4l0,0l7.7-1.3l0.6-0.6l5-0.5l0.6-0.6l5-0.5l0.6-0.6l8.9,0.1l3.3,1.8l5.6,4.8l4.5,0.1l7.8,1.3l1.1,1
		l4.5,1.7l1.8,8.4l8.4,7.2l1.1-0.1l8.8-6.9v1.6l-0.6,0.6l0.1,10.3l0.6,0.5l0.6,4.8l10.5-4.8l3.3,0.2l-0.8,19.5l-5,1.6l-5,0.5
		l-5.6-1.1l-3.3,0.4l-0.6,0.6l-2.2,0.2l-6,5.5l3.4,3.5l4,9.2l0.1,4.8l-5.9,14.6l0.1,4.8l4,5l2.8,0.8l6.7,6.9l5,2.2l7.9,4.5l1.7,2.5
		L233.8,638z"/>
	<path id="SM-03" class="st1" d="M654.2,215.6l0.1,5.9l7.4,10l0.6,2.1l-8.1,20.3l-3.7,11.2l-1.1,1.7l29,43.9l0,0l-6.6,5l-9.8,12.3
		l-9.9,6.9l-8.2,8.9l-1.1,3.3l-3.8,7.4l-3.2,10l-3.8,4.7l-2.3-2l-1.7-0.4l-13.3,1.4l-1.7-0.9v-1.6l2.1-3L614,362l-6.7,1.2l-1.6-0.3
		l-1.1-0.4l-2.8-3l-1.7-3.1l-1.7-1.4l-5.5-1.1l-3.9-1.8l-2.8,0.3l-4.4,3.1l-2.8,0.3l-3.4-4v-1.1l-1.7-1.4l-1.6,0.7l-3.8,6.4
		l-2.8,0.3l-4.5-2.8l-2.8,0.3l-5.5,4.9l-4.4,0.4l-3.3,2.5l-7.7,0.8l-6,5l-3.9,2l-6.7,0.7l-2.2-0.3l0.1,2.7l-1.1,3.9l-3.8,7.4
		l-0.5,2.2l-0.5,4.3l1.1,3.1l-4.3,5.3l-8.7,7.9l-5,3.2l-3.9,0.9l-0.3,14.6l-0.6,0.6l0.6,3.7l-8.8,6.3l-3.3,3.1l0,0l-6.1,0.6
		l-0.6-0.5l-10,0.5l-8.9-1.8l-1.7,0.2l-7.3-3l-4-3.4l-6.1-2.1l-2.3-1.4l-6.7-0.4l0.5-4.9l1.6-3.9l-0.6-0.5l-2.5-14.8l-8.2,5.2
		l-1.1,0.1l3.1-15.4l-2.3-1.4l-12.3-4.2l-6.7,0.2l-0.6,0.6l-3.9,0.4l-0.6,0.6l-2.8,0.3l-2.2,1.3l-2.2,0.3l-5.1-4.8l-0.2-13l6.5-11.5
		l4.9-5.9V356l2.1-4.5l1.1-3.8L395,345l0.6-0.6l-0.8-13.4l0.6-0.6v-2.1l3.7-9.6l2.2-2.9l1.5-9.3l2.1-4.5l1.6-1.8l3.8-3.1l3.9-2l0,0
		l4.4-1l0.6-0.6l13.3-1.4l0.6-0.6l3.3-0.4l1.6-1.3l8.1-13.3l3.8-3.6l5.5-3.3l5.5-1.6l16.5-7.1l1-4.4l1.6-1.8l2.2-0.3l3.4,1.3
		l9.1,12.6l3.3,1.3l3.9,0.1l1.7,0.9l1.7,3.1l1.2,4.2l6.2,2.6l1.1-0.1l4,5.5l1.8,4.7l1.1,0.4l3.3-1.4l7.7-8.4l5.5-2.8l5.4-8.1
		l3.3-3.6l5.5-2.8l4.3-8l2.8-3.5l3.8-0.9l5.5-3.8l4.3-5.3l0.5-1.7l5,1.6l11.1-1.7l2.2,0.8l6.1-0.6l6-2.8l9.4-5.9l1.6-0.1l2.2-1.3
		l7.2-0.2l12.1-9.9l9.4-2.1L654.2,215.6z"/>
	<path id="SM-04" class="st1" d="M693.8,415l-6,0.4l-6.6,2.3l-3.8,4.2l-2.7,4.1l-2.1,5.9l-3.8,6.6l-3.8,4.7l-4.5,2.9l-2.8,3.3
		l-0.9,1.6l0.1,6.5l-5.4,8.1l-1.1,3.9l-4.9,6.4l-2.1,5.1l-1.6,6l0.1,2.7l-4.3,9.6l0.2,11.3l-2.6,7.8l-2.7,5.2l-7.1,7.7l-6.1,1.7
		l-4.4,2.6l-1.6,0.2l-0.6-0.5l-7.8,1.3l-7.2,3.5l-4.4,4.8l-5.4,8.1l-1.1,2.8v2.1l-3.8,3.6l-3.8,6.9l-0.5,2.2l-3.8,5.8l0.7,8.6
		l0.6,0.5l0.1,5.3l0.6,1.6l2.2,0.3v2.1l0.6,0.5l-0.6,0.6l0,0l-12.2,1.3l-0.6-0.4l-3.3,0.3l-0.6-0.5l-3.3,0.4l-0.6-0.5l-3.3,0.3
		l-0.6-0.4l-3.3,0.3l-0.6-0.4l-3.3,0.3l-0.4-0.6l-3.3,0.3l-0.6-0.5h-5l-0.9,9.8l-9.4-0.1l-1.1-0.4l-0.1-7.5l-0.6-0.5v-2.1l-16.7-4.2
		l-1.7-2.5v-1.1l-1.7-2.5l-2.3-5.7l-8.9-0.7l-0.6-1l-0.1-3.2l-0.6-0.5l-0.1-9.1l-1.2-3.6l-9.4,5.8l0,0l-5.7-5.3l-10.1-3.8l-2.3-2.5
		v-1.1l0,0l13.3-6.2l1.6-1.8l-0.1-2.7l2.7-3l3.3-1.4l1.1-1.8l-0.1-2.1l-2.2-0.8l-0.1-2.1l1.6-1.8l2.8-0.3l0.6-0.6l-0.1-3.2l-1.1-2.6
		l0.5-2.7l2.8-3l2.8-0.3l0.6-0.6l-0.1-4.3l-1.8-4.7l-1.7-2.5l-0.6-3.2l1.1-2.3l10.4-11.8l0.5-3.3l5.3-11.9l6.5-10.4l-0.3-17.2
		l-3.3,0.3l-6.1,2.8l-7.7,5.7l-15.7-12.4l-1.1-2l0,0l3.3-3.1l8.8-6.3l-0.6-3.7l0.6-0.6l0.3-14.6l3.9-0.9l5-3.2l8.7-7.9l4.3-5.3
		l-1.1-3.1l0.5-4.3l0.5-2.2l3.8-7.4l1.1-3.9l-0.1-2.7l2.2,0.3l6.7-0.7l3.9-2l6-5l7.7-0.8l3.3-2.5l4.4-0.4l5.5-4.9l2.8-0.3l4.5,2.8
		l2.8-0.3l3.8-6.4l1.6-0.7l1.7,1.4v1.1l3.4,4l2.8-0.3l4.4-3.1l2.8-0.3l3.9,1.8l5.5,1.1l1.7,1.4l1.7,3.1l2.8,3l1.1,0.4l1.6,0.3
		l6.7-1.2l1.1,0.9l-2.1,3v1.6l1.7,0.9l13.3-1.4l1.7,0.4l2.3,2l3.8-4.7l3.2-10l3.8-7.4l1.1-3.3l8.2-8.9l9.9-6.9l9.8-12.3l6.6-5l0,0
		l9.1,13.1l1.1,2.6l1.2,5.8l2.3,6.8v2.1l3.5,10.9l0.6,3.7l0.6,0.4v2.1l2.3,6.8v2.1l0.6,0.5l0.8,20.4l-2.1,7.8l-1,7.1L693.8,415z"/>
	<path id="SM-05" class="st1" d="M464.2,553.8v1.1l2.3,2.5l10.1,3.8l5.7,5.3l0,0l-2,13.2l2.5,12.7l0.6,16.4l-4.8,3.1l-5.9,7.5
		l-4.8,2.6L465,623l-4.6,3.5l0.2,12.1l10.3,1.7l5-9.8l12.9,6.9v10.1l-6.2,4.3l-3,2.9l-1.1,8.4l-3.3,4.3l-5,1.7l-1.9,2.6L484,700
		l-4.6,10.1h-7.9l-4.4,6.1L449.9,735l-0.3,12.8l0,0l-7.5,1.3l-5,3.2l-1.1,0.1l-3.4-2.3l-9.3,8l-5.5,3.3l-6.1,2.2l-1.1,1.8l-2.1,9.4
		l-11.2-4.2l-2.8,0.3l-2.8,1.4l-6.1,0.6l-1.6,0.7l-3.3,3l-4.4,2.1l-4.5-1.1l-10.6-1.1l-0.6-1l-3.4-2.3l-4.5-1.1l-3.4-2.9l-9.5-3.8
		l-3.9-2.8l-1.7-2.5l-0.6-2.6l2.1-6.7l-0.1-2.1l-2.2-0.3l-3.9-1.8l-2.8-2.4l-0.1-2.6l-0.6-0.5l2.7-4l-1.1-1.5l-1.1-0.4l3.8-9l-1.7-3
		L321,716l-1.7-0.4l-12.3-6.8l-1.7-0.4l-1.7-1.4l-0.6-2.6l-4-7.2l-1.1-0.4l-0.6,0.6l-15.5,3.8l-12.6,12.1l4,5l-3.3,4.2l-2.1-1.8
		l-2.8,0.1l-3.9,3.7l-0.6-2.6l-1.1-1.5l-1.6-0.4l-2.2,0.8l0,0l-0.6-6.4l3.8-3.6l8.7-12.8l-0.1-1.6l0.6-0.6l-0.1-5.9l-0.6-0.4
		l-0.6-6.9l-3.5-7.2l-2.3-3l-5.7-4.8l-1.6-0.4l-2.8-2.4l-2.9-7.2l-4-5l-3.3-1.8l-4.5-1.1l-2.3-2.5l-0.6-3.1l0.6-0.6l-0.1-4.8l0,0
		l3.8-1.4l2.8-0.3l0.6-0.6l3.3-0.3l7.2-3.7l10-1l0.6,0.4h5.5l0.6,0.5l14.4-0.9l10.6,3.8l27-15.2l6.7,1.4l11.6-1.2l0.6,0.4l3.3-0.3
		l4.5,2.2l1.1-0.6l2.1-4l2.6-7.3l2.7-5.2v-1.1l2.7-5.1l0,0l11.1-1.1l0.6-0.6l3.3-0.3l10.5-3.2l3.8-2l7.7-1.3l5.5-2.2l5-0.5l0.6-0.6
		l5-1.1l8.8-4.7l7.2-5.6l5.5-2.2l4.4-1l2.2-2.4l5.5-1.1l6-7l7.2-4l3.8-3.1L464.2,553.8z"/>
	<path id="SM-06" class="st1" d="M414.3,294.8l-3.9,2l-3.8,3.1l-1.6,1.8l-2.1,4.5l-1.5,9.3l-2.2,2.9l-3.7,9.6v2.1l-0.6,0.6l0.8,13.4
		l-0.6,0.6l0.1,2.7l-1.1,3.8l-2.1,4.5v1.1l-4.9,5.9l-6.5,11.5l0.2,13l5.1,4.8l2.2-0.3l2.2-1.3l2.8-0.3l0.6-0.6l3.9-0.4l0.6-0.6
		l6.7-0.2l12.3,4.2l2.3,1.4l-3.1,15.4l1.1-0.1l8.2-5.2l2.5,14.8l0.6,0.5l-1.6,3.9l-0.5,4.9l6.7,0.4l2.3,1.4l6.1,2.1l4,3.4l7.3,3
		l1.7-0.2l8.9,1.8l10-0.5l0.6,0.5l6.1-0.6l0,0l1.1,2l15.7,12.4l7.7-5.7l6.1-2.8l3.3-0.3l0.3,17.2l-6.5,10.6l-5.3,11.9l-0.5,3.3
		l-10.4,11.8l-1.1,2.3l0.6,3.2l1.7,2.5l1.8,4.7l0.1,4.3l-0.6,0.6l-2.8,0.3l-2.8,3l-0.5,2.7l1.1,2.6l0.1,3.2l-0.6,0.6l-2.8,0.3
		l-1.6,1.8l0.1,2.1l2.2,0.8l0.1,2.1l-1.1,1.8l-3.3,1.4l-2.7,3l0.1,2.7l-1.6,1.8l-13.3,6.2l0,0l-2.2,0.8l-3.8,3.1l-7.2,4l-6,7
		l-5.5,1.1l-2.2,2.4l-4.4,1l-5.5,2.2l-7.2,5.6l-8.8,4.7l-5,1.1l-0.6,0.6l-5,0.5l-5.5,2.2l-7.7,1.3l-3.8,2l-10.5,3.2l-3.3,0.3
		l-0.6,0.6l-11.1,1.1l0,0v-1.1l2.7-5.2l-0.1-4.3l0.6-0.6l0.5-3.8l7.6-11.6l5.5-4.9l-0.1-2.6l-0.6-0.5l-0.1-2.6l-1.1-3.6l-0.1-3.8
		l-0.6-0.4l-0.8-13.4l-0.6-0.5l-1.8-10.1l-1.2-3.1l-0.4-24.2l-0.6-1l-6.7-2l-1.3-11.2l-2.9-7.8l-20.3-21.6l-5-3.8l-4.5-2.3l-7.4-1.3
		l-8.9-3.4l-8.4-1.8l-1.7-0.9l-10.6-0.5l-0.6-0.5l-10.6,0.6l-3.9-1.2l-10.3-15.1l-9.6-9.2l-1.7-2.5l-0.6-2.1l-2.8-0.8l-6.2-3.1
		l-3.9-0.7l-7.2-2.5l-5-0.6l0,0l-0.6-3.7l0.6-0.6l0.5-6.5l0.6-0.6l-0.6-3.7l-2.8-3.5l-0.6,0.1l-6.2-5.9l-2.8-1.3l-2.8-3l10,0.1
		l5.5,1.1l8.3-0.4l10.6,2.1l3.9-0.4l13.8-6.3l3.9-0.9l4.4-2.1l3.8-0.4l1.6-1.3l-2.8-4l-1.8-5.2l0.5-5.5l3.6-5.6l-1.1-9.2l-2.9-8.9
		l-0.6-3.7l-4.6-7.6l-1.1-0.9l-8.9-2.3l0,0l8.2-11.6l5-2.6l1.6-1.8l39.2-56.4l5-3.2l7.7-1.9l3.8-2l0,0l11.1,2.1l8.4,0.2l0.6,0.5
		l7.8-0.3l0.6-0.6l6.7-1.2l4.4-2.1l1.7-0.2l5-3.2l2.8-0.8l6-3.3l1.6-1.3l6.5-8.2l1.6-0.2l6-3.8l1.1-0.1l6.2,4.8l3.3,1.8v1.1
		l-0.6,0.6l-0.9,12l-14.2,17.7l9.1,11.5l-8.1,12.1l0.6,1l12.3,8.4l4.5,7.1L414.3,294.8z"/>
	<path id="SM-07" class="st1" d="M227.6,406.9l5,0.6l7.2,2.5l3.9,0.7l6.2,3.1l2.8,0.8l0.6,2.1l1.7,2.5l9.6,9.2l10.3,15.1l3.9,1.2
		l10.6-0.6l0.6,0.5l10.6,0.5l1.7,0.9l8.4,1.8l8.9,3.5l7.2,1.4l4.5,2.3l5,3.8l20.3,21.6l2.9,7.8l1.3,11.2l6.7,2l0.6,1l0.4,24.2
		l1.2,3.1l1.8,10.1l0.6,0.5l0.8,13.4l0.6,0.4l0.1,3.8l0.6,0.5l0.6,5.9l0.6,0.5l0.1,2.6l-5.5,4.9l-7.6,11.6l-0.5,3.8l-0.6,0.6
		l0.1,4.3l-2.7,5.2v1.1l0,0l-2.7,5.1v1.1l-2.7,5.2l-2.6,7.3l-2.1,4l-1.1,0.6l-4.5-2.2l-3.3,0.3l-0.6-0.4l-11.6,1.2l-6.7-1.4
		l-27,15.2l-10.6-3.8l-14.4,0.9l-0.6-0.5h-5.5l-0.6-0.4l-10.1,1l-7.2,3.5l-3.3,0.3l-0.6,0.6l-2.8,0.3l-3.8,1.4l0,0l-0.6-3.7
		l-1.7-2.5l-7.9-4.5l-5-2.2l-6.7-6.9l-2.8-0.8l-4-5l-0.1-4.8l5.9-14.6l-0.1-4.8l-4-9.2l-3.4-3.5l6-5.5l2.2-0.2l0.6-0.6l3.3-0.4
		l5.6,1.1l5-0.5l5-1.6l0.8-19.5l-3.3-0.2l-10.5,4.8l-0.6-4.8l-0.6-0.5l-0.1-10.3l0.6-0.6v-1.6l-8.8,6.9l-1.1,0.1l-8.4-7.2l-1.8-8.4
		l-4.5-1.7l-1.1-1l-7.8-1.3l-4.5-0.1l-5.6-4.8l-3.3-1.8l-8.9-0.1l-0.6,0.6l-5,0.5l-0.6,0.6l-5,0.5l-0.6,0.6l-7.7,1.3l0,0l-0.8-11.8
		l-0.6-1l0,0l8.7-10.1l10.5-2.1l7.2-5.6l6.7-1.8l10.4-10.8l2.8-0.8l6-4.4l5-2.1l6-6l7.2-4l4.4-4.2l3.8-2.6l17-16.3l-2.3-6.2
		l-1.8-10.1l-2.9-6.7v-1.6L227.6,406.9z"/>
	<path id="SM-08" class="st1" d="M482.2,566.5l9.4-5.8l1.2,3.6l0.1,9.1l0.6,0.5l0.1,3.2l0.6,1l8.9,0.7l2.3,5.7l1.7,2.5v1.1l1.7,2.5
		l16.7,4.2v2.1l0.6,0.5l0.1,7.5l1.1,0.4l9.4,0.1l0.9-9.8h5l0.6,0.5l3.3-0.3l0.6,0.5l3.3-0.3l0.6,0.4l3.3-0.3l0.6,0.4l3.3-0.3
		l0.6,0.5l3.3-0.4l0.6,0.5l3.3-0.3l0.6,0.4l12.2-1.3l0,0l-1.6,4.5l0.1,3.2l1.1,2.6v2.1l0.6-0.1l-0.6,1.6l0.1,10.3l-1.1,4.4l2.3,2.5
		l0.6-0.1l0.1,5.3l4.5,0.1l2.2,0.8l1.7,1.4l0.6,1.6l-0.5,4.9l-13.1,14.3l-1.1,3.8l0.1,2.1l-0.6,0.6v2.1l-4.8,11.3v1.1l-5.3,9.6
		l-4,5.8l-1.6,3.9l-1.4,0.9l-1.2,2.1l-3.6,14.9L551,716l-3.6,22.5l-0.6,0.6l-0.6-0.5l-10.6,1.1l-0.6-0.5l-31.6,2.2L503,741l-10,1
		l-0.6-0.4l-11.1,1.1l-0.6-0.4l-6.1,0.6l-0.6,0.6l-3.3,0.3l-3.8,1.4l-6.7,1.2l-0.6,0.6l-7.8,0.8l-0.6-0.5l-1.8,0.2l0,0l0.3-12.8
		l17.1-18.7l4.4-6.1h7.9l4.6-10.1l-15.7-28.2l1.9-2.6l5-1.7l3.3-4.3l1.1-8.4l3-2.9l6.2-4.3v-10.1l-12.9-6.9l-5,9.8l-10.3-1.7
		l-0.2-12.1l4.6-3.5l2.9-0.9l4.8-2.6l5.9-7.5l4.8-3.1l-0.6-16.4l-2.5-12.7L482.2,566.5z"/>
	<path id="SM-09" class="st1" d="M691.6,35.1l0.6,1.3l0.1,6.5l0.6,0.5l0.1,6.5l1.8,5.2l0.7,7.5l-1.1,0.7l-5.5,0.6l-7.7,4.6l-3.8,4.7
		l-1.1,4.4l-4.3,6.4l-4.4,3.7l-2.1,5.1l2.9,7.2l0.1,2.7l0.6,0.4l0.1,4.3l1.2,3.6l0.6,5.9l0.6,0.4l0.8,14l5.8,14l0.1,5.9l-4.9,5.3
		l-3.9,1.5l-7.7,7.8l-9.4,1.5l-0.6,0.6l-5.5,0.6l4.7,18.4l0.1,3.2l0.6,0.4l1.3,10.1l0.6,0.5l0.1,3.8l0.6,0.5l0.1,3.8l0.6,0.4
		l0.1,5.9l0,0l-8.9,3.1l-9.4,2.1l-12,9.9l-7.2,0.2l-2.2,1.3l-1.6,0.1l-9.4,5.9l-6,2.8l-6.1,0.6l-2.2-0.8l-11.1,1.7l-5-1.6l-0.5,1.7
		l-4.3,5.3l-5.5,3.8l-3.8,0.9l-2.8,3.5l-4.3,8l-5.5,2.8l-3.3,3.6l-5.4,8.1l-5.5,2.8l-7.7,8.4L521,291l-1.1-0.4l-1.8-4.7l-4-5.5
		l-1.1,0.1l-6.2-2.6l-1.2-4.2l-1.7-3.1l-1.7-0.9l-3.9-0.1l-3.3-1.3l-9.1-12.6l-3.4-1.3l-2.2,0.3l-1.6,1.8l-1,4.4l-16.5,7.1l-5.5,1.6
		l-5.5,3.3l-3.8,3.6l-8.1,13.3l-1.6,1.3l-3.3,0.4l-0.6,0.6l-13.3,1.4l-0.6,0.6l-4.4,1l0,0l-0.6-2.1l-4.5-7.1l-12.4-8.7l-0.6-1
		l8.1-12.1l-9.1-11.5l14.2-17.7l0.9-12l0.6-0.6v-1.1l-3.3-1.8l-6.2-4.8l-1.1,0.1l-6,3.8l-1.6,0.2l-6.5,8.2l-1.6,1.3l-6,3.3l-2.8,0.8
		l-5,3.2l-1.7,0.2l-4.4,2.1l-6.7,1.2l-0.6,0.6l-7.8,0.3l-0.6-0.5l-8.4-0.2l-11.1-2.1l0,0v-1.1l17.5-20.7l63.7-50.8l19.2-16l2.8-1.4
		l9.9-9.1l5-2.1l5-3.8l3.3-1.4l3.3-0.4l2.2-1.3l5.5-6l6.1-2.8l3.8-2.6l12.8-2.4l3.8-3.1l4.4-1l5.5-4.3l2.8-1.4l6.1-0.6l3.3,0.8
		l8.9-0.9l0.5-0.6l2.8-0.3l3.8-1.5l5.5-4.3l10.9-10.3l3.8-2.6l6.7-0.7l2.8,0.8l1.6-0.2l1.7,0.9l3.3-0.9l3.8-4.7l6.6-4.5l4.8-9.7
		l4.9-5.3l1.1-0.7l10.6-0.6l6-5.5l7.7-0.8l5-2.6l6-8.7v-1.6l-2.3-2l0.5-2.8l2.8-1.9l2.8-0.3l0.6-0.6l1.6-3.9l0.5-3.3l3.3-2.5
		l6.1-0.1l1.6-1.8v-1.1l2.7-4l1.7-0.2l2.8,1.3l1.6-0.2l4.3-6.9l1.6-0.1l1.7,3.6v1.6l2.8,3.5l2.2,0.3l2.7-3.5l3.9-0.4l2.2,0.9l2.8,3
		l3.9,0.7l1.6-0.7l1.1-1.8v-2.1l0.6-0.1l-0.1-5.3l3.3-1.4l3.3,1.3l0.1,8.6l0.6,0.5l0.7,6.9l0.6,0.5L691.6,35.1z"/>
</g>
</svg>
