<svg xmlns="http://www.w3.org/2000/svg" width="24" height="20" viewBox="0 0 24 20">
    <path fill="#FFF" fill-rule="nonzero" d="M1.737 1.68c-2.317 2.24-2.315 5.844 0 8.086l10.257 9.935 10.268-9.923c2.317-2.24 2.317-5.847 0-8.087-2.318-2.24-6.05-2.24-8.367 0l-1.89 1.827-1.901-1.838c-2.318-2.24-6.05-2.24-8.367 0z"/>
</svg>
