<?xml version="1.0" encoding="UTF-8"?>
<svg width="31px" height="30px" viewBox="0 0 31 30" version="1.1" xmlns="http://www.w3.org/2000/svg" xmlns:xlink="http://www.w3.org/1999/xlink">
    <!-- Generator: Sketch 46.2 (44496) - http://www.bohemiancoding.com/sketch -->
    <title>icon-social-email</title>
    <desc>Created with Sketch.</desc>
    <defs></defs>
    <g id="Page-1" stroke="none" stroke-width="1" fill="none" fill-rule="evenodd">
        <g id="icon-social-email" fill-rule="nonzero" fill="#FFFFFF">
            <path d="M15.8,18 C15.6,18.2 15.2,18.2 14.9,18 L12.3,15.9 L8,19.9 L22.7,19.9 L18.4,15.9 L15.8,18 Z" id="Shape"></path>
            <polygon id="Shape" points="7 11.7 7 19 11.2 15"></polygon>
            <path d="M15.3,0.1 C7.1,0.1 0.4,6.8 0.4,15 C0.4,23.2 7.1,29.9 15.3,29.9 C23.5,29.9 30.2,23.2 30.2,15 C30.2,6.7 23.5,0.1 15.3,0.1 Z M25,20.4 C25,20.9 24.6,21.3 24.1,21.3 L6.5,21.3 C6,21.3 5.6,20.9 5.6,20.4 L5.6,9.5 C5.6,9 6,8.6 6.5,8.6 L24.1,8.6 C24.6,8.6 25,9 25,9.5 L25,20.4 Z" id="Shape"></path>
            <polygon id="Shape" points="23.5 10 7.1 10 15.3 16.6"></polygon>
            <polygon id="Shape" points="23.7 19 23.7 11.7 19.4 15"></polygon>
        </g>
    </g>
</svg>