<svg xmlns="http://www.w3.org/2000/svg" width="19" height="10" viewBox="0 0 19 10">
    <path fill="none" fill-rule="evenodd" stroke="#2A2C37" stroke-linecap="round" stroke-linejoin="round" stroke-width="2" d="M1 1.246L8.915 8.87 17.382 1"/>
</svg>
